{"date":"2025-07-31T13:30:07.110+00:00","code":"ENTITY","message":null,"data":{"content":[{"uuid":"c8468171-9d2f-4a1d-a14e-6442c01352bd","email":"provider.1753968582097.941.1753968605580@example.com","firstName":"Dr. Ashish","lastName":"Martin","phone":null,"birthDate":"1988-05-22T18:30:00Z","avatar":null,"active":true,"source":null,"archive":false,"timezone":null,"providerType":"MD","gender":"FEMALE","npi":1234582097,"federalTaxIdNumber":null,"role":"PROVIDER","roleType":"PROVIDER","officeFaxNumber":"","licenseNumber":null,"groupNpiNumber":null,"taxonomyNumber":"","workLocations":{},"acceptedInsurances":{},"specialities":{"550e8400-e29b-41d4-a716-446655440003":"Behavioral Health & Psychiatry "},"licenceInformation":[{"uuid":"92a01b9e-12bc-4d49-83ee-d1e7cb97786b","licenseState":"","licenseNumber":"","expiryDate":null,"licenseActiveDate":null,"licenseDocument":null}],"deaInformation":[{"uuid":"2f110ed7-a20c-4215-aec9-1f9e6b48d42e","deaState":"","deaNumber":"","deaTermDate":null,"deaActiveDate":null}],"hospitalAffiliation":"","experience":"","acceptCash":false,"providerEmployment":"","workExperience":"","bio":"","errorMessage":null,"acceptNewPatient":false,"expertise":"","areaFocus":"","referralNumber":null,"secondOpinion":"","spokenLanguages":{},"ageGroupSeen":{},"careService":{},"lastLogin":null,"colorCode":"#7e1151","loginUrl":"https://stage_aithinkitive.uat.provider.ecarehealth.com","emailVerified":false},{"uuid":"c596ab82-3ee7-4b96-982e-1cedbb851790","email":"provider.1753967940855.558.1753967963327@example.com","firstName":"Dr. Hero","lastName":"Clark","phone":null,"birthDate":"1989-05-23T18:30:00Z","avatar":null,"active":true,"source":null,"archive":false,"timezone":null,"providerType":"MD","gender":"FEMALE","npi":1234540855,"federalTaxIdNumber":null,"role":"PROVIDER","roleType":"PROVIDER","officeFaxNumber":"","licenseNumber":null,"groupNpiNumber":null,"taxonomyNumber":"","workLocations":{},"acceptedInsurances":{},"specialities":{"550e8400-e29b-41d4-a716-446655440003":"Behavioral Health & Psychiatry "},"licenceInformation":[{"uuid":"2f42664d-3134-4c77-8f14-1a80201e8396","licenseState":"","licenseNumber":"","expiryDate":null,"licenseActiveDate":null,"licenseDocument":null}],"deaInformation":[{"uuid":"be6da9e8-02b8-4530-b8f6-60817b07bf7e","deaState":"","deaNumber":"","deaTermDate":null,"deaActiveDate":null}],"hospitalAffiliation":"","experience":"","acceptCash":false,"providerEmployment":"","workExperience":"","bio":"","errorMessage":null,"acceptNewPatient":false,"expertise":"","areaFocus":"","referralNumber":null,"secondOpinion":"","spokenLanguages":{},"ageGroupSeen":{},"careService":{},"lastLogin":null,"colorCode":"#cf70aa","loginUrl":"https://stage_aithinkitive.uat.provider.ecarehealth.com","emailVerified":false},{"uuid":"3ce90ac8-91d1-4a36-9c9e-b29867f4585f","email":"provider.1753967483223.60.1753967505949@example.com","firstName":"Dr. Sainath","lastName":"Brown","phone":null,"birthDate":"1985-05-19T18:30:00Z","avatar":null,"active":true,"source":null,"archive":false,"timezone":null,"providerType":"MD","gender":"FEMALE","npi":1234583223,"federalTaxIdNumber":null,"role":"PROVIDER","roleType":"PROVIDER","officeFaxNumber":"","licenseNumber":null,"groupNpiNumber":null,"taxonomyNumber":"","workLocations":{},"acceptedInsurances":{},"specialities":{"550e8400-e29b-41d4-a716-446655440003":"Behavioral Health & Psychiatry "},"licenceInformation":[{"uuid":"6f2a9ca7-3d3b-4bb7-9121-571467d86b7d","licenseState":"","licenseNumber":"","expiryDate":null,"licenseActiveDate":null,"licenseDocument":null}],"deaInformation":[{"uuid":"4983e82a-76f5-4e8d-9445-5056ea1bbca6","deaState":"","deaNumber":"","deaTermDate":null,"deaActiveDate":null}],"hospitalAffiliation":"","experience":"","acceptCash":false,"providerEmployment":"","workExperience":"","bio":"","errorMessage":null,"acceptNewPatient":false,"expertise":"","areaFocus":"","referralNumber":null,"secondOpinion":"","spokenLanguages":{},"ageGroupSeen":{},"careService":{},"lastLogin":null,"colorCode":"#8e0e66","loginUrl":"https://stage_aithinkitive.uat.provider.ecarehealth.com","emailVerified":false},{"uuid":"545a146d-7ba6-4d03-bbd1-44ab698480f4","email":"saurabh.kale+steven+1@medarch.com","firstName":"Steven","lastName":"Miller","phone":null,"birthDate":null,"avatar":null,"active":true,"source":null,"archive":false,"timezone":null,"providerType":null,"gender":"MALE","npi":null,"federalTaxIdNumber":null,"role":"PROVIDER","roleType":"PROVIDER","officeFaxNumber":"","licenseNumber":null,"groupNpiNumber":null,"taxonomyNumber":"","workLocations":{},"acceptedInsurances":{},"specialities":{},"licenceInformation":[{"uuid":"e91e9d70-2647-4849-a86f-565aa21da40a","licenseState":"","licenseNumber":"","expiryDate":null,"licenseActiveDate":null,"licenseDocument":null}],"deaInformation":[{"uuid":"d298dc5d-e35f-4994-9e2e-f6b27fa8650f","deaState":"","deaNumber":"","deaTermDate":null,"deaActiveDate":null}],"hospitalAffiliation":"","experience":"","acceptCash":false,"providerEmployment":"","workExperience":"","bio":"","errorMessage":null,"acceptNewPatient":false,"expertise":"","areaFocus":"","referralNumber":null,"secondOpinion":"","spokenLanguages":{},"ageGroupSeen":{},"careService":{},"lastLogin":null,"colorCode":"#6c9fc1","loginUrl":"https://stage_aithinkitive.uat.provider.ecarehealth.com","emailVerified":false},{"uuid":"2989fffd-9583-4e3a-a607-3d93bc19d4dd","email":"test1753967298306@mailinator.com","firstName":"BobF","lastName":"BobTestU","phone":null,"birthDate":null,"avatar":null,"active":true,"source":null,"archive":false,"timezone":null,"providerType":null,"gender":"MALE","npi":null,"federalTaxIdNumber":null,"role":"PROVIDER","roleType":"PROVIDER","officeFaxNumber":"","licenseNumber":null,"groupNpiNumber":null,"taxonomyNumber":"","workLocations":{},"acceptedInsurances":{},"specialities":{},"licenceInformation":[{"uuid":"2f6104db-a087-45d0-9bd8-fc531fef3b1a","licenseState":"","licenseNumber":"","expiryDate":null,"licenseActiveDate":null,"licenseDocument":null}],"deaInformation":[{"uuid":"d41ba2c3-19c2-44a5-afe8-51cf902bf119","deaState":"","deaNumber":null,"deaTermDate":null,"deaActiveDate":null}],"hospitalAffiliation":"","experience":"","acceptCash":false,"providerEmployment":"","workExperience":"","bio":"","errorMessage":null,"acceptNewPatient":false,"expertise":"","areaFocus":"","referralNumber":null,"secondOpinion":"","spokenLanguages":{},"ageGroupSeen":{},"careService":{},"lastLogin":null,"colorCode":"#678452","loginUrl":"https://stage_aithinkitive.uat.provider.ecarehealth.com","emailVerified":false},{"uuid":"34234227-8358-4b97-a86d-40ea15aec1c4","email":"test1753967240490@mailinator.com","firstName":"CarolC","lastName":"CarolTestD","phone":null,"birthDate":null,"avatar":null,"active":true,"source":null,"archive":false,"timezone":null,"providerType":null,"gender":"FEMALE","npi":null,"federalTaxIdNumber":null,"role":"PROVIDER","roleType":"PROVIDER","officeFaxNumber":"","licenseNumber":null,"groupNpiNumber":null,"taxonomyNumber":"","workLocations":{},"acceptedInsurances":{},"specialities":{},"licenceInformation":[{"uuid":"e93f3c5a-41e2-44ac-8495-7ace88b8f552","licenseState":"","licenseNumber":"","expiryDate":null,"licenseActiveDate":null,"licenseDocument":null}],"deaInformation":[{"uuid":"546908a7-f7fa-4023-8743-262228d21cf9","deaState":"","deaNumber":null,"deaTermDate":null,"deaActiveDate":null}],"hospitalAffiliation":"","experience":"","acceptCash":false,"providerEmployment":"","workExperience":"","bio":"","errorMessage":null,"acceptNewPatient":false,"expertise":"","areaFocus":"","referralNumber":null,"secondOpinion":"","spokenLanguages":{},"ageGroupSeen":{},"careService":{},"lastLogin":null,"colorCode":"#89aa9d","loginUrl":"https://stage_aithinkitive.uat.provider.ecarehealth.com","emailVerified":false},{"uuid":"4c542c92-3ae1-4c61-9979-acd6c16b7fc8","email":"provider.1753967137691.898.1753967161185@example.com","firstName":"Dr. Rutuja","lastName":"Anderson","phone":null,"birthDate":"1985-05-19T18:30:00Z","avatar":null,"active":true,"source":null,"archive":false,"timezone":null,"providerType":"MD","gender":"FEMALE","npi":1234537691,"federalTaxIdNumber":null,"role":"PROVIDER","roleType":"PROVIDER","officeFaxNumber":"","licenseNumber":null,"groupNpiNumber":null,"taxonomyNumber":"","workLocations":{},"acceptedInsurances":{},"specialities":{"550e8400-e29b-41d4-a716-446655440003":"Behavioral Health & Psychiatry "},"licenceInformation":[{"uuid":"2a826efc-b03a-4c20-9405-eca6405a036e","licenseState":"","licenseNumber":"","expiryDate":null,"licenseActiveDate":null,"licenseDocument":null}],"deaInformation":[{"uuid":"59b19417-01aa-4959-9b17-056585aed9d2","deaState":"","deaNumber":"","deaTermDate":null,"deaActiveDate":null}],"hospitalAffiliation":"","experience":"","acceptCash":false,"providerEmployment":"","workExperience":"","bio":"","errorMessage":null,"acceptNewPatient":false,"expertise":"","areaFocus":"","referralNumber":null,"secondOpinion":"","spokenLanguages":{},"ageGroupSeen":{},"careService":{},"lastLogin":null,"colorCode":"#190835","loginUrl":"https://stage_aithinkitive.uat.provider.ecarehealth.com","emailVerified":false},{"uuid":"68fccfb6-32df-484b-b481-e7b8a12fd4bb","email":"test1753967135317@mailinator.com","firstName":"AliceD","lastName":"AliceTestP","phone":null,"birthDate":null,"avatar":null,"active":true,"source":null,"archive":false,"timezone":null,"providerType":null,"gender":"FEMALE","npi":null,"federalTaxIdNumber":null,"role":"PROVIDER","roleType":"PROVIDER","officeFaxNumber":"","licenseNumber":null,"groupNpiNumber":null,"taxonomyNumber":"","workLocations":{},"acceptedInsurances":{},"specialities":{},"licenceInformation":[{"uuid":"5c1e3fa9-8ec1-4d8a-b0b6-ddb7d0c59b7f","licenseState":"","licenseNumber":"","expiryDate":null,"licenseActiveDate":null,"licenseDocument":null}],"deaInformation":[{"uuid":"4590a22b-2435-4180-89ac-0693d68ac26c","deaState":"","deaNumber":null,"deaTermDate":null,"deaActiveDate":null}],"hospitalAffiliation":"","experience":"","acceptCash":false,"providerEmployment":"","workExperience":"","bio":"","errorMessage":null,"acceptNewPatient":false,"expertise":"","areaFocus":"","referralNumber":null,"secondOpinion":"","spokenLanguages":{},"ageGroupSeen":{},"careService":{},"lastLogin":null,"colorCode":"#813440","loginUrl":"https://stage_aithinkitive.uat.provider.ecarehealth.com","emailVerified":false}],"page":{"size":8,"number":0,"totalElements":670,"totalPages":84}},"path":"/api/master/provider","requestId":"350cae97-045b-433d-b50d-5ee7f0ab1fca","version":"1.0"}