{"date":"2025-07-31T13:32:28.071+00:00","code":"ENTITY","message":null,"data":{"content":[{"uuid":"bcc07fad-69cb-4351-bde5-cc0166b89a75","email":"test1753968620233@mailinator.com","firstName":"DavidD","lastName":"DavidTestS","phone":null,"birthDate":null,"avatar":null,"active":true,"source":null,"archive":false,"timezone":null,"providerType":null,"gender":"MALE","npi":null,"federalTaxIdNumber":null,"role":"PROVIDER","roleType":"PROVIDER","officeFaxNumber":"","licenseNumber":null,"groupNpiNumber":null,"taxonomyNumber":"","workLocations":{},"acceptedInsurances":{},"specialities":{},"licenceInformation":[{"uuid":"41cc55ea-679c-4230-a3f8-ecb63a104709","licenseState":"","licenseNumber":"","expiryDate":null,"licenseActiveDate":null,"licenseDocument":null}],"deaInformation":[{"uuid":"574ff104-c8b5-4c40-bda9-f326b2ef47c4","deaState":"","deaNumber":null,"deaTermDate":null,"deaActiveDate":null}],"hospitalAffiliation":"","experience":"","acceptCash":false,"providerEmployment":"","workExperience":"","bio":"","errorMessage":null,"acceptNewPatient":false,"expertise":"","areaFocus":"","referralNumber":null,"secondOpinion":"","spokenLanguages":{},"ageGroupSeen":{},"careService":{},"lastLogin":null,"colorCode":"#5d2c91","loginUrl":"https://stage_aithinkitive.uat.provider.ecarehealth.com","emailVerified":false},{"uuid":"c8468171-9d2f-4a1d-a14e-6442c01352bd","email":"provider.1753968582097.941.1753968605580@example.com","firstName":"Dr. Ashish","lastName":"Martin","phone":null,"birthDate":"1988-05-22T18:30:00Z","avatar":null,"active":true,"source":null,"archive":false,"timezone":null,"providerType":"MD","gender":"FEMALE","npi":1234582097,"federalTaxIdNumber":null,"role":"PROVIDER","roleType":"PROVIDER","officeFaxNumber":"","licenseNumber":null,"groupNpiNumber":null,"taxonomyNumber":"","workLocations":{},"acceptedInsurances":{},"specialities":{"550e8400-e29b-41d4-a716-446655440003":"Behavioral Health & Psychiatry "},"licenceInformation":[{"uuid":"92a01b9e-12bc-4d49-83ee-d1e7cb97786b","licenseState":"","licenseNumber":"","expiryDate":null,"licenseActiveDate":null,"licenseDocument":null}],"deaInformation":[{"uuid":"2f110ed7-a20c-4215-aec9-1f9e6b48d42e","deaState":"","deaNumber":"","deaTermDate":null,"deaActiveDate":null}],"hospitalAffiliation":"","experience":"","acceptCash":false,"providerEmployment":"","workExperience":"","bio":"","errorMessage":null,"acceptNewPatient":false,"expertise":"","areaFocus":"","referralNumber":null,"secondOpinion":"","spokenLanguages":{},"ageGroupSeen":{},"careService":{},"lastLogin":null,"colorCode":"#7e1151","loginUrl":"https://stage_aithinkitive.uat.provider.ecarehealth.com","emailVerified":false},{"uuid":"c596ab82-3ee7-4b96-982e-1cedbb851790","email":"provider.1753967940855.558.1753967963327@example.com","firstName":"Dr. Hero","lastName":"Clark","phone":null,"birthDate":"1989-05-23T18:30:00Z","avatar":null,"active":true,"source":null,"archive":false,"timezone":null,"providerType":"MD","gender":"FEMALE","npi":1234540855,"federalTaxIdNumber":null,"role":"PROVIDER","roleType":"PROVIDER","officeFaxNumber":"","licenseNumber":null,"groupNpiNumber":null,"taxonomyNumber":"","workLocations":{},"acceptedInsurances":{},"specialities":{"550e8400-e29b-41d4-a716-446655440003":"Behavioral Health & Psychiatry "},"licenceInformation":[{"uuid":"2f42664d-3134-4c77-8f14-1a80201e8396","licenseState":"","licenseNumber":"","expiryDate":null,"licenseActiveDate":null,"licenseDocument":null}],"deaInformation":[{"uuid":"be6da9e8-02b8-4530-b8f6-60817b07bf7e","deaState":"","deaNumber":"","deaTermDate":null,"deaActiveDate":null}],"hospitalAffiliation":"","experience":"","acceptCash":false,"providerEmployment":"","workExperience":"","bio":"","errorMessage":null,"acceptNewPatient":false,"expertise":"","areaFocus":"","referralNumber":null,"secondOpinion":"","spokenLanguages":{},"ageGroupSeen":{},"careService":{},"lastLogin":null,"colorCode":"#cf70aa","loginUrl":"https://stage_aithinkitive.uat.provider.ecarehealth.com","emailVerified":false},{"uuid":"3ce90ac8-91d1-4a36-9c9e-b29867f4585f","email":"provider.1753967483223.60.1753967505949@example.com","firstName":"Dr. Sainath","lastName":"Brown","phone":null,"birthDate":"1985-05-19T18:30:00Z","avatar":null,"active":true,"source":null,"archive":false,"timezone":null,"providerType":"MD","gender":"FEMALE","npi":1234583223,"federalTaxIdNumber":null,"role":"PROVIDER","roleType":"PROVIDER","officeFaxNumber":"","licenseNumber":null,"groupNpiNumber":null,"taxonomyNumber":"","workLocations":{},"acceptedInsurances":{},"specialities":{"550e8400-e29b-41d4-a716-446655440003":"Behavioral Health & Psychiatry "},"licenceInformation":[{"uuid":"6f2a9ca7-3d3b-4bb7-9121-571467d86b7d","licenseState":"","licenseNumber":"","expiryDate":null,"licenseActiveDate":null,"licenseDocument":null}],"deaInformation":[{"uuid":"4983e82a-76f5-4e8d-9445-5056ea1bbca6","deaState":"","deaNumber":"","deaTermDate":null,"deaActiveDate":null}],"hospitalAffiliation":"","experience":"","acceptCash":false,"providerEmployment":"","workExperience":"","bio":"","errorMessage":null,"acceptNewPatient":false,"expertise":"","areaFocus":"","referralNumber":null,"secondOpinion":"","spokenLanguages":{},"ageGroupSeen":{},"careService":{},"lastLogin":null,"colorCode":"#8e0e66","loginUrl":"https://stage_aithinkitive.uat.provider.ecarehealth.com","emailVerified":false},{"uuid":"545a146d-7ba6-4d03-bbd1-44ab698480f4","email":"saurabh.kale+steven+1@medarch.com","firstName":"Steven","lastName":"Miller","phone":null,"birthDate":null,"avatar":null,"active":true,"source":null,"archive":false,"timezone":null,"providerType":null,"gender":"MALE","npi":null,"federalTaxIdNumber":null,"role":"PROVIDER","roleType":"PROVIDER","officeFaxNumber":"","licenseNumber":null,"groupNpiNumber":null,"taxonomyNumber":"","workLocations":{},"acceptedInsurances":{},"specialities":{},"licenceInformation":[{"uuid":"e91e9d70-2647-4849-a86f-565aa21da40a","licenseState":"","licenseNumber":"","expiryDate":null,"licenseActiveDate":null,"licenseDocument":null}],"deaInformation":[{"uuid":"d298dc5d-e35f-4994-9e2e-f6b27fa8650f","deaState":"","deaNumber":"","deaTermDate":null,"deaActiveDate":null}],"hospitalAffiliation":"","experience":"","acceptCash":false,"providerEmployment":"","workExperience":"","bio":"","errorMessage":null,"acceptNewPatient":false,"expertise":"","areaFocus":"","referralNumber":null,"secondOpinion":"","spokenLanguages":{},"ageGroupSeen":{},"careService":{},"lastLogin":null,"colorCode":"#6c9fc1","loginUrl":"https://stage_aithinkitive.uat.provider.ecarehealth.com","emailVerified":false},{"uuid":"2989fffd-9583-4e3a-a607-3d93bc19d4dd","email":"test1753967298306@mailinator.com","firstName":"BobF","lastName":"BobTestU","phone":null,"birthDate":null,"avatar":null,"active":true,"source":null,"archive":false,"timezone":null,"providerType":null,"gender":"MALE","npi":null,"federalTaxIdNumber":null,"role":"PROVIDER","roleType":"PROVIDER","officeFaxNumber":"","licenseNumber":null,"groupNpiNumber":null,"taxonomyNumber":"","workLocations":{},"acceptedInsurances":{},"specialities":{},"licenceInformation":[{"uuid":"2f6104db-a087-45d0-9bd8-fc531fef3b1a","licenseState":"","licenseNumber":"","expiryDate":null,"licenseActiveDate":null,"licenseDocument":null}],"deaInformation":[{"uuid":"d41ba2c3-19c2-44a5-afe8-51cf902bf119","deaState":"","deaNumber":null,"deaTermDate":null,"deaActiveDate":null}],"hospitalAffiliation":"","experience":"","acceptCash":false,"providerEmployment":"","workExperience":"","bio":"","errorMessage":null,"acceptNewPatient":false,"expertise":"","areaFocus":"","referralNumber":null,"secondOpinion":"","spokenLanguages":{},"ageGroupSeen":{},"careService":{},"lastLogin":null,"colorCode":"#678452","loginUrl":"https://stage_aithinkitive.uat.provider.ecarehealth.com","emailVerified":false},{"uuid":"34234227-8358-4b97-a86d-40ea15aec1c4","email":"test1753967240490@mailinator.com","firstName":"CarolC","lastName":"CarolTestD","phone":null,"birthDate":null,"avatar":null,"active":true,"source":null,"archive":false,"timezone":null,"providerType":null,"gender":"FEMALE","npi":null,"federalTaxIdNumber":null,"role":"PROVIDER","roleType":"PROVIDER","officeFaxNumber":"","licenseNumber":null,"groupNpiNumber":null,"taxonomyNumber":"","workLocations":{},"acceptedInsurances":{},"specialities":{},"licenceInformation":[{"uuid":"e93f3c5a-41e2-44ac-8495-7ace88b8f552","licenseState":"","licenseNumber":"","expiryDate":null,"licenseActiveDate":null,"licenseDocument":null}],"deaInformation":[{"uuid":"546908a7-f7fa-4023-8743-262228d21cf9","deaState":"","deaNumber":null,"deaTermDate":null,"deaActiveDate":null}],"hospitalAffiliation":"","experience":"","acceptCash":false,"providerEmployment":"","workExperience":"","bio":"","errorMessage":null,"acceptNewPatient":false,"expertise":"","areaFocus":"","referralNumber":null,"secondOpinion":"","spokenLanguages":{},"ageGroupSeen":{},"careService":{},"lastLogin":null,"colorCode":"#89aa9d","loginUrl":"https://stage_aithinkitive.uat.provider.ecarehealth.com","emailVerified":false},{"uuid":"4c542c92-3ae1-4c61-9979-acd6c16b7fc8","email":"provider.1753967137691.898.1753967161185@example.com","firstName":"Dr. Rutuja","lastName":"Anderson","phone":null,"birthDate":"1985-05-19T18:30:00Z","avatar":null,"active":true,"source":null,"archive":false,"timezone":null,"providerType":"MD","gender":"FEMALE","npi":1234537691,"federalTaxIdNumber":null,"role":"PROVIDER","roleType":"PROVIDER","officeFaxNumber":"","licenseNumber":null,"groupNpiNumber":null,"taxonomyNumber":"","workLocations":{},"acceptedInsurances":{},"specialities":{"550e8400-e29b-41d4-a716-446655440003":"Behavioral Health & Psychiatry "},"licenceInformation":[{"uuid":"2a826efc-b03a-4c20-9405-eca6405a036e","licenseState":"","licenseNumber":"","expiryDate":null,"licenseActiveDate":null,"licenseDocument":null}],"deaInformation":[{"uuid":"59b19417-01aa-4959-9b17-056585aed9d2","deaState":"","deaNumber":"","deaTermDate":null,"deaActiveDate":null}],"hospitalAffiliation":"","experience":"","acceptCash":false,"providerEmployment":"","workExperience":"","bio":"","errorMessage":null,"acceptNewPatient":false,"expertise":"","areaFocus":"","referralNumber":null,"secondOpinion":"","spokenLanguages":{},"ageGroupSeen":{},"careService":{},"lastLogin":null,"colorCode":"#190835","loginUrl":"https://stage_aithinkitive.uat.provider.ecarehealth.com","emailVerified":false},{"uuid":"68fccfb6-32df-484b-b481-e7b8a12fd4bb","email":"test1753967135317@mailinator.com","firstName":"AliceD","lastName":"AliceTestP","phone":null,"birthDate":null,"avatar":null,"active":true,"source":null,"archive":false,"timezone":null,"providerType":null,"gender":"FEMALE","npi":null,"federalTaxIdNumber":null,"role":"PROVIDER","roleType":"PROVIDER","officeFaxNumber":"","licenseNumber":null,"groupNpiNumber":null,"taxonomyNumber":"","workLocations":{},"acceptedInsurances":{},"specialities":{},"licenceInformation":[{"uuid":"5c1e3fa9-8ec1-4d8a-b0b6-ddb7d0c59b7f","licenseState":"","licenseNumber":"","expiryDate":null,"licenseActiveDate":null,"licenseDocument":null}],"deaInformation":[{"uuid":"4590a22b-2435-4180-89ac-0693d68ac26c","deaState":"","deaNumber":null,"deaTermDate":null,"deaActiveDate":null}],"hospitalAffiliation":"","experience":"","acceptCash":false,"providerEmployment":"","workExperience":"","bio":"","errorMessage":null,"acceptNewPatient":false,"expertise":"","areaFocus":"","referralNumber":null,"secondOpinion":"","spokenLanguages":{},"ageGroupSeen":{},"careService":{},"lastLogin":null,"colorCode":"#813440","loginUrl":"https://stage_aithinkitive.uat.provider.ecarehealth.com","emailVerified":false},{"uuid":"bf9ae15d-1870-49d8-b5e2-2387b632c2b1","email":"test1753965965815@mailinator.com","firstName":"DavidC","lastName":"DavidTestL","phone":null,"birthDate":null,"avatar":null,"active":true,"source":null,"archive":false,"timezone":null,"providerType":null,"gender":"MALE","npi":null,"federalTaxIdNumber":null,"role":"PROVIDER","roleType":"PROVIDER","officeFaxNumber":"","licenseNumber":null,"groupNpiNumber":null,"taxonomyNumber":"","workLocations":{},"acceptedInsurances":{},"specialities":{},"licenceInformation":[{"uuid":"7c66b1f5-2ca4-4207-8d76-27659e29edf4","licenseState":"","licenseNumber":"","expiryDate":null,"licenseActiveDate":null,"licenseDocument":null}],"deaInformation":[{"uuid":"82a7af3c-b711-4eb1-aaac-1f893050a857","deaState":"","deaNumber":null,"deaTermDate":null,"deaActiveDate":null}],"hospitalAffiliation":"","experience":"","acceptCash":false,"providerEmployment":"","workExperience":"","bio":"","errorMessage":null,"acceptNewPatient":false,"expertise":"","areaFocus":"","referralNumber":null,"secondOpinion":"","spokenLanguages":{},"ageGroupSeen":{},"careService":{},"lastLogin":null,"colorCode":"#6d9d2c","loginUrl":"https://stage_aithinkitive.uat.provider.ecarehealth.com","emailVerified":false},{"uuid":"9e549c9f-f1be-411d-9332-1a95fcc0ecc6","email":"test1753965768499@mailinator.com","firstName":"DavidV","lastName":"DavidTestX","phone":null,"birthDate":null,"avatar":null,"active":true,"source":null,"archive":false,"timezone":null,"providerType":null,"gender":"MALE","npi":null,"federalTaxIdNumber":null,"role":"PROVIDER","roleType":"PROVIDER","officeFaxNumber":"","licenseNumber":null,"groupNpiNumber":null,"taxonomyNumber":"","workLocations":{},"acceptedInsurances":{},"specialities":{},"licenceInformation":[{"uuid":"68fea1f8-78ed-441c-a95f-8a6f8548fad9","licenseState":"","licenseNumber":"","expiryDate":null,"licenseActiveDate":null,"licenseDocument":null}],"deaInformation":[{"uuid":"9c573dd0-1078-4e57-b169-93fce7f51b2e","deaState":"","deaNumber":null,"deaTermDate":null,"deaActiveDate":null}],"hospitalAffiliation":"","experience":"","acceptCash":false,"providerEmployment":"","workExperience":"","bio":"","errorMessage":null,"acceptNewPatient":false,"expertise":"","areaFocus":"","referralNumber":null,"secondOpinion":"","spokenLanguages":{},"ageGroupSeen":{},"careService":{},"lastLogin":null,"colorCode":"#46c879","loginUrl":"https://stage_aithinkitive.uat.provider.ecarehealth.com","emailVerified":false},{"uuid":"05abba66-7253-4c63-97da-2a7cf67c31cd","email":"test1753965576470@mailinator.com","firstName":"BobL","lastName":"BobTestA","phone":null,"birthDate":null,"avatar":null,"active":true,"source":null,"archive":false,"timezone":null,"providerType":null,"gender":"MALE","npi":null,"federalTaxIdNumber":null,"role":"PROVIDER","roleType":"PROVIDER","officeFaxNumber":"","licenseNumber":null,"groupNpiNumber":null,"taxonomyNumber":"","workLocations":{},"acceptedInsurances":{},"specialities":{},"licenceInformation":[{"uuid":"84410416-d412-427c-a26c-9d7cc3380d74","licenseState":"","licenseNumber":"","expiryDate":null,"licenseActiveDate":null,"licenseDocument":null}],"deaInformation":[{"uuid":"476ef7ab-5e16-48cd-9ef0-7c3c2a5122f4","deaState":"","deaNumber":null,"deaTermDate":null,"deaActiveDate":null}],"hospitalAffiliation":"","experience":"","acceptCash":false,"providerEmployment":"","workExperience":"","bio":"","errorMessage":null,"acceptNewPatient":false,"expertise":"","areaFocus":"","referralNumber":null,"secondOpinion":"","spokenLanguages":{},"ageGroupSeen":{},"careService":{},"lastLogin":null,"colorCode":"#864b91","loginUrl":"https://stage_aithinkitive.uat.provider.ecarehealth.com","emailVerified":false},{"uuid":"64f46ea8-d654-4e8f-9efc-d3ea34453ec6","email":"test1753965425546@mailinator.com","firstName":"DavidR","lastName":"DavidTestU","phone":null,"birthDate":null,"avatar":null,"active":true,"source":null,"archive":false,"timezone":null,"providerType":null,"gender":"MALE","npi":null,"federalTaxIdNumber":null,"role":"PROVIDER","roleType":"PROVIDER","officeFaxNumber":"","licenseNumber":null,"groupNpiNumber":null,"taxonomyNumber":"","workLocations":{},"acceptedInsurances":{},"specialities":{},"licenceInformation":[{"uuid":"32398d94-8b77-4a59-855e-14c2d25cf654","licenseState":"","licenseNumber":"","expiryDate":null,"licenseActiveDate":null,"licenseDocument":null}],"deaInformation":[{"uuid":"5dacb08f-b364-4eb8-aa8b-06c3ee502acf","deaState":"","deaNumber":null,"deaTermDate":null,"deaActiveDate":null}],"hospitalAffiliation":"","experience":"","acceptCash":false,"providerEmployment":"","workExperience":"","bio":"","errorMessage":null,"acceptNewPatient":false,"expertise":"","areaFocus":"","referralNumber":null,"secondOpinion":"","spokenLanguages":{},"ageGroupSeen":{},"careService":{},"lastLogin":null,"colorCode":"#9d118a","loginUrl":"https://stage_aithinkitive.uat.provider.ecarehealth.com","emailVerified":false},{"uuid":"e580983e-58aa-4aa6-81a7-757118671836","email":"provider.1753965280484.35.1753965303688@example.com","firstName":"Dr. Shubham","lastName":"Brown","phone":null,"birthDate":"1983-05-17T18:30:00Z","avatar":null,"active":true,"source":null,"archive":false,"timezone":null,"providerType":"MD","gender":"FEMALE","npi":1234580484,"federalTaxIdNumber":null,"role":"PROVIDER","roleType":"PROVIDER","officeFaxNumber":"","licenseNumber":null,"groupNpiNumber":null,"taxonomyNumber":"","workLocations":{},"acceptedInsurances":{},"specialities":{"550e8400-e29b-41d4-a716-446655440003":"Behavioral Health & Psychiatry "},"licenceInformation":[{"uuid":"5b2209e3-f637-450e-9e96-de3d741e6fdd","licenseState":"","licenseNumber":"","expiryDate":null,"licenseActiveDate":null,"licenseDocument":null}],"deaInformation":[{"uuid":"e1926045-3d31-4fec-a648-2086790ad05c","deaState":"","deaNumber":"","deaTermDate":null,"deaActiveDate":null}],"hospitalAffiliation":"","experience":"","acceptCash":false,"providerEmployment":"","workExperience":"","bio":"","errorMessage":null,"acceptNewPatient":false,"expertise":"","areaFocus":"","referralNumber":null,"secondOpinion":"","spokenLanguages":{},"ageGroupSeen":{},"careService":{},"lastLogin":null,"colorCode":"#f25c58","loginUrl":"https://stage_aithinkitive.uat.provider.ecarehealth.com","emailVerified":false},{"uuid":"37bacbf9-5be0-4e51-8235-63496d92d885","email":"test1753965219555@mailinator.com","firstName":"BobI","lastName":"BobTestN","phone":null,"birthDate":null,"avatar":null,"active":true,"source":null,"archive":false,"timezone":null,"providerType":null,"gender":"MALE","npi":null,"federalTaxIdNumber":null,"role":"PROVIDER","roleType":"PROVIDER","officeFaxNumber":"","licenseNumber":null,"groupNpiNumber":null,"taxonomyNumber":"","workLocations":{},"acceptedInsurances":{},"specialities":{},"licenceInformation":[{"uuid":"0cdea335-5118-403e-87dd-a29883e2de3f","licenseState":"","licenseNumber":"","expiryDate":null,"licenseActiveDate":null,"licenseDocument":null}],"deaInformation":[{"uuid":"6ca51caa-8c4c-4d9c-9263-088ed4390bd7","deaState":"","deaNumber":null,"deaTermDate":null,"deaActiveDate":null}],"hospitalAffiliation":"","experience":"","acceptCash":false,"providerEmployment":"","workExperience":"","bio":"","errorMessage":null,"acceptNewPatient":false,"expertise":"","areaFocus":"","referralNumber":null,"secondOpinion":"","spokenLanguages":{},"ageGroupSeen":{},"careService":{},"lastLogin":null,"colorCode":"#633551","loginUrl":"https://stage_aithinkitive.uat.provider.ecarehealth.com","emailVerified":false},{"uuid":"4e8da839-b1d8-4463-9a19-6877eb685380","email":"provider.1753965082774.190.1753965105506@example.com","firstName":"Dr. Gargi","lastName":"Davis","phone":null,"birthDate":"1981-05-15T18:30:00Z","avatar":null,"active":true,"source":null,"archive":false,"timezone":null,"providerType":"MD","gender":"FEMALE","npi":1234582774,"federalTaxIdNumber":null,"role":"PROVIDER","roleType":"PROVIDER","officeFaxNumber":"","licenseNumber":null,"groupNpiNumber":null,"taxonomyNumber":"","workLocations":{},"acceptedInsurances":{},"specialities":{"550e8400-e29b-41d4-a716-446655440003":"Behavioral Health & Psychiatry "},"licenceInformation":[{"uuid":"849a7ab3-c256-4ebd-8ef2-73340a8241bd","licenseState":"","licenseNumber":"","expiryDate":null,"licenseActiveDate":null,"licenseDocument":null}],"deaInformation":[{"uuid":"127af710-87b8-461e-8746-f3867bba9395","deaState":"","deaNumber":"","deaTermDate":null,"deaActiveDate":null}],"hospitalAffiliation":"","experience":"","acceptCash":false,"providerEmployment":"","workExperience":"","bio":"","errorMessage":null,"acceptNewPatient":false,"expertise":"","areaFocus":"","referralNumber":null,"secondOpinion":"","spokenLanguages":{},"ageGroupSeen":{},"careService":{},"lastLogin":null,"colorCode":"#640dfb","loginUrl":"https://stage_aithinkitive.uat.provider.ecarehealth.com","emailVerified":false},{"uuid":"effa2a30-da88-48d2-ba83-bfb7ad42b77d","email":"test1753965064163@mailinator.com","firstName":"AliceO","lastName":"AliceTestI","phone":null,"birthDate":null,"avatar":null,"active":true,"source":null,"archive":false,"timezone":null,"providerType":null,"gender":"FEMALE","npi":null,"federalTaxIdNumber":null,"role":"PROVIDER","roleType":"PROVIDER","officeFaxNumber":"","licenseNumber":null,"groupNpiNumber":null,"taxonomyNumber":"","workLocations":{},"acceptedInsurances":{},"specialities":{},"licenceInformation":[{"uuid":"1bd1f254-3c02-4c20-931f-2610f4cd33e3","licenseState":"","licenseNumber":"","expiryDate":null,"licenseActiveDate":null,"licenseDocument":null}],"deaInformation":[{"uuid":"0b52b93a-5665-4d47-a8b1-dc6fba95277a","deaState":"","deaNumber":null,"deaTermDate":null,"deaActiveDate":null}],"hospitalAffiliation":"","experience":"","acceptCash":false,"providerEmployment":"","workExperience":"","bio":"","errorMessage":null,"acceptNewPatient":false,"expertise":"","areaFocus":"","referralNumber":null,"secondOpinion":"","spokenLanguages":{},"ageGroupSeen":{},"careService":{},"lastLogin":null,"colorCode":"#e0fa64","loginUrl":"https://stage_aithinkitive.uat.provider.ecarehealth.com","emailVerified":false},{"uuid":"da04778f-07b7-40c3-b60b-eb5699dde7a7","email":"test1753964601377@mailinator.com","firstName":"DavidE","lastName":"DavidTestV","phone":null,"birthDate":null,"avatar":null,"active":true,"source":null,"archive":false,"timezone":null,"providerType":null,"gender":"MALE","npi":null,"federalTaxIdNumber":null,"role":"PROVIDER","roleType":"PROVIDER","officeFaxNumber":"","licenseNumber":null,"groupNpiNumber":null,"taxonomyNumber":"","workLocations":{},"acceptedInsurances":{},"specialities":{},"licenceInformation":[{"uuid":"73871b0a-e420-4194-b584-34b21fd68c0f","licenseState":"","licenseNumber":"","expiryDate":null,"licenseActiveDate":null,"licenseDocument":null}],"deaInformation":[{"uuid":"5906d30d-932a-4cf0-9759-6dc1b426df6a","deaState":"","deaNumber":null,"deaTermDate":null,"deaActiveDate":null}],"hospitalAffiliation":"","experience":"","acceptCash":false,"providerEmployment":"","workExperience":"","bio":"","errorMessage":null,"acceptNewPatient":false,"expertise":"","areaFocus":"","referralNumber":null,"secondOpinion":"","spokenLanguages":{},"ageGroupSeen":{},"careService":{},"lastLogin":null,"colorCode":"#7c0a60","loginUrl":"https://stage_aithinkitive.uat.provider.ecarehealth.com","emailVerified":false},{"uuid":"de3910d3-8d0c-4db6-83d7-ce4eb4d60402","email":"test1753964390527@mailinator.com","firstName":"AliceU","lastName":"AliceTestC","phone":null,"birthDate":null,"avatar":null,"active":true,"source":null,"archive":false,"timezone":null,"providerType":null,"gender":"FEMALE","npi":null,"federalTaxIdNumber":null,"role":"PROVIDER","roleType":"PROVIDER","officeFaxNumber":"","licenseNumber":null,"groupNpiNumber":null,"taxonomyNumber":"","workLocations":{},"acceptedInsurances":{},"specialities":{},"licenceInformation":[{"uuid":"30e93521-d39a-4089-9b49-eb088acddce3","licenseState":"","licenseNumber":"","expiryDate":null,"licenseActiveDate":null,"licenseDocument":null}],"deaInformation":[{"uuid":"358ff111-c9bc-4b12-9476-3b5a1ced8739","deaState":"","deaNumber":null,"deaTermDate":null,"deaActiveDate":null}],"hospitalAffiliation":"","experience":"","acceptCash":false,"providerEmployment":"","workExperience":"","bio":"","errorMessage":null,"acceptNewPatient":false,"expertise":"","areaFocus":"","referralNumber":null,"secondOpinion":"","spokenLanguages":{},"ageGroupSeen":{},"careService":{},"lastLogin":null,"colorCode":"#bc6767","loginUrl":"https://stage_aithinkitive.uat.provider.ecarehealth.com","emailVerified":false},{"uuid":"3c86c647-3dc6-4276-8055-f145a3eb6576","email":"provider.1753964284916.704.1753964307878@example.com","firstName":"Dr. Sainath","lastName":"Martin","phone":null,"birthDate":"1988-05-22T18:30:00Z","avatar":null,"active":true,"source":null,"archive":false,"timezone":null,"providerType":"MD","gender":"FEMALE","npi":1234584916,"federalTaxIdNumber":null,"role":"PROVIDER","roleType":"PROVIDER","officeFaxNumber":"","licenseNumber":null,"groupNpiNumber":null,"taxonomyNumber":"","workLocations":{},"acceptedInsurances":{},"specialities":{"550e8400-e29b-41d4-a716-446655440003":"Behavioral Health & Psychiatry "},"licenceInformation":[{"uuid":"34dcbd96-4e85-4ed9-9c72-53e92b3ae841","licenseState":"","licenseNumber":"","expiryDate":null,"licenseActiveDate":null,"licenseDocument":null}],"deaInformation":[{"uuid":"7e8462f6-6156-4283-822c-60b413142288","deaState":"","deaNumber":"","deaTermDate":null,"deaActiveDate":null}],"hospitalAffiliation":"","experience":"","acceptCash":false,"providerEmployment":"","workExperience":"","bio":"","errorMessage":null,"acceptNewPatient":false,"expertise":"","areaFocus":"","referralNumber":null,"secondOpinion":"","spokenLanguages":{},"ageGroupSeen":{},"careService":{},"lastLogin":null,"colorCode":"#6f077d","loginUrl":"https://stage_aithinkitive.uat.provider.ecarehealth.com","emailVerified":false}],"page":{"size":20,"number":0,"totalElements":671,"totalPages":34}},"path":"/api/master/provider","requestId":"256d314b-d454-4d14-8144-adaa74a54d1f","version":"1.0"}