{"date":"2025-07-31T13:30:43.369+00:00","code":"ENTITY","message":null,"data":{"content":[{"uuid":"ccf6be2d-25f0-40d6-a603-8f782eedf1a8","firstName":"Robert","lastName":"Brown","email":"patient.1753968582097.16.1753968639548@example.com","gender":"MALE","mobileNumber":"(555) 858-2097","avatar":null,"timezone":"IST","race":null,"middleName":"","ethnicity":null,"ssn":"","mrn":"","emailConsent":false,"messageConsent":false,"callConsent":false,"registrationDate":null,"birthDate":"1993-03-27T18:30:00Z","emergencyContacts":[{"uuid":"f3aeef4e-d64a-4a29-b791-2be9df8d973c","firstName":"","lastName":"","email":null,"mobile":"","relationshipWithPatient":null}],"pharmacyStores":[],"labs":[],"radiologies":[],"patientInsurances":[],"providerId":null,"locationId":{},"address":{"line1":"","line2":"","city":"","state":"","country":"","zipcode":""},"maritalStatus":null,"faxNumber":"","source":null,"homePhone":"","errorMessage":null,"lastAppointment":null,"nextAppointment":null,"active":true,"archive":false,"languages":{},"lastLogin":null,"customerId":null,"pharmacyLabRadiology":null,"providerNPInumber":null,"providerContactNo":null,"providerEmail":null,"pharmacyLabRadiologyMap":[],"category":null,"val":null,"phoneNotAvailable":false,"emailNotAvailable":false,"patientConsentEntities":null,"defaultCommunicationChannel":null,"emailVerified":false},{"uuid":"17db8d84-3ba4-4c6b-b7b7-aa9b0e1890ef","firstName":"PatientY","lastName":"TestP","email":"patientytestp1753968621799@mailinator.com","gender":"FEMALE","mobileNumber":"(566) 767-6787","avatar":null,"timezone":"AKDT","race":null,"middleName":"","ethnicity":null,"ssn":"","mrn":"","emailConsent":false,"messageConsent":false,"callConsent":false,"registrationDate":null,"birthDate":"2000-11-26T18:23:00Z","emergencyContacts":[{"uuid":"936d7454-62e1-4d5f-83ce-ec04beb9c904","firstName":"","lastName":"","email":null,"mobile":"","relationshipWithPatient":null}],"pharmacyStores":[],"labs":[],"radiologies":[],"patientInsurances":[],"providerId":null,"locationId":{},"address":{"line1":"","line2":"","city":"","state":"","country":"","zipcode":""},"maritalStatus":null,"faxNumber":"","source":null,"homePhone":"","errorMessage":null,"lastAppointment":null,"nextAppointment":null,"active":true,"archive":false,"languages":{},"lastLogin":null,"customerId":null,"pharmacyLabRadiology":null,"providerNPInumber":null,"providerContactNo":null,"providerEmail":null,"pharmacyLabRadiologyMap":[],"category":null,"val":null,"phoneNotAvailable":false,"emailNotAvailable":false,"patientConsentEntities":null,"defaultCommunicationChannel":null,"emailVerified":false},{"uuid":"f20ab145-367d-4e6c-b119-4ac26e91bb8c","firstName":"William","lastName":"Thompson","email":"patient.1753967940855.119.1753967996287@example.com","gender":"MALE","mobileNumber":"(555) 794-0855","avatar":null,"timezone":"IST","race":null,"middleName":"","ethnicity":null,"ssn":"","mrn":"","emailConsent":false,"messageConsent":false,"callConsent":false,"registrationDate":null,"birthDate":"1994-03-28T18:30:00Z","emergencyContacts":[{"uuid":"42222d73-ec8f-4495-9f20-56ac2b90395d","firstName":"","lastName":"","email":null,"mobile":"","relationshipWithPatient":null}],"pharmacyStores":[],"labs":[],"radiologies":[],"patientInsurances":[],"providerId":null,"locationId":{},"address":{"line1":"","line2":"","city":"","state":"","country":"","zipcode":""},"maritalStatus":null,"faxNumber":"","source":null,"homePhone":"","errorMessage":null,"lastAppointment":null,"nextAppointment":null,"active":true,"archive":false,"languages":{},"lastLogin":null,"customerId":null,"pharmacyLabRadiology":null,"providerNPInumber":null,"providerContactNo":null,"providerEmail":null,"pharmacyLabRadiologyMap":[],"category":null,"val":null,"phoneNotAvailable":false,"emailNotAvailable":false,"patientConsentEntities":null,"defaultCommunicationChannel":null,"emailVerified":false},{"uuid":"5f63e745-40cd-42d5-8b7e-5ff5432b3fd6","firstName":"Matthew","lastName":"Jones","email":"patient.1753967483223.367.1753967539663@example.com","gender":"MALE","mobileNumber":"(555) 748-3223","avatar":null,"timezone":"IST","race":null,"middleName":"","ethnicity":null,"ssn":"","mrn":"","emailConsent":false,"messageConsent":false,"callConsent":false,"registrationDate":null,"birthDate":"1995-03-24T18:30:00Z","emergencyContacts":[{"uuid":"2a248922-dae8-4d3a-9401-e7c60819e37a","firstName":"","lastName":"","email":null,"mobile":"","relationshipWithPatient":null}],"pharmacyStores":[],"labs":[],"radiologies":[],"patientInsurances":[],"providerId":null,"locationId":{},"address":{"line1":"","line2":"","city":"","state":"","country":"","zipcode":""},"maritalStatus":null,"faxNumber":"","source":null,"homePhone":"","errorMessage":null,"lastAppointment":null,"nextAppointment":null,"active":true,"archive":false,"languages":{},"lastLogin":null,"customerId":null,"pharmacyLabRadiology":null,"providerNPInumber":null,"providerContactNo":null,"providerEmail":null,"pharmacyLabRadiologyMap":[],"category":null,"val":null,"phoneNotAvailable":false,"emailNotAvailable":false,"patientConsentEntities":null,"defaultCommunicationChannel":null,"emailVerified":false},{"uuid":"3e5056d5-51ac-44b2-b287-788c206fd9be","firstName":"PatientD","lastName":"TestP","email":"patientdtestp1753967298609@mailinator.com","gender":"FEMALE","mobileNumber":"(566) 767-6787","avatar":null,"timezone":"AKDT","race":null,"middleName":"","ethnicity":null,"ssn":"","mrn":"","emailConsent":false,"messageConsent":false,"callConsent":false,"registrationDate":null,"birthDate":"2000-11-26T18:23:00Z","emergencyContacts":[{"uuid":"d7cd3757-8172-4e72-a67b-cecdc2ec1522","firstName":"","lastName":"","email":null,"mobile":"","relationshipWithPatient":null}],"pharmacyStores":[],"labs":[],"radiologies":[],"patientInsurances":[],"providerId":null,"locationId":{},"address":{"line1":"","line2":"","city":"","state":"","country":"","zipcode":""},"maritalStatus":null,"faxNumber":"","source":null,"homePhone":"","errorMessage":null,"lastAppointment":null,"nextAppointment":null,"active":true,"archive":false,"languages":{},"lastLogin":null,"customerId":null,"pharmacyLabRadiology":null,"providerNPInumber":null,"providerContactNo":null,"providerEmail":null,"pharmacyLabRadiologyMap":[],"category":null,"val":null,"phoneNotAvailable":false,"emailNotAvailable":false,"patientConsentEntities":null,"defaultCommunicationChannel":null,"emailVerified":false},{"uuid":"6dcf4cd8-cb98-4c86-96d4-474f1f23f7d4","firstName":"PatientJ","lastName":"TestZ","email":"patientjtestz1753967240969@mailinator.com","gender":"FEMALE","mobileNumber":"(566) 767-6787","avatar":null,"timezone":"AKDT","race":null,"middleName":"","ethnicity":null,"ssn":"","mrn":"","emailConsent":false,"messageConsent":false,"callConsent":false,"registrationDate":null,"birthDate":"2000-11-26T18:23:00Z","emergencyContacts":[{"uuid":"7b8c3970-177e-4d4d-a974-2491c6d37c54","firstName":"","lastName":"","email":null,"mobile":"","relationshipWithPatient":null}],"pharmacyStores":[],"labs":[],"radiologies":[],"patientInsurances":[],"providerId":null,"locationId":{},"address":{"line1":"","line2":"","city":"","state":"","country":"","zipcode":""},"maritalStatus":null,"faxNumber":"","source":null,"homePhone":"","errorMessage":null,"lastAppointment":null,"nextAppointment":null,"active":true,"archive":false,"languages":{},"lastLogin":null,"customerId":null,"pharmacyLabRadiology":null,"providerNPInumber":null,"providerContactNo":null,"providerEmail":null,"pharmacyLabRadiologyMap":[],"category":null,"val":null,"phoneNotAvailable":false,"emailNotAvailable":false,"patientConsentEntities":null,"defaultCommunicationChannel":null,"emailVerified":false},{"uuid":"005a6112-0d39-4c4e-96be-cec9907dc34a","firstName":"Anthony","lastName":"White","email":"patient.1753967137691.144.1753967194627@example.com","gender":"MALE","mobileNumber":"(555) 713-7691","avatar":null,"timezone":"IST","race":null,"middleName":"","ethnicity":null,"ssn":"","mrn":"","emailConsent":false,"messageConsent":false,"callConsent":false,"registrationDate":null,"birthDate":"1990-03-24T18:30:00Z","emergencyContacts":[{"uuid":"1b56ee3a-8a87-4d2b-9234-a85333721188","firstName":"","lastName":"","email":null,"mobile":"","relationshipWithPatient":null}],"pharmacyStores":[],"labs":[],"radiologies":[],"patientInsurances":[],"providerId":null,"locationId":{},"address":{"line1":"","line2":"","city":"","state":"","country":"","zipcode":""},"maritalStatus":null,"faxNumber":"","source":null,"homePhone":"","errorMessage":null,"lastAppointment":null,"nextAppointment":null,"active":true,"archive":false,"languages":{},"lastLogin":null,"customerId":null,"pharmacyLabRadiology":null,"providerNPInumber":null,"providerContactNo":null,"providerEmail":null,"pharmacyLabRadiologyMap":[],"category":null,"val":null,"phoneNotAvailable":false,"emailNotAvailable":false,"patientConsentEntities":null,"defaultCommunicationChannel":null,"emailVerified":false},{"uuid":"2ab01d3f-6ccd-46ac-ac2c-73621e0ec38e","firstName":"PatientL","lastName":"TestL","email":"patientltestl1753967136087@mailinator.com","gender":"FEMALE","mobileNumber":"(566) 767-6787","avatar":null,"timezone":"AKDT","race":null,"middleName":"","ethnicity":null,"ssn":"","mrn":"","emailConsent":false,"messageConsent":false,"callConsent":false,"registrationDate":null,"birthDate":"2000-11-26T18:23:00Z","emergencyContacts":[{"uuid":"1ae38d53-e339-4335-96ad-15a82a86e335","firstName":"","lastName":"","email":null,"mobile":"","relationshipWithPatient":null}],"pharmacyStores":[],"labs":[],"radiologies":[],"patientInsurances":[],"providerId":null,"locationId":{},"address":{"line1":"","line2":"","city":"","state":"","country":"","zipcode":""},"maritalStatus":null,"faxNumber":"","source":null,"homePhone":"","errorMessage":null,"lastAppointment":null,"nextAppointment":null,"active":true,"archive":false,"languages":{},"lastLogin":null,"customerId":null,"pharmacyLabRadiology":null,"providerNPInumber":null,"providerContactNo":null,"providerEmail":null,"pharmacyLabRadiologyMap":[],"category":null,"val":null,"phoneNotAvailable":false,"emailNotAvailable":false,"patientConsentEntities":null,"defaultCommunicationChannel":null,"emailVerified":false},{"uuid":"11e85dae-f20d-4746-b84e-b9700f77d1a3","firstName":"Samuel","lastName":"Peterson","email":null,"gender":"MALE","mobileNumber":"","avatar":null,"timezone":"IST","race":null,"middleName":"","ethnicity":null,"ssn":"","mrn":"","emailConsent":false,"messageConsent":false,"callConsent":false,"registrationDate":null,"birthDate":"1994-08-16T18:30:00Z","emergencyContacts":[{"uuid":"43a057de-2a0c-447f-a72c-653b7d644a23","firstName":"","lastName":"","email":null,"mobile":"","relationshipWithPatient":null}],"pharmacyStores":[],"labs":[],"radiologies":[],"patientInsurances":[],"providerId":null,"locationId":{},"address":{"line1":"","line2":"","city":"","state":"","country":"","zipcode":""},"maritalStatus":null,"faxNumber":"","source":null,"homePhone":"","errorMessage":null,"lastAppointment":null,"nextAppointment":null,"active":true,"archive":false,"languages":{},"lastLogin":null,"customerId":null,"pharmacyLabRadiology":null,"providerNPInumber":null,"providerContactNo":null,"providerEmail":null,"pharmacyLabRadiologyMap":[],"category":null,"val":null,"phoneNotAvailable":true,"emailNotAvailable":true,"patientConsentEntities":null,"defaultCommunicationChannel":null,"emailVerified":false},{"uuid":"0ed156eb-2cb3-420d-84fb-e522e1685cb6","firstName":"PatientU","lastName":"TestT","email":"patientutestt1753965966098@mailinator.com","gender":"FEMALE","mobileNumber":"(566) 767-6787","avatar":null,"timezone":"AKDT","race":null,"middleName":"","ethnicity":null,"ssn":"","mrn":"","emailConsent":false,"messageConsent":false,"callConsent":false,"registrationDate":null,"birthDate":"2000-11-26T18:23:00Z","emergencyContacts":[{"uuid":"61719e4f-a471-4b39-916f-45a88243009c","firstName":"","lastName":"","email":null,"mobile":"","relationshipWithPatient":null}],"pharmacyStores":[],"labs":[],"radiologies":[],"patientInsurances":[],"providerId":null,"locationId":{},"address":{"line1":"","line2":"","city":"","state":"","country":"","zipcode":""},"maritalStatus":null,"faxNumber":"","source":null,"homePhone":"","errorMessage":null,"lastAppointment":null,"nextAppointment":null,"active":true,"archive":false,"languages":{},"lastLogin":null,"customerId":null,"pharmacyLabRadiology":null,"providerNPInumber":null,"providerContactNo":null,"providerEmail":null,"pharmacyLabRadiologyMap":[],"category":null,"val":null,"phoneNotAvailable":false,"emailNotAvailable":false,"patientConsentEntities":null,"defaultCommunicationChannel":null,"emailVerified":false}],"page":{"size":10,"number":0,"totalElements":403,"totalPages":41}},"path":"/api/master/patient","requestId":"55ff9ed6-f02e-4d5c-b839-a100fdad3ea7","version":"1.0"}