{"date":"2025-07-27T11:06:50.259+00:00","code":"ENTITY","message":null,"data":{"content":[{"uuid":"ff9db6ca-8f61-46f8-9555-f3d176a97f78","firstName":"Christopher","lastName":"Anderson","email":"patient.1753614349813.774.1753614406437@example.com","gender":"MALE","mobileNumber":"(555) 434-9813","avatar":null,"timezone":"IST","race":null,"middleName":"","ethnicity":null,"ssn":"","mrn":"","emailConsent":false,"messageConsent":false,"callConsent":false,"registrationDate":null,"birthDate":"1991-03-25T18:30:00Z","emergencyContacts":[{"uuid":"54d48718-67e0-4fe9-80e0-2711bdb65d61","firstName":"","lastName":"","email":null,"mobile":"","relationshipWithPatient":null}],"pharmacyStores":[],"labs":[],"radiologies":[],"patientInsurances":[],"providerId":null,"locationId":{},"address":{"line1":"","line2":"","city":"","state":"","country":"","zipcode":""},"maritalStatus":null,"faxNumber":"","source":null,"homePhone":"","errorMessage":null,"lastAppointment":null,"nextAppointment":null,"active":true,"archive":false,"languages":{},"lastLogin":null,"customerId":null,"pharmacyLabRadiology":null,"providerNPInumber":null,"providerContactNo":null,"providerEmail":null,"pharmacyLabRadiologyMap":[],"category":null,"val":null,"phoneNotAvailable":false,"emailNotAvailable":false,"patientConsentEntities":null,"defaultCommunicationChannel":null,"emailVerified":false},{"uuid":"438669b4-6c98-4b39-9710-b49a5fee9376","firstName":"Kevin","lastName":"Harris","email":"patient.1753613076520.71.1753613076563@example.com","gender":"MALE","mobileNumber":"(555) 307-6520","avatar":null,"timezone":"IST","race":null,"middleName":"","ethnicity":null,"ssn":"","mrn":"","emailConsent":false,"messageConsent":false,"callConsent":false,"registrationDate":null,"birthDate":"1972-07-10T18:30:00Z","emergencyContacts":[{"uuid":"f8dbe7d5-1224-44f1-8b80-f7bd4b333648","firstName":"","lastName":"","email":null,"mobile":"","relationshipWithPatient":null}],"pharmacyStores":[],"labs":[],"radiologies":[],"patientInsurances":[],"providerId":null,"locationId":{},"address":{"line1":"","line2":"","city":"","state":"","country":"","zipcode":""},"maritalStatus":null,"faxNumber":"","source":null,"homePhone":"","errorMessage":null,"lastAppointment":null,"nextAppointment":null,"active":true,"archive":false,"languages":{},"lastLogin":null,"customerId":null,"pharmacyLabRadiology":null,"providerNPInumber":null,"providerContactNo":null,"providerEmail":null,"pharmacyLabRadiologyMap":[],"category":null,"val":null,"phoneNotAvailable":false,"emailNotAvailable":false,"patientConsentEntities":null,"defaultCommunicationChannel":null,"emailVerified":false},{"uuid":"9b6240e1-d15f-4849-8788-d340cb7f84f5","firstName":"Mark","lastName":"Davis","email":"patient.1753613076520.986.1753613076563@example.com","gender":"MALE","mobileNumber":"(555) 307-6520","avatar":null,"timezone":"IST","race":null,"middleName":"","ethnicity":null,"ssn":"","mrn":"","emailConsent":false,"messageConsent":false,"callConsent":false,"registrationDate":null,"birthDate":"1974-04-19T18:30:00Z","emergencyContacts":[{"uuid":"ceeac03e-292f-4f24-a434-ea15843d02b2","firstName":"","lastName":"","email":null,"mobile":"","relationshipWithPatient":null}],"pharmacyStores":[],"labs":[],"radiologies":[],"patientInsurances":[],"providerId":null,"locationId":{},"address":{"line1":"","line2":"","city":"","state":"","country":"","zipcode":""},"maritalStatus":null,"faxNumber":"","source":null,"homePhone":"","errorMessage":null,"lastAppointment":null,"nextAppointment":null,"active":true,"archive":false,"languages":{},"lastLogin":null,"customerId":null,"pharmacyLabRadiology":null,"providerNPInumber":null,"providerContactNo":null,"providerEmail":null,"pharmacyLabRadiologyMap":[],"category":null,"val":null,"phoneNotAvailable":false,"emailNotAvailable":false,"patientConsentEntities":null,"defaultCommunicationChannel":null,"emailVerified":false},{"uuid":"bdd0e364-f8fc-4d71-b3cf-eef4d5fe94e0","firstName":"Anthony","lastName":"White","email":"patient.1753611679992.23.1753611717992@example.com","gender":"MALE","mobileNumber":"(555) 167-9992","avatar":null,"timezone":"IST","race":null,"middleName":"","ethnicity":null,"ssn":"","mrn":"","emailConsent":false,"messageConsent":false,"callConsent":false,"registrationDate":null,"birthDate":"1991-03-20T18:30:00Z","emergencyContacts":[{"uuid":"63a50897-965a-466b-9fd6-d5a71dc7521b","firstName":"","lastName":"","email":null,"mobile":"","relationshipWithPatient":null}],"pharmacyStores":[],"labs":[],"radiologies":[],"patientInsurances":[],"providerId":null,"locationId":{},"address":{"line1":"","line2":"","city":"","state":"","country":"","zipcode":""},"maritalStatus":null,"faxNumber":"","source":null,"homePhone":"","errorMessage":null,"lastAppointment":null,"nextAppointment":null,"active":true,"archive":false,"languages":{},"lastLogin":null,"customerId":null,"pharmacyLabRadiology":null,"providerNPInumber":null,"providerContactNo":null,"providerEmail":null,"pharmacyLabRadiologyMap":[],"category":null,"val":null,"phoneNotAvailable":false,"emailNotAvailable":false,"patientConsentEntities":null,"defaultCommunicationChannel":null,"emailVerified":false},{"uuid":"5e47c30e-3a2f-447d-a7d7-b49a6ed98294","firstName":"Robert","lastName":"Martin","email":"patient.1753611460046.709.1753611500409@example.com","gender":"MALE","mobileNumber":"(555) 146-0046","avatar":null,"timezone":"IST","race":null,"middleName":"","ethnicity":null,"ssn":"","mrn":"","emailConsent":false,"messageConsent":false,"callConsent":false,"registrationDate":null,"birthDate":"1999-03-28T18:30:00Z","emergencyContacts":[{"uuid":"f515d6a0-a879-483f-8634-d127bc05a9f9","firstName":"","lastName":"","email":null,"mobile":"","relationshipWithPatient":null}],"pharmacyStores":[],"labs":[],"radiologies":[],"patientInsurances":[],"providerId":null,"locationId":{},"address":{"line1":"","line2":"","city":"","state":"","country":"","zipcode":""},"maritalStatus":null,"faxNumber":"","source":null,"homePhone":"","errorMessage":null,"lastAppointment":null,"nextAppointment":null,"active":true,"archive":false,"languages":{},"lastLogin":null,"customerId":null,"pharmacyLabRadiology":null,"providerNPInumber":null,"providerContactNo":null,"providerEmail":null,"pharmacyLabRadiologyMap":[],"category":null,"val":null,"phoneNotAvailable":false,"emailNotAvailable":false,"patientConsentEntities":null,"defaultCommunicationChannel":null,"emailVerified":false},{"uuid":"a2178e11-bb9e-4d11-9603-afd9fc880cbb","firstName":"Christopher","lastName":"Davis","email":"patient.1753611135517.684.1753611204896@example.com","gender":"MALE","mobileNumber":"(555) 113-5517","avatar":null,"timezone":"IST","race":null,"middleName":"","ethnicity":null,"ssn":"","mrn":"","emailConsent":false,"messageConsent":false,"callConsent":false,"registrationDate":null,"birthDate":"1988-03-27T18:30:00Z","emergencyContacts":[{"uuid":"29d7adf1-f083-4d9b-a8ca-478549755e44","firstName":"","lastName":"","email":null,"mobile":"","relationshipWithPatient":null}],"pharmacyStores":[],"labs":[],"radiologies":[],"patientInsurances":[],"providerId":null,"locationId":{},"address":{"line1":"","line2":"","city":"","state":"","country":"","zipcode":""},"maritalStatus":null,"faxNumber":"","source":null,"homePhone":"","errorMessage":null,"lastAppointment":null,"nextAppointment":null,"active":true,"archive":false,"languages":{},"lastLogin":null,"customerId":null,"pharmacyLabRadiology":null,"providerNPInumber":null,"providerContactNo":null,"providerEmail":null,"pharmacyLabRadiologyMap":[],"category":null,"val":null,"phoneNotAvailable":false,"emailNotAvailable":false,"patientConsentEntities":null,"defaultCommunicationChannel":null,"emailVerified":false},{"uuid":"d2f9f514-46b9-4b19-9919-e22a3b275bdb","firstName":"David","lastName":"Wilson","email":"patient.1753610239256.860.1753610275863@example.com","gender":"MALE","mobileNumber":"(555) 023-9256","avatar":null,"timezone":"IST","race":null,"middleName":"","ethnicity":null,"ssn":"","mrn":"","emailConsent":false,"messageConsent":false,"callConsent":false,"registrationDate":null,"birthDate":"1992-03-21T18:30:00Z","emergencyContacts":[{"uuid":"6061d19b-1b9e-45e1-a814-705bdca23e4e","firstName":"","lastName":"","email":null,"mobile":"","relationshipWithPatient":null}],"pharmacyStores":[],"labs":[],"radiologies":[],"patientInsurances":[],"providerId":null,"locationId":{},"address":{"line1":"","line2":"","city":"","state":"","country":"","zipcode":""},"maritalStatus":null,"faxNumber":"","source":null,"homePhone":"","errorMessage":null,"lastAppointment":null,"nextAppointment":null,"active":true,"archive":false,"languages":{},"lastLogin":null,"customerId":null,"pharmacyLabRadiology":null,"providerNPInumber":null,"providerContactNo":null,"providerEmail":null,"pharmacyLabRadiologyMap":[],"category":null,"val":null,"phoneNotAvailable":false,"emailNotAvailable":false,"patientConsentEntities":null,"defaultCommunicationChannel":null,"emailVerified":false},{"uuid":"fa866494-0f95-4f70-8940-4bb6e1d16709","firstName":"Kevin","lastName":"Jones","email":"patient.1753609971309.832.1753610010317@example.com","gender":"MALE","mobileNumber":"(555) 997-1309","avatar":null,"timezone":"IST","race":null,"middleName":"","ethnicity":null,"ssn":"","mrn":"","emailConsent":false,"messageConsent":false,"callConsent":false,"registrationDate":null,"birthDate":"1991-03-20T18:30:00Z","emergencyContacts":[{"uuid":"6c6c429b-f563-4d45-a55a-d2a80b0a68b5","firstName":"","lastName":"","email":null,"mobile":"","relationshipWithPatient":null}],"pharmacyStores":[],"labs":[],"radiologies":[],"patientInsurances":[],"providerId":null,"locationId":{},"address":{"line1":"","line2":"","city":"","state":"","country":"","zipcode":""},"maritalStatus":null,"faxNumber":"","source":null,"homePhone":"","errorMessage":null,"lastAppointment":null,"nextAppointment":null,"active":true,"archive":false,"languages":{},"lastLogin":null,"customerId":null,"pharmacyLabRadiology":null,"providerNPInumber":null,"providerContactNo":null,"providerEmail":null,"pharmacyLabRadiologyMap":[],"category":null,"val":null,"phoneNotAvailable":false,"emailNotAvailable":false,"patientConsentEntities":null,"defaultCommunicationChannel":null,"emailVerified":false},{"uuid":"652e5f87-3a41-4976-97fd-8f8486684c65","firstName":"Edward","lastName":"Anderson","email":"patient.1753609743187.607.1753609785937@example.com","gender":"MALE","mobileNumber":"(555) 974-3187","avatar":null,"timezone":"IST","race":null,"middleName":"","ethnicity":null,"ssn":"","mrn":"","emailConsent":false,"messageConsent":false,"callConsent":false,"registrationDate":null,"birthDate":"1993-03-22T18:30:00Z","emergencyContacts":[{"uuid":"94b5e3c1-e48d-4c98-ba5e-4264b4d7c545","firstName":"","lastName":"","email":null,"mobile":"","relationshipWithPatient":null}],"pharmacyStores":[],"labs":[],"radiologies":[],"patientInsurances":[],"providerId":null,"locationId":{},"address":{"line1":"","line2":"","city":"","state":"","country":"","zipcode":""},"maritalStatus":null,"faxNumber":"","source":null,"homePhone":"","errorMessage":null,"lastAppointment":null,"nextAppointment":null,"active":true,"archive":false,"languages":{},"lastLogin":null,"customerId":null,"pharmacyLabRadiology":null,"providerNPInumber":null,"providerContactNo":null,"providerEmail":null,"pharmacyLabRadiologyMap":[],"category":null,"val":null,"phoneNotAvailable":false,"emailNotAvailable":false,"patientConsentEntities":null,"defaultCommunicationChannel":null,"emailVerified":false},{"uuid":"8f91a7b6-d655-43ac-b11e-722e638dc0ea","firstName":"William","lastName":"Anderson","email":"patient.1753609356265.698.1753609398347@example.com","gender":"MALE","mobileNumber":"(555) 935-6265","avatar":null,"timezone":"IST","race":null,"middleName":"","ethnicity":null,"ssn":"","mrn":"","emailConsent":false,"messageConsent":false,"callConsent":false,"registrationDate":null,"birthDate":"1987-03-26T18:30:00Z","emergencyContacts":[{"uuid":"adc9bfab-e828-45e0-87b9-848049640e36","firstName":"","lastName":"","email":null,"mobile":"","relationshipWithPatient":null}],"pharmacyStores":[],"labs":[],"radiologies":[],"patientInsurances":[],"providerId":null,"locationId":{},"address":{"line1":"","line2":"","city":"","state":"","country":"","zipcode":""},"maritalStatus":null,"faxNumber":"","source":null,"homePhone":"","errorMessage":null,"lastAppointment":null,"nextAppointment":null,"active":true,"archive":false,"languages":{},"lastLogin":null,"customerId":null,"pharmacyLabRadiology":null,"providerNPInumber":null,"providerContactNo":null,"providerEmail":null,"pharmacyLabRadiologyMap":[],"category":null,"val":null,"phoneNotAvailable":false,"emailNotAvailable":false,"patientConsentEntities":null,"defaultCommunicationChannel":null,"emailVerified":false}],"page":{"size":10,"number":0,"totalElements":191,"totalPages":20}},"path":"/api/master/patient","requestId":"e8f6faf9-c0d5-4f5a-bc33-587752e513eb","version":"1.0"}