{"date":"2025-07-27T11:06:39.904+00:00","code":"ENTITY","message":null,"data":{"content":[{"payerId":"16535","payerName":"Zurich Insurance"},{"payerId":"J1015","payerName":"Zurich Farmers"},{"payerId":"J3766","payerName":"Zoe Holding Company Inc. - CORVEL"},{"payerId":"ZING","payerName":"Zing Health"},{"payerId":"83248","payerName":"Zing Health"},{"payerId":"89677","payerName":"Zenith American Solutions - ILWU-PMA"},{"payerId":"J1409","payerName":"Zachry Construction"},{"payerId":"30120","payerName":"Z-Nat Insurance (Zenith National)"},{"payerId":"IHS15","payerName":"Yuzu Health"},{"payerId":"YOUTHCARE-HC-IL","payerName":"Youthcare Healthchoice Illinois"},{"payerId":"YMIPA","payerName":"YOUnity Medical Affiliates IPA"},{"payerId":"J1421","payerName":"York Claim Services"},{"payerId":"51350","payerName":"Yerington Paiute Tribe"},{"payerId":"77943","payerName":"Yamhill COO Physical Health"},{"payerId":"YAMHL","payerName":"Yamhill CCO"},{"payerId":"60646","payerName":"Yale University Health Plan"},{"payerId":"J1628","payerName":"Xcel Energy"},{"payerId":"62154","payerName":"Xantus Health Plan"},{"payerId":"J4177","payerName":"Wright Risk Management"},{"payerId":"10878","payerName":"WPS Health Insurance"},{"payerId":"J3757","payerName":"Worthington Industries - CORVEL"},{"payerId":"20333","payerName":"Worksite Benefit Services LLC"},{"payerId":"13413","payerName":"Women's Integrated Network (WIN Health)"},{"payerId":"J3954","payerName":"WJ Cox Associates Inc."},{"payerId":"WIWWP","payerName":"Wisconsin Well Womens Program"}],"page":{"size":25,"number":0,"totalElements":4076,"totalPages":164}},"path":"/api/master/insurance-payers","requestId":"d6ed0e5b-9a85-482a-b77f-02ab4fec4e7a","version":"1.0"}