{"date":"2025-07-27T11:06:48.597+00:00","code":"ENTITY","message":null,"data":{"content":[{"uuid":"ff9db6ca-8f61-46f8-9555-f3d176a97f78","firstName":"Christopher","lastName":"Anderson","email":"patient.1753614349813.774.1753614406437@example.com","gender":"MALE","mobileNumber":"(555) 434-9813","avatar":null,"timezone":"IST","race":null,"middleName":"","ethnicity":null,"ssn":"","mrn":"","emailConsent":false,"messageConsent":false,"callConsent":false,"registrationDate":null,"birthDate":"1991-03-25T18:30:00Z","emergencyContacts":[{"uuid":"54d48718-67e0-4fe9-80e0-2711bdb65d61","firstName":"","lastName":"","email":null,"mobile":"","relationshipWithPatient":null}],"pharmacyStores":[],"labs":[],"radiologies":[],"patientInsurances":[],"providerId":null,"locationId":{},"address":{"line1":"","line2":"","city":"","state":"","country":"","zipcode":""},"maritalStatus":null,"faxNumber":"","source":null,"homePhone":"","errorMessage":null,"lastAppointment":null,"nextAppointment":null,"active":true,"archive":false,"languages":{},"lastLogin":null,"customerId":null,"pharmacyLabRadiology":null,"providerNPInumber":null,"providerContactNo":null,"providerEmail":null,"pharmacyLabRadiologyMap":[],"category":null,"val":null,"phoneNotAvailable":false,"emailNotAvailable":false,"patientConsentEntities":null,"defaultCommunicationChannel":null,"emailVerified":false},{"uuid":"438669b4-6c98-4b39-9710-b49a5fee9376","firstName":"Kevin","lastName":"Harris","email":"patient.1753613076520.71.1753613076563@example.com","gender":"MALE","mobileNumber":"(555) 307-6520","avatar":null,"timezone":"IST","race":null,"middleName":"","ethnicity":null,"ssn":"","mrn":"","emailConsent":false,"messageConsent":false,"callConsent":false,"registrationDate":null,"birthDate":"1972-07-10T18:30:00Z","emergencyContacts":[{"uuid":"f8dbe7d5-1224-44f1-8b80-f7bd4b333648","firstName":"","lastName":"","email":null,"mobile":"","relationshipWithPatient":null}],"pharmacyStores":[],"labs":[],"radiologies":[],"patientInsurances":[],"providerId":null,"locationId":{},"address":{"line1":"","line2":"","city":"","state":"","country":"","zipcode":""},"maritalStatus":null,"faxNumber":"","source":null,"homePhone":"","errorMessage":null,"lastAppointment":null,"nextAppointment":null,"active":true,"archive":false,"languages":{},"lastLogin":null,"customerId":null,"pharmacyLabRadiology":null,"providerNPInumber":null,"providerContactNo":null,"providerEmail":null,"pharmacyLabRadiologyMap":[],"category":null,"val":null,"phoneNotAvailable":false,"emailNotAvailable":false,"patientConsentEntities":null,"defaultCommunicationChannel":null,"emailVerified":false},{"uuid":"9b6240e1-d15f-4849-8788-d340cb7f84f5","firstName":"Mark","lastName":"Davis","email":"patient.1753613076520.986.1753613076563@example.com","gender":"MALE","mobileNumber":"(555) 307-6520","avatar":null,"timezone":"IST","race":null,"middleName":"","ethnicity":null,"ssn":"","mrn":"","emailConsent":false,"messageConsent":false,"callConsent":false,"registrationDate":null,"birthDate":"1974-04-19T18:30:00Z","emergencyContacts":[{"uuid":"ceeac03e-292f-4f24-a434-ea15843d02b2","firstName":"","lastName":"","email":null,"mobile":"","relationshipWithPatient":null}],"pharmacyStores":[],"labs":[],"radiologies":[],"patientInsurances":[],"providerId":null,"locationId":{},"address":{"line1":"","line2":"","city":"","state":"","country":"","zipcode":""},"maritalStatus":null,"faxNumber":"","source":null,"homePhone":"","errorMessage":null,"lastAppointment":null,"nextAppointment":null,"active":true,"archive":false,"languages":{},"lastLogin":null,"customerId":null,"pharmacyLabRadiology":null,"providerNPInumber":null,"providerContactNo":null,"providerEmail":null,"pharmacyLabRadiologyMap":[],"category":null,"val":null,"phoneNotAvailable":false,"emailNotAvailable":false,"patientConsentEntities":null,"defaultCommunicationChannel":null,"emailVerified":false},{"uuid":"bdd0e364-f8fc-4d71-b3cf-eef4d5fe94e0","firstName":"Anthony","lastName":"White","email":"patient.1753611679992.23.1753611717992@example.com","gender":"MALE","mobileNumber":"(555) 167-9992","avatar":null,"timezone":"IST","race":null,"middleName":"","ethnicity":null,"ssn":"","mrn":"","emailConsent":false,"messageConsent":false,"callConsent":false,"registrationDate":null,"birthDate":"1991-03-20T18:30:00Z","emergencyContacts":[{"uuid":"63a50897-965a-466b-9fd6-d5a71dc7521b","firstName":"","lastName":"","email":null,"mobile":"","relationshipWithPatient":null}],"pharmacyStores":[],"labs":[],"radiologies":[],"patientInsurances":[],"providerId":null,"locationId":{},"address":{"line1":"","line2":"","city":"","state":"","country":"","zipcode":""},"maritalStatus":null,"faxNumber":"","source":null,"homePhone":"","errorMessage":null,"lastAppointment":null,"nextAppointment":null,"active":true,"archive":false,"languages":{},"lastLogin":null,"customerId":null,"pharmacyLabRadiology":null,"providerNPInumber":null,"providerContactNo":null,"providerEmail":null,"pharmacyLabRadiologyMap":[],"category":null,"val":null,"phoneNotAvailable":false,"emailNotAvailable":false,"patientConsentEntities":null,"defaultCommunicationChannel":null,"emailVerified":false},{"uuid":"5e47c30e-3a2f-447d-a7d7-b49a6ed98294","firstName":"Robert","lastName":"Martin","email":"patient.1753611460046.709.1753611500409@example.com","gender":"MALE","mobileNumber":"(555) 146-0046","avatar":null,"timezone":"IST","race":null,"middleName":"","ethnicity":null,"ssn":"","mrn":"","emailConsent":false,"messageConsent":false,"callConsent":false,"registrationDate":null,"birthDate":"1999-03-28T18:30:00Z","emergencyContacts":[{"uuid":"f515d6a0-a879-483f-8634-d127bc05a9f9","firstName":"","lastName":"","email":null,"mobile":"","relationshipWithPatient":null}],"pharmacyStores":[],"labs":[],"radiologies":[],"patientInsurances":[],"providerId":null,"locationId":{},"address":{"line1":"","line2":"","city":"","state":"","country":"","zipcode":""},"maritalStatus":null,"faxNumber":"","source":null,"homePhone":"","errorMessage":null,"lastAppointment":null,"nextAppointment":null,"active":true,"archive":false,"languages":{},"lastLogin":null,"customerId":null,"pharmacyLabRadiology":null,"providerNPInumber":null,"providerContactNo":null,"providerEmail":null,"pharmacyLabRadiologyMap":[],"category":null,"val":null,"phoneNotAvailable":false,"emailNotAvailable":false,"patientConsentEntities":null,"defaultCommunicationChannel":null,"emailVerified":false},{"uuid":"a2178e11-bb9e-4d11-9603-afd9fc880cbb","firstName":"Christopher","lastName":"Davis","email":"patient.1753611135517.684.1753611204896@example.com","gender":"MALE","mobileNumber":"(555) 113-5517","avatar":null,"timezone":"IST","race":null,"middleName":"","ethnicity":null,"ssn":"","mrn":"","emailConsent":false,"messageConsent":false,"callConsent":false,"registrationDate":null,"birthDate":"1988-03-27T18:30:00Z","emergencyContacts":[{"uuid":"29d7adf1-f083-4d9b-a8ca-478549755e44","firstName":"","lastName":"","email":null,"mobile":"","relationshipWithPatient":null}],"pharmacyStores":[],"labs":[],"radiologies":[],"patientInsurances":[],"providerId":null,"locationId":{},"address":{"line1":"","line2":"","city":"","state":"","country":"","zipcode":""},"maritalStatus":null,"faxNumber":"","source":null,"homePhone":"","errorMessage":null,"lastAppointment":null,"nextAppointment":null,"active":true,"archive":false,"languages":{},"lastLogin":null,"customerId":null,"pharmacyLabRadiology":null,"providerNPInumber":null,"providerContactNo":null,"providerEmail":null,"pharmacyLabRadiologyMap":[],"category":null,"val":null,"phoneNotAvailable":false,"emailNotAvailable":false,"patientConsentEntities":null,"defaultCommunicationChannel":null,"emailVerified":false},{"uuid":"d2f9f514-46b9-4b19-9919-e22a3b275bdb","firstName":"David","lastName":"Wilson","email":"patient.1753610239256.860.1753610275863@example.com","gender":"MALE","mobileNumber":"(555) 023-9256","avatar":null,"timezone":"IST","race":null,"middleName":"","ethnicity":null,"ssn":"","mrn":"","emailConsent":false,"messageConsent":false,"callConsent":false,"registrationDate":null,"birthDate":"1992-03-21T18:30:00Z","emergencyContacts":[{"uuid":"6061d19b-1b9e-45e1-a814-705bdca23e4e","firstName":"","lastName":"","email":null,"mobile":"","relationshipWithPatient":null}],"pharmacyStores":[],"labs":[],"radiologies":[],"patientInsurances":[],"providerId":null,"locationId":{},"address":{"line1":"","line2":"","city":"","state":"","country":"","zipcode":""},"maritalStatus":null,"faxNumber":"","source":null,"homePhone":"","errorMessage":null,"lastAppointment":null,"nextAppointment":null,"active":true,"archive":false,"languages":{},"lastLogin":null,"customerId":null,"pharmacyLabRadiology":null,"providerNPInumber":null,"providerContactNo":null,"providerEmail":null,"pharmacyLabRadiologyMap":[],"category":null,"val":null,"phoneNotAvailable":false,"emailNotAvailable":false,"patientConsentEntities":null,"defaultCommunicationChannel":null,"emailVerified":false},{"uuid":"fa866494-0f95-4f70-8940-4bb6e1d16709","firstName":"Kevin","lastName":"Jones","email":"patient.1753609971309.832.1753610010317@example.com","gender":"MALE","mobileNumber":"(555) 997-1309","avatar":null,"timezone":"IST","race":null,"middleName":"","ethnicity":null,"ssn":"","mrn":"","emailConsent":false,"messageConsent":false,"callConsent":false,"registrationDate":null,"birthDate":"1991-03-20T18:30:00Z","emergencyContacts":[{"uuid":"6c6c429b-f563-4d45-a55a-d2a80b0a68b5","firstName":"","lastName":"","email":null,"mobile":"","relationshipWithPatient":null}],"pharmacyStores":[],"labs":[],"radiologies":[],"patientInsurances":[],"providerId":null,"locationId":{},"address":{"line1":"","line2":"","city":"","state":"","country":"","zipcode":""},"maritalStatus":null,"faxNumber":"","source":null,"homePhone":"","errorMessage":null,"lastAppointment":null,"nextAppointment":null,"active":true,"archive":false,"languages":{},"lastLogin":null,"customerId":null,"pharmacyLabRadiology":null,"providerNPInumber":null,"providerContactNo":null,"providerEmail":null,"pharmacyLabRadiologyMap":[],"category":null,"val":null,"phoneNotAvailable":false,"emailNotAvailable":false,"patientConsentEntities":null,"defaultCommunicationChannel":null,"emailVerified":false},{"uuid":"652e5f87-3a41-4976-97fd-8f8486684c65","firstName":"Edward","lastName":"Anderson","email":"patient.1753609743187.607.1753609785937@example.com","gender":"MALE","mobileNumber":"(555) 974-3187","avatar":null,"timezone":"IST","race":null,"middleName":"","ethnicity":null,"ssn":"","mrn":"","emailConsent":false,"messageConsent":false,"callConsent":false,"registrationDate":null,"birthDate":"1993-03-22T18:30:00Z","emergencyContacts":[{"uuid":"94b5e3c1-e48d-4c98-ba5e-4264b4d7c545","firstName":"","lastName":"","email":null,"mobile":"","relationshipWithPatient":null}],"pharmacyStores":[],"labs":[],"radiologies":[],"patientInsurances":[],"providerId":null,"locationId":{},"address":{"line1":"","line2":"","city":"","state":"","country":"","zipcode":""},"maritalStatus":null,"faxNumber":"","source":null,"homePhone":"","errorMessage":null,"lastAppointment":null,"nextAppointment":null,"active":true,"archive":false,"languages":{},"lastLogin":null,"customerId":null,"pharmacyLabRadiology":null,"providerNPInumber":null,"providerContactNo":null,"providerEmail":null,"pharmacyLabRadiologyMap":[],"category":null,"val":null,"phoneNotAvailable":false,"emailNotAvailable":false,"patientConsentEntities":null,"defaultCommunicationChannel":null,"emailVerified":false},{"uuid":"8f91a7b6-d655-43ac-b11e-722e638dc0ea","firstName":"William","lastName":"Anderson","email":"patient.1753609356265.698.1753609398347@example.com","gender":"MALE","mobileNumber":"(555) 935-6265","avatar":null,"timezone":"IST","race":null,"middleName":"","ethnicity":null,"ssn":"","mrn":"","emailConsent":false,"messageConsent":false,"callConsent":false,"registrationDate":null,"birthDate":"1987-03-26T18:30:00Z","emergencyContacts":[{"uuid":"adc9bfab-e828-45e0-87b9-848049640e36","firstName":"","lastName":"","email":null,"mobile":"","relationshipWithPatient":null}],"pharmacyStores":[],"labs":[],"radiologies":[],"patientInsurances":[],"providerId":null,"locationId":{},"address":{"line1":"","line2":"","city":"","state":"","country":"","zipcode":""},"maritalStatus":null,"faxNumber":"","source":null,"homePhone":"","errorMessage":null,"lastAppointment":null,"nextAppointment":null,"active":true,"archive":false,"languages":{},"lastLogin":null,"customerId":null,"pharmacyLabRadiology":null,"providerNPInumber":null,"providerContactNo":null,"providerEmail":null,"pharmacyLabRadiologyMap":[],"category":null,"val":null,"phoneNotAvailable":false,"emailNotAvailable":false,"patientConsentEntities":null,"defaultCommunicationChannel":null,"emailVerified":false},{"uuid":"56368204-fee8-4c9e-ae1c-e32aa08c13bb","firstName":"Anthony","lastName":"Rodriguez","email":"patient.1753609103984.506.1753609146674@example.com","gender":"MALE","mobileNumber":"(555) 910-3984","avatar":null,"timezone":"IST","race":null,"middleName":"","ethnicity":null,"ssn":"","mrn":"","emailConsent":false,"messageConsent":false,"callConsent":false,"registrationDate":null,"birthDate":"1990-03-19T18:30:00Z","emergencyContacts":[{"uuid":"80ac2d83-089d-4cb5-afc7-00e192ab04b6","firstName":"","lastName":"","email":null,"mobile":"","relationshipWithPatient":null}],"pharmacyStores":[],"labs":[],"radiologies":[],"patientInsurances":[],"providerId":null,"locationId":{},"address":{"line1":"","line2":"","city":"","state":"","country":"","zipcode":""},"maritalStatus":null,"faxNumber":"","source":null,"homePhone":"","errorMessage":null,"lastAppointment":null,"nextAppointment":null,"active":true,"archive":false,"languages":{},"lastLogin":null,"customerId":null,"pharmacyLabRadiology":null,"providerNPInumber":null,"providerContactNo":null,"providerEmail":null,"pharmacyLabRadiologyMap":[],"category":null,"val":null,"phoneNotAvailable":false,"emailNotAvailable":false,"patientConsentEntities":null,"defaultCommunicationChannel":null,"emailVerified":false},{"uuid":"dd1e351a-96cf-446e-a308-f193413f0d0f","firstName":"Donald","lastName":"Davis","email":"patient.1753608711261.234.1753608748571@example.com","gender":"MALE","mobileNumber":"(555) 871-1261","avatar":null,"timezone":"IST","race":null,"middleName":"","ethnicity":null,"ssn":"","mrn":"","emailConsent":false,"messageConsent":false,"callConsent":false,"registrationDate":null,"birthDate":"1994-03-28T18:30:00Z","emergencyContacts":[{"uuid":"173222d8-ac58-448c-8845-a2b4527ff6ed","firstName":"","lastName":"","email":null,"mobile":"","relationshipWithPatient":null}],"pharmacyStores":[],"labs":[],"radiologies":[],"patientInsurances":[],"providerId":null,"locationId":{},"address":{"line1":"","line2":"","city":"","state":"","country":"","zipcode":""},"maritalStatus":null,"faxNumber":"","source":null,"homePhone":"","errorMessage":null,"lastAppointment":null,"nextAppointment":null,"active":true,"archive":false,"languages":{},"lastLogin":null,"customerId":null,"pharmacyLabRadiology":null,"providerNPInumber":null,"providerContactNo":null,"providerEmail":null,"pharmacyLabRadiologyMap":[],"category":null,"val":null,"phoneNotAvailable":false,"emailNotAvailable":false,"patientConsentEntities":null,"defaultCommunicationChannel":null,"emailVerified":false},{"uuid":"0043e821-37ad-421f-994a-376abf97a522","firstName":"Mark","lastName":"Wilson","email":"patient.1753608311915.9.1753608348774@example.com","gender":"MALE","mobileNumber":"(555) 831-1915","avatar":null,"timezone":"IST","race":null,"middleName":"","ethnicity":null,"ssn":"","mrn":"","emailConsent":false,"messageConsent":false,"callConsent":false,"registrationDate":null,"birthDate":"1998-03-27T18:30:00Z","emergencyContacts":[{"uuid":"026921e5-ac60-4f91-9266-2a977ab4b8eb","firstName":"","lastName":"","email":null,"mobile":"","relationshipWithPatient":null}],"pharmacyStores":[],"labs":[],"radiologies":[],"patientInsurances":[],"providerId":null,"locationId":{},"address":{"line1":"","line2":"","city":"","state":"","country":"","zipcode":""},"maritalStatus":null,"faxNumber":"","source":null,"homePhone":"","errorMessage":null,"lastAppointment":null,"nextAppointment":null,"active":true,"archive":false,"languages":{},"lastLogin":null,"customerId":null,"pharmacyLabRadiology":null,"providerNPInumber":null,"providerContactNo":null,"providerEmail":null,"pharmacyLabRadiologyMap":[],"category":null,"val":null,"phoneNotAvailable":false,"emailNotAvailable":false,"patientConsentEntities":null,"defaultCommunicationChannel":null,"emailVerified":false},{"uuid":"ca291918-d35d-4c1b-b904-dc0845ac5429","firstName":"James","lastName":"Martin","email":"patient.1753608126229.579.1753608199018@example.com","gender":"MALE","mobileNumber":"(555) 812-6229","avatar":null,"timezone":"IST","race":null,"middleName":"","ethnicity":null,"ssn":"","mrn":"","emailConsent":false,"messageConsent":false,"callConsent":false,"registrationDate":null,"birthDate":"1999-03-28T18:30:00Z","emergencyContacts":[{"uuid":"62e6f5b1-79e9-479c-a385-2bf3ac1ba4a2","firstName":"","lastName":"","email":null,"mobile":"","relationshipWithPatient":null}],"pharmacyStores":[],"labs":[],"radiologies":[],"patientInsurances":[],"providerId":null,"locationId":{},"address":{"line1":"","line2":"","city":"","state":"","country":"","zipcode":""},"maritalStatus":null,"faxNumber":"","source":null,"homePhone":"","errorMessage":null,"lastAppointment":null,"nextAppointment":null,"active":true,"archive":false,"languages":{},"lastLogin":null,"customerId":null,"pharmacyLabRadiology":null,"providerNPInumber":null,"providerContactNo":null,"providerEmail":null,"pharmacyLabRadiologyMap":[],"category":null,"val":null,"phoneNotAvailable":false,"emailNotAvailable":false,"patientConsentEntities":null,"defaultCommunicationChannel":null,"emailVerified":false},{"uuid":"9313d920-5c04-4d6e-82d4-181644ce2416","firstName":"David","lastName":"Harris","email":"patient.1753607727766.1.1753607796775@example.com","gender":"MALE","mobileNumber":"(555) 772-7766","avatar":null,"timezone":"IST","race":null,"middleName":"","ethnicity":null,"ssn":"","mrn":"","emailConsent":false,"messageConsent":false,"callConsent":false,"registrationDate":null,"birthDate":"1999-03-23T18:30:00Z","emergencyContacts":[{"uuid":"5f9b70c7-bfbc-4985-b845-ab51d34b4e6a","firstName":"","lastName":"","email":null,"mobile":"","relationshipWithPatient":null}],"pharmacyStores":[],"labs":[],"radiologies":[],"patientInsurances":[],"providerId":null,"locationId":{},"address":{"line1":"","line2":"","city":"","state":"","country":"","zipcode":""},"maritalStatus":null,"faxNumber":"","source":null,"homePhone":"","errorMessage":null,"lastAppointment":null,"nextAppointment":null,"active":true,"archive":false,"languages":{},"lastLogin":null,"customerId":null,"pharmacyLabRadiology":null,"providerNPInumber":null,"providerContactNo":null,"providerEmail":null,"pharmacyLabRadiologyMap":[],"category":null,"val":null,"phoneNotAvailable":false,"emailNotAvailable":false,"patientConsentEntities":null,"defaultCommunicationChannel":null,"emailVerified":false},{"uuid":"a3b46eef-a03b-456e-b2b9-87a3bf9ad0e0","firstName":"Kenneth","lastName":"Rodriguez","email":"patient.1753606139634.537.1753606182994@example.com","gender":"MALE","mobileNumber":"(555) 613-9634","avatar":null,"timezone":"IST","race":null,"middleName":"","ethnicity":null,"ssn":"","mrn":"","emailConsent":false,"messageConsent":false,"callConsent":false,"registrationDate":null,"birthDate":"1985-03-19T18:30:00Z","emergencyContacts":[{"uuid":"feb1e0ac-80cc-4135-8069-5a8404f1c180","firstName":"","lastName":"","email":null,"mobile":"","relationshipWithPatient":null}],"pharmacyStores":[],"labs":[],"radiologies":[],"patientInsurances":[],"providerId":null,"locationId":{},"address":{"line1":"","line2":"","city":"","state":"","country":"","zipcode":""},"maritalStatus":null,"faxNumber":"","source":null,"homePhone":"","errorMessage":null,"lastAppointment":null,"nextAppointment":null,"active":true,"archive":false,"languages":{},"lastLogin":null,"customerId":null,"pharmacyLabRadiology":null,"providerNPInumber":null,"providerContactNo":null,"providerEmail":null,"pharmacyLabRadiologyMap":[],"category":null,"val":null,"phoneNotAvailable":false,"emailNotAvailable":false,"patientConsentEntities":null,"defaultCommunicationChannel":null,"emailVerified":false},{"uuid":"1dea5ba8-f9cb-4918-989f-f482f8e9ea71","firstName":"Robert","lastName":"Jones","email":"patient.1753605780450.954.1753605823752@example.com","gender":"MALE","mobileNumber":"(555) 578-0450","avatar":null,"timezone":"IST","race":null,"middleName":"","ethnicity":null,"ssn":"","mrn":"","emailConsent":false,"messageConsent":false,"callConsent":false,"registrationDate":null,"birthDate":"1995-03-24T18:30:00Z","emergencyContacts":[{"uuid":"daf2d127-ca82-49ec-9c6c-8579c6e39806","firstName":"","lastName":"","email":null,"mobile":"","relationshipWithPatient":null}],"pharmacyStores":[],"labs":[],"radiologies":[],"patientInsurances":[],"providerId":null,"locationId":{},"address":{"line1":"","line2":"","city":"","state":"","country":"","zipcode":""},"maritalStatus":null,"faxNumber":"","source":null,"homePhone":"","errorMessage":null,"lastAppointment":null,"nextAppointment":null,"active":true,"archive":false,"languages":{},"lastLogin":null,"customerId":null,"pharmacyLabRadiology":null,"providerNPInumber":null,"providerContactNo":null,"providerEmail":null,"pharmacyLabRadiologyMap":[],"category":null,"val":null,"phoneNotAvailable":false,"emailNotAvailable":false,"patientConsentEntities":null,"defaultCommunicationChannel":null,"emailVerified":false},{"uuid":"5fbc15b4-d874-4b0d-ac0e-7d851adac912","firstName":"Michael","lastName":"Rodriguez","email":"patient.1753604798265@example.com","gender":"MALE","mobileNumber":"(555) 123-4567","avatar":null,"timezone":"IST","race":null,"middleName":"","ethnicity":null,"ssn":"","mrn":"","emailConsent":false,"messageConsent":false,"callConsent":false,"registrationDate":null,"birthDate":"1990-03-21T18:30:00Z","emergencyContacts":[{"uuid":"36a97282-f689-477f-9471-c80537967486","firstName":"","lastName":"","email":null,"mobile":"","relationshipWithPatient":null}],"pharmacyStores":[],"labs":[],"radiologies":[],"patientInsurances":[],"providerId":null,"locationId":{},"address":{"line1":"","line2":"","city":"","state":"","country":"","zipcode":""},"maritalStatus":null,"faxNumber":"","source":null,"homePhone":"","errorMessage":null,"lastAppointment":null,"nextAppointment":null,"active":true,"archive":false,"languages":{},"lastLogin":null,"customerId":null,"pharmacyLabRadiology":null,"providerNPInumber":null,"providerContactNo":null,"providerEmail":null,"pharmacyLabRadiologyMap":[],"category":null,"val":null,"phoneNotAvailable":false,"emailNotAvailable":false,"patientConsentEntities":null,"defaultCommunicationChannel":null,"emailVerified":false},{"uuid":"4abc09bd-8261-474c-bfb0-89c41c10b27b","firstName":"Liam","lastName":"Garcia","email":"auto_test_patient1753602969404@mailinator.com","gender":"FEMALE","mobileNumber":"(987) 296-9404","avatar":null,"timezone":"IST","race":null,"middleName":"","ethnicity":null,"ssn":"","mrn":"","emailConsent":false,"messageConsent":false,"callConsent":false,"registrationDate":null,"birthDate":"1974-11-01T18:23:00Z","emergencyContacts":[{"uuid":"7102a61f-f9a3-4aca-85c8-c24898004eae","firstName":"","lastName":"","email":null,"mobile":"","relationshipWithPatient":null}],"pharmacyStores":[],"labs":[],"radiologies":[],"patientInsurances":[],"providerId":null,"locationId":{},"address":{"line1":"","line2":"","city":"","state":"","country":"","zipcode":""},"maritalStatus":null,"faxNumber":"","source":null,"homePhone":"","errorMessage":null,"lastAppointment":null,"nextAppointment":null,"active":true,"archive":false,"languages":{},"lastLogin":null,"customerId":null,"pharmacyLabRadiology":null,"providerNPInumber":null,"providerContactNo":null,"providerEmail":null,"pharmacyLabRadiologyMap":[],"category":null,"val":null,"phoneNotAvailable":false,"emailNotAvailable":false,"patientConsentEntities":null,"defaultCommunicationChannel":null,"emailVerified":false},{"uuid":"819a3d5e-d42d-461a-b6ec-65e286bac0cc","firstName":"Dven","lastName":"Ward","email":"Dven76@mailinator.com","gender":"MALE","mobileNumber":"(968) 282-2525","avatar":null,"timezone":"IST","race":null,"middleName":"","ethnicity":null,"ssn":"","mrn":"","emailConsent":false,"messageConsent":false,"callConsent":false,"registrationDate":null,"birthDate":"1993-07-26T18:30:00Z","emergencyContacts":[{"uuid":"84a1717a-92f3-48b2-92fc-a8efd5c5f59b","firstName":"","lastName":"","email":null,"mobile":"","relationshipWithPatient":null}],"pharmacyStores":[],"labs":[],"radiologies":[],"patientInsurances":[],"providerId":null,"locationId":{},"address":{"line1":"High Street","line2":"","city":"Durby","state":"","country":"","zipcode":"52452"},"maritalStatus":null,"faxNumber":"","source":null,"homePhone":"","errorMessage":null,"lastAppointment":null,"nextAppointment":null,"active":true,"archive":false,"languages":{},"lastLogin":null,"customerId":null,"pharmacyLabRadiology":null,"providerNPInumber":null,"providerContactNo":null,"providerEmail":null,"pharmacyLabRadiologyMap":[],"category":null,"val":null,"phoneNotAvailable":false,"emailNotAvailable":false,"patientConsentEntities":null,"defaultCommunicationChannel":null,"emailVerified":false}],"page":{"size":20,"number":0,"totalElements":191,"totalPages":10}},"path":"/api/master/patient","requestId":"64b25b49-930d-49db-8664-eed47f2bfd1c","version":"1.0"}