{"date":"2025-07-27T11:06:40.098+00:00","code":"ENTITY","message":null,"data":{"content":[{"uuid":"0aa1fdda-765b-4c03-8056-22515fed3742","email":"provider.1753614349813.444.1753614372683@example.com","firstName":"Dr. Hero","lastName":"Johnson","phone":null,"birthDate":"1986-05-20T18:30:00Z","avatar":null,"active":true,"source":null,"archive":false,"timezone":null,"providerType":"MD","gender":"FEMALE","npi":1234549813,"federalTaxIdNumber":null,"role":"PROVIDER","roleType":"PROVIDER","officeFaxNumber":"","licenseNumber":null,"groupNpiNumber":null,"taxonomyNumber":"","workLocations":{},"acceptedInsurances":{},"specialities":{"550e8400-e29b-41d4-a716-446655440003":"Behavioral Health & Psychiatry "},"licenceInformation":[{"uuid":"eba6042c-03e4-4878-bcbb-4ae253760fef","licenseState":"","licenseNumber":"","expiryDate":null,"licenseActiveDate":null,"licenseDocument":null}],"deaInformation":[{"uuid":"2945e4a2-e0ca-43ea-a0a3-d446419085c1","deaState":"","deaNumber":"","deaTermDate":null,"deaActiveDate":null}],"hospitalAffiliation":"","experience":"","acceptCash":false,"providerEmployment":"","workExperience":"","bio":"","errorMessage":null,"acceptNewPatient":false,"expertise":"","areaFocus":"","referralNumber":null,"secondOpinion":"","spokenLanguages":{},"ageGroupSeen":{},"careService":{},"lastLogin":null,"colorCode":"#a49044","loginUrl":"https://stage_aithinkitive.uat.provider.ecarehealth.com","emailVerified":false},{"uuid":"c4b6f4bb-60bc-4787-a15e-9efac468fd06","email":"provider.1753613171663.330.1753613171703@example.com","firstName":"Dr. Nikita","lastName":"Davis","phone":null,"birthDate":"1993-08-13T18:30:00Z","avatar":null,"active":true,"source":null,"archive":false,"timezone":null,"providerType":"MD","gender":"FEMALE","npi":1234571663,"federalTaxIdNumber":null,"role":"PROVIDER","roleType":"PROVIDER","officeFaxNumber":"","licenseNumber":null,"groupNpiNumber":null,"taxonomyNumber":"","workLocations":{},"acceptedInsurances":{},"specialities":{"550e8400-e29b-41d4-a716-446655440003":"Behavioral Health & Psychiatry "},"licenceInformation":[{"uuid":"d66c4927-b79f-44b5-adf4-92c893e6b7d9","licenseState":"","licenseNumber":"","expiryDate":null,"licenseActiveDate":null,"licenseDocument":null}],"deaInformation":[{"uuid":"e7127136-a3ca-4f56-9844-c4810ac81cb4","deaState":"","deaNumber":"","deaTermDate":null,"deaActiveDate":null}],"hospitalAffiliation":"","experience":"","acceptCash":false,"providerEmployment":"","workExperience":"","bio":"","errorMessage":null,"acceptNewPatient":false,"expertise":"","areaFocus":"","referralNumber":null,"secondOpinion":"","spokenLanguages":{},"ageGroupSeen":{},"careService":{},"lastLogin":null,"colorCode":"#7a2970","loginUrl":"https://stage_aithinkitive.uat.provider.ecarehealth.com","emailVerified":false},{"uuid":"6bb6b916-3b12-4219-ae46-98d0dcf71a52","email":"provider.1753613076520.499.1753613076560@example.com","firstName":"Dr. Shekhawat","lastName":"Martin","phone":null,"birthDate":"1966-08-19T18:30:00Z","avatar":null,"active":true,"source":null,"archive":false,"timezone":null,"providerType":"MD","gender":"MALE","npi":1234576520,"federalTaxIdNumber":null,"role":"PROVIDER","roleType":"PROVIDER","officeFaxNumber":"","licenseNumber":null,"groupNpiNumber":null,"taxonomyNumber":"","workLocations":{},"acceptedInsurances":{},"specialities":{"550e8400-e29b-41d4-a716-446655440003":"Behavioral Health & Psychiatry "},"licenceInformation":[{"uuid":"aeba8b5c-2d94-41fc-b89f-ddee696e7ef7","licenseState":"","licenseNumber":"","expiryDate":null,"licenseActiveDate":null,"licenseDocument":null}],"deaInformation":[{"uuid":"4d9ebef8-e36b-4361-9dc3-21f9e2789504","deaState":"","deaNumber":"","deaTermDate":null,"deaActiveDate":null}],"hospitalAffiliation":"","experience":"","acceptCash":false,"providerEmployment":"","workExperience":"","bio":"","errorMessage":null,"acceptNewPatient":false,"expertise":"","areaFocus":"","referralNumber":null,"secondOpinion":"","spokenLanguages":{},"ageGroupSeen":{},"careService":{},"lastLogin":null,"colorCode":"#d0470e","loginUrl":"https://stage_aithinkitive.uat.provider.ecarehealth.com","emailVerified":false},{"uuid":"247f683a-94fb-4ebe-952a-7a5d1f734d93","email":"provider.1753611679992.578.1753611693135@example.com","firstName":"Dr. Shekhawat","lastName":"Jackson","phone":null,"birthDate":"1981-05-15T18:30:00Z","avatar":null,"active":true,"source":null,"archive":false,"timezone":null,"providerType":"MD","gender":"FEMALE","npi":1234579992,"federalTaxIdNumber":null,"role":"PROVIDER","roleType":"PROVIDER","officeFaxNumber":"","licenseNumber":null,"groupNpiNumber":null,"taxonomyNumber":"","workLocations":{},"acceptedInsurances":{},"specialities":{"550e8400-e29b-41d4-a716-446655440003":"Behavioral Health & Psychiatry "},"licenceInformation":[{"uuid":"82df9beb-ac44-4d92-885f-126b850140a6","licenseState":"","licenseNumber":"","expiryDate":null,"licenseActiveDate":null,"licenseDocument":null}],"deaInformation":[{"uuid":"fdd1f920-8940-4810-8531-ae3df14180f4","deaState":"","deaNumber":"","deaTermDate":null,"deaActiveDate":null}],"hospitalAffiliation":"","experience":"","acceptCash":false,"providerEmployment":"","workExperience":"","bio":"","errorMessage":null,"acceptNewPatient":false,"expertise":"","areaFocus":"","referralNumber":null,"secondOpinion":"","spokenLanguages":{},"ageGroupSeen":{},"careService":{},"lastLogin":null,"colorCode":"#2a39c3","loginUrl":"https://stage_aithinkitive.uat.provider.ecarehealth.com","emailVerified":false},{"uuid":"c72743b7-9044-48ee-853d-9e3f7c840443","email":"provider.1753611460046.207.1753611473464@example.com","firstName":"Dr. Hero","lastName":"Martin","phone":null,"birthDate":"1989-05-23T18:30:00Z","avatar":null,"active":true,"source":null,"archive":false,"timezone":null,"providerType":"MD","gender":"FEMALE","npi":1234560046,"federalTaxIdNumber":null,"role":"PROVIDER","roleType":"PROVIDER","officeFaxNumber":"","licenseNumber":null,"groupNpiNumber":null,"taxonomyNumber":"","workLocations":{},"acceptedInsurances":{},"specialities":{"550e8400-e29b-41d4-a716-446655440003":"Behavioral Health & Psychiatry "},"licenceInformation":[{"uuid":"c0bd984c-b337-45d1-9b18-20af3d1f1d18","licenseState":"","licenseNumber":"","expiryDate":null,"licenseActiveDate":null,"licenseDocument":null}],"deaInformation":[{"uuid":"f9a3dee5-3797-4e0b-ac46-d65ac4d391ee","deaState":"","deaNumber":"","deaTermDate":null,"deaActiveDate":null}],"hospitalAffiliation":"","experience":"","acceptCash":false,"providerEmployment":"","workExperience":"","bio":"","errorMessage":null,"acceptNewPatient":false,"expertise":"","areaFocus":"","referralNumber":null,"secondOpinion":"","spokenLanguages":{},"ageGroupSeen":{},"careService":{},"lastLogin":null,"colorCode":"#ce9934","loginUrl":"https://stage_aithinkitive.uat.provider.ecarehealth.com","emailVerified":false},{"uuid":"21ccbd56-c558-4f43-bd93-5726bb5dd712","email":"provider.1753611135517.989.1753611148653@example.com","firstName":"Dr. Sainath","lastName":"Taylor","phone":null,"birthDate":"1988-05-22T18:30:00Z","avatar":null,"active":true,"source":null,"archive":false,"timezone":null,"providerType":"MD","gender":"FEMALE","npi":1234535517,"federalTaxIdNumber":null,"role":"PROVIDER","roleType":"PROVIDER","officeFaxNumber":"","licenseNumber":null,"groupNpiNumber":null,"taxonomyNumber":"","workLocations":{},"acceptedInsurances":{},"specialities":{"550e8400-e29b-41d4-a716-446655440003":"Behavioral Health & Psychiatry "},"licenceInformation":[{"uuid":"4f2be428-a427-410b-b49d-2061d6985399","licenseState":"","licenseNumber":"","expiryDate":null,"licenseActiveDate":null,"licenseDocument":null}],"deaInformation":[{"uuid":"bd30b8f2-199d-40ea-b9b8-5a23778e2758","deaState":"","deaNumber":"","deaTermDate":null,"deaActiveDate":null}],"hospitalAffiliation":"","experience":"","acceptCash":false,"providerEmployment":"","workExperience":"","bio":"","errorMessage":null,"acceptNewPatient":false,"expertise":"","areaFocus":"","referralNumber":null,"secondOpinion":"","spokenLanguages":{},"ageGroupSeen":{},"careService":{},"lastLogin":null,"colorCode":"#9b0e8f","loginUrl":"https://stage_aithinkitive.uat.provider.ecarehealth.com","emailVerified":false},{"uuid":"b7993413-02c3-4d59-a6c0-414b190c906c","email":"provider.1753610239256.43.1753610251242@example.com","firstName":"Dr. Sarah","lastName":"Clark","phone":null,"birthDate":"1982-05-16T18:30:00Z","avatar":null,"active":true,"source":null,"archive":false,"timezone":null,"providerType":"MD","gender":"FEMALE","npi":1234539256,"federalTaxIdNumber":null,"role":"PROVIDER","roleType":"PROVIDER","officeFaxNumber":"","licenseNumber":null,"groupNpiNumber":null,"taxonomyNumber":"","workLocations":{},"acceptedInsurances":{},"specialities":{"550e8400-e29b-41d4-a716-446655440003":"Behavioral Health & Psychiatry "},"licenceInformation":[{"uuid":"700d1756-b501-431d-91c2-e7dd7a7a8098","licenseState":"","licenseNumber":"","expiryDate":null,"licenseActiveDate":null,"licenseDocument":null}],"deaInformation":[{"uuid":"3093ec24-92c3-4b84-81a9-a8ff345ef8b4","deaState":"","deaNumber":"","deaTermDate":null,"deaActiveDate":null}],"hospitalAffiliation":"","experience":"","acceptCash":false,"providerEmployment":"","workExperience":"","bio":"","errorMessage":null,"acceptNewPatient":false,"expertise":"","areaFocus":"","referralNumber":null,"secondOpinion":"","spokenLanguages":{},"ageGroupSeen":{},"careService":{},"lastLogin":null,"colorCode":"#52c935","loginUrl":"https://stage_aithinkitive.uat.provider.ecarehealth.com","emailVerified":false},{"uuid":"94e23c9c-43e3-4c07-a787-8c452afce7b8","email":"provider.1753609971309.347.1753609985041@example.com","firstName":"Dr. Lisa","lastName":"Harris","phone":null,"birthDate":"1981-05-15T18:30:00Z","avatar":null,"active":true,"source":null,"archive":false,"timezone":null,"providerType":"MD","gender":"FEMALE","npi":1234571309,"federalTaxIdNumber":null,"role":"PROVIDER","roleType":"PROVIDER","officeFaxNumber":"","licenseNumber":null,"groupNpiNumber":null,"taxonomyNumber":"","workLocations":{},"acceptedInsurances":{},"specialities":{"550e8400-e29b-41d4-a716-446655440003":"Behavioral Health & Psychiatry "},"licenceInformation":[{"uuid":"77d75c53-5819-4e50-8b4d-c9b74dc08cca","licenseState":"","licenseNumber":"","expiryDate":null,"licenseActiveDate":null,"licenseDocument":null}],"deaInformation":[{"uuid":"ac26cb0c-ac08-43bd-92df-5ab5e365c830","deaState":"","deaNumber":"","deaTermDate":null,"deaActiveDate":null}],"hospitalAffiliation":"","experience":"","acceptCash":false,"providerEmployment":"","workExperience":"","bio":"","errorMessage":null,"acceptNewPatient":false,"expertise":"","areaFocus":"","referralNumber":null,"secondOpinion":"","spokenLanguages":{},"ageGroupSeen":{},"careService":{},"lastLogin":null,"colorCode":"#ac809b","loginUrl":"https://stage_aithinkitive.uat.provider.ecarehealth.com","emailVerified":false},{"uuid":"69eee2f3-1595-4f73-9e0d-80875a733325","email":"provider.1753609743187.207.1753609761046@example.com","firstName":"Dr. Sarah","lastName":"Thompson","phone":null,"birthDate":"1983-05-17T18:30:00Z","avatar":null,"active":true,"source":null,"archive":false,"timezone":null,"providerType":"MD","gender":"FEMALE","npi":1234543187,"federalTaxIdNumber":null,"role":"PROVIDER","roleType":"PROVIDER","officeFaxNumber":"","licenseNumber":null,"groupNpiNumber":null,"taxonomyNumber":"","workLocations":{},"acceptedInsurances":{},"specialities":{"550e8400-e29b-41d4-a716-446655440003":"Behavioral Health & Psychiatry "},"licenceInformation":[{"uuid":"84868637-e2f1-4084-b130-bc62887a3592","licenseState":"","licenseNumber":"","expiryDate":null,"licenseActiveDate":null,"licenseDocument":null}],"deaInformation":[{"uuid":"11a2dcb7-9781-4bb6-a109-4130ddea005c","deaState":"","deaNumber":"","deaTermDate":null,"deaActiveDate":null}],"hospitalAffiliation":"","experience":"","acceptCash":false,"providerEmployment":"","workExperience":"","bio":"","errorMessage":null,"acceptNewPatient":false,"expertise":"","areaFocus":"","referralNumber":null,"secondOpinion":"","spokenLanguages":{},"ageGroupSeen":{},"careService":{},"lastLogin":null,"colorCode":"#6ea646","loginUrl":"https://stage_aithinkitive.uat.provider.ecarehealth.com","emailVerified":false},{"uuid":"d16aa983-fc5c-44ef-8a68-58082b1b06dd","email":"provider.1753609356265.793.1753609373626@example.com","firstName":"Dr. Angela","lastName":"Thompson","phone":null,"birthDate":"1987-05-21T18:30:00Z","avatar":null,"active":true,"source":null,"archive":false,"timezone":null,"providerType":"MD","gender":"FEMALE","npi":1234556265,"federalTaxIdNumber":null,"role":"PROVIDER","roleType":"PROVIDER","officeFaxNumber":"","licenseNumber":null,"groupNpiNumber":null,"taxonomyNumber":"","workLocations":{},"acceptedInsurances":{},"specialities":{"550e8400-e29b-41d4-a716-446655440003":"Behavioral Health & Psychiatry "},"licenceInformation":[{"uuid":"169b390e-e71d-4758-b4d5-81e2d437f16e","licenseState":"","licenseNumber":"","expiryDate":null,"licenseActiveDate":null,"licenseDocument":null}],"deaInformation":[{"uuid":"0dd3ccbb-8c9d-4a33-8504-fbcd2dbb37c0","deaState":"","deaNumber":"","deaTermDate":null,"deaActiveDate":null}],"hospitalAffiliation":"","experience":"","acceptCash":false,"providerEmployment":"","workExperience":"","bio":"","errorMessage":null,"acceptNewPatient":false,"expertise":"","areaFocus":"","referralNumber":null,"secondOpinion":"","spokenLanguages":{},"ageGroupSeen":{},"careService":{},"lastLogin":null,"colorCode":"#e6f957","loginUrl":"https://stage_aithinkitive.uat.provider.ecarehealth.com","emailVerified":false},{"uuid":"a2bf6c6a-efe4-473c-a8d5-c8c9573805ba","email":"provider.1753609103984.584.1753609116222@example.com","firstName":"Dr. Emily","lastName":"Martin","phone":null,"birthDate":"1980-05-14T18:30:00Z","avatar":null,"active":true,"source":null,"archive":false,"timezone":null,"providerType":"MD","gender":"FEMALE","npi":1234503984,"federalTaxIdNumber":null,"role":"PROVIDER","roleType":"PROVIDER","officeFaxNumber":"","licenseNumber":null,"groupNpiNumber":null,"taxonomyNumber":"","workLocations":{},"acceptedInsurances":{},"specialities":{"550e8400-e29b-41d4-a716-446655440003":"Behavioral Health & Psychiatry "},"licenceInformation":[{"uuid":"7b024773-6ef7-4241-9f62-ab959cf6311e","licenseState":"","licenseNumber":"","expiryDate":null,"licenseActiveDate":null,"licenseDocument":null}],"deaInformation":[{"uuid":"80f49454-c29a-4b52-8a23-7f0885c766b9","deaState":"","deaNumber":"","deaTermDate":null,"deaActiveDate":null}],"hospitalAffiliation":"","experience":"","acceptCash":false,"providerEmployment":"","workExperience":"","bio":"","errorMessage":null,"acceptNewPatient":false,"expertise":"","areaFocus":"","referralNumber":null,"secondOpinion":"","spokenLanguages":{},"ageGroupSeen":{},"careService":{},"lastLogin":null,"colorCode":"#6665ec","loginUrl":"https://stage_aithinkitive.uat.provider.ecarehealth.com","emailVerified":false},{"uuid":"d865138b-fe5e-421b-8385-5d66a268e738","email":"provider.1753608711261.873.1753608723571@example.com","firstName":"Dr. Michelle","lastName":"Anderson","phone":null,"birthDate":"1989-05-23T18:30:00Z","avatar":null,"active":true,"source":null,"archive":false,"timezone":null,"providerType":"MD","gender":"FEMALE","npi":1234511261,"federalTaxIdNumber":null,"role":"PROVIDER","roleType":"PROVIDER","officeFaxNumber":"","licenseNumber":null,"groupNpiNumber":null,"taxonomyNumber":"","workLocations":{},"acceptedInsurances":{},"specialities":{"550e8400-e29b-41d4-a716-446655440003":"Behavioral Health & Psychiatry "},"licenceInformation":[{"uuid":"2aaaf49c-0073-40a3-8699-45f9779c1a83","licenseState":"","licenseNumber":"","expiryDate":null,"licenseActiveDate":null,"licenseDocument":null}],"deaInformation":[{"uuid":"f29dba15-f36c-48a5-8773-34d3dd5df207","deaState":"","deaNumber":"","deaTermDate":null,"deaActiveDate":null}],"hospitalAffiliation":"","experience":"","acceptCash":false,"providerEmployment":"","workExperience":"","bio":"","errorMessage":null,"acceptNewPatient":false,"expertise":"","areaFocus":"","referralNumber":null,"secondOpinion":"","spokenLanguages":{},"ageGroupSeen":{},"careService":{},"lastLogin":null,"colorCode":"#116452","loginUrl":"https://stage_aithinkitive.uat.provider.ecarehealth.com","emailVerified":false},{"uuid":"b226ef12-1076-4fb9-a79e-df3cb69e73ce","email":"provider.1753608311915.291.1753608323440@example.com","firstName":"Dr. Jessica","lastName":"Thomas","phone":null,"birthDate":"1988-05-22T18:30:00Z","avatar":null,"active":true,"source":null,"archive":false,"timezone":null,"providerType":"MD","gender":"FEMALE","npi":1234511915,"federalTaxIdNumber":null,"role":"PROVIDER","roleType":"PROVIDER","officeFaxNumber":"","licenseNumber":null,"groupNpiNumber":null,"taxonomyNumber":"","workLocations":{},"acceptedInsurances":{},"specialities":{"550e8400-e29b-41d4-a716-446655440003":"Behavioral Health & Psychiatry "},"licenceInformation":[{"uuid":"4d65debc-73b0-4636-beb8-13a466e93a65","licenseState":"","licenseNumber":"","expiryDate":null,"licenseActiveDate":null,"licenseDocument":null}],"deaInformation":[{"uuid":"aff4d86f-d1d0-4a36-92cf-f9d01cc51431","deaState":"","deaNumber":"","deaTermDate":null,"deaActiveDate":null}],"hospitalAffiliation":"","experience":"","acceptCash":false,"providerEmployment":"","workExperience":"","bio":"","errorMessage":null,"acceptNewPatient":false,"expertise":"","areaFocus":"","referralNumber":null,"secondOpinion":"","spokenLanguages":{},"ageGroupSeen":{},"careService":{},"lastLogin":null,"colorCode":"#e2e31f","loginUrl":"https://stage_aithinkitive.uat.provider.ecarehealth.com","emailVerified":false},{"uuid":"7e411bf1-8772-4cde-a81a-9726469baab9","email":"provider.1753608126229.847.1753608138522@example.com","firstName":"Dr. Sarah","lastName":"Miller","phone":null,"birthDate":"1989-05-23T18:30:00Z","avatar":null,"active":true,"source":null,"archive":false,"timezone":null,"providerType":"MD","gender":"FEMALE","npi":1234526229,"federalTaxIdNumber":null,"role":"PROVIDER","roleType":"PROVIDER","officeFaxNumber":"","licenseNumber":null,"groupNpiNumber":null,"taxonomyNumber":"","workLocations":{},"acceptedInsurances":{},"specialities":{"550e8400-e29b-41d4-a716-446655440003":"Behavioral Health & Psychiatry "},"licenceInformation":[{"uuid":"da559a66-64b0-4a9c-8e00-76e93349e31b","licenseState":"","licenseNumber":"","expiryDate":null,"licenseActiveDate":null,"licenseDocument":null}],"deaInformation":[{"uuid":"f08fb43c-53f0-47e1-ada9-0b725eb91df5","deaState":"","deaNumber":"","deaTermDate":null,"deaActiveDate":null}],"hospitalAffiliation":"","experience":"","acceptCash":false,"providerEmployment":"","workExperience":"","bio":"","errorMessage":null,"acceptNewPatient":false,"expertise":"","areaFocus":"","referralNumber":null,"secondOpinion":"","spokenLanguages":{},"ageGroupSeen":{},"careService":{},"lastLogin":null,"colorCode":"#295e10","loginUrl":"https://stage_aithinkitive.uat.provider.ecarehealth.com","emailVerified":false},{"uuid":"09eb6028-39c9-4a20-ad6e-9d55842524b7","email":"provider.1753607727766.272.1753607741561@example.com","firstName":"Dr. Jennifer","lastName":"Johnson","phone":null,"birthDate":"1984-05-18T18:30:00Z","avatar":null,"active":true,"source":null,"archive":false,"timezone":null,"providerType":"MD","gender":"FEMALE","npi":1234527766,"federalTaxIdNumber":null,"role":"PROVIDER","roleType":"PROVIDER","officeFaxNumber":"","licenseNumber":null,"groupNpiNumber":null,"taxonomyNumber":"","workLocations":{},"acceptedInsurances":{},"specialities":{"550e8400-e29b-41d4-a716-446655440003":"Behavioral Health & Psychiatry "},"licenceInformation":[{"uuid":"5aa6e3f0-944b-4d7d-ae0e-cbb00f708195","licenseState":"","licenseNumber":"","expiryDate":null,"licenseActiveDate":null,"licenseDocument":null}],"deaInformation":[{"uuid":"04c0befc-2f79-4122-a030-632d2593f2cc","deaState":"","deaNumber":"","deaTermDate":null,"deaActiveDate":null}],"hospitalAffiliation":"","experience":"","acceptCash":false,"providerEmployment":"","workExperience":"","bio":"","errorMessage":null,"acceptNewPatient":false,"expertise":"","areaFocus":"","referralNumber":null,"secondOpinion":"","spokenLanguages":{},"ageGroupSeen":{},"careService":{},"lastLogin":null,"colorCode":"#ca8cb2","loginUrl":"https://stage_aithinkitive.uat.provider.ecarehealth.com","emailVerified":false},{"uuid":"b526633b-5d16-4be4-8c73-2fcb8f681493","email":"provider.1753606139634.299.1753606151769@example.com","firstName":"Dr. Jessica","lastName":"Robinson","phone":null,"birthDate":"1980-05-14T18:30:00Z","avatar":null,"active":true,"source":null,"archive":false,"timezone":null,"providerType":"MD","gender":"FEMALE","npi":1234539634,"federalTaxIdNumber":null,"role":"PROVIDER","roleType":"PROVIDER","officeFaxNumber":"","licenseNumber":null,"groupNpiNumber":null,"taxonomyNumber":"","workLocations":{},"acceptedInsurances":{},"specialities":{"550e8400-e29b-41d4-a716-446655440003":"Behavioral Health & Psychiatry "},"licenceInformation":[{"uuid":"2399ea33-2b56-4a27-9c1a-aa81d58c0df1","licenseState":"","licenseNumber":"","expiryDate":null,"licenseActiveDate":null,"licenseDocument":null}],"deaInformation":[{"uuid":"7ff3dd76-6a19-447b-a23d-ccf25d9d472f","deaState":"","deaNumber":"","deaTermDate":null,"deaActiveDate":null}],"hospitalAffiliation":"","experience":"","acceptCash":false,"providerEmployment":"","workExperience":"","bio":"","errorMessage":null,"acceptNewPatient":false,"expertise":"","areaFocus":"","referralNumber":null,"secondOpinion":"","spokenLanguages":{},"ageGroupSeen":{},"careService":{},"lastLogin":null,"colorCode":"#4b2240","loginUrl":"https://stage_aithinkitive.uat.provider.ecarehealth.com","emailVerified":false},{"uuid":"0b821530-0fb3-4f72-a195-ba2e80ad7fe0","email":"provider.1753605780450.78.1753605797887@example.com","firstName":"Dr. Jessica","lastName":"Johnson","phone":null,"birthDate":"1985-05-19T18:30:00Z","avatar":null,"active":true,"source":null,"archive":false,"timezone":null,"providerType":"MD","gender":"FEMALE","npi":1234580450,"federalTaxIdNumber":null,"role":"PROVIDER","roleType":"PROVIDER","officeFaxNumber":"","licenseNumber":null,"groupNpiNumber":null,"taxonomyNumber":"","workLocations":{},"acceptedInsurances":{},"specialities":{"550e8400-e29b-41d4-a716-446655440003":"Behavioral Health & Psychiatry "},"licenceInformation":[{"uuid":"cab94895-4a03-48e8-a45f-dad834d2f34c","licenseState":"","licenseNumber":"","expiryDate":null,"licenseActiveDate":null,"licenseDocument":null}],"deaInformation":[{"uuid":"ac135609-da78-4723-ae25-9d6af7640a8b","deaState":"","deaNumber":"","deaTermDate":null,"deaActiveDate":null}],"hospitalAffiliation":"","experience":"","acceptCash":false,"providerEmployment":"","workExperience":"","bio":"","errorMessage":null,"acceptNewPatient":false,"expertise":"","areaFocus":"","referralNumber":null,"secondOpinion":"","spokenLanguages":{},"ageGroupSeen":{},"careService":{},"lastLogin":null,"colorCode":"#8fe3a9","loginUrl":"https://stage_aithinkitive.uat.provider.ecarehealth.com","emailVerified":false},{"uuid":"211595a4-1a21-4806-ada0-c86b506c6bc6","email":"provider.1753605582806.971.1753605593495@example.com","firstName":"Dr. Lisa","lastName":"Moore","phone":null,"birthDate":"1983-05-17T18:30:00Z","avatar":null,"active":true,"source":null,"archive":false,"timezone":null,"providerType":"MD","gender":"FEMALE","npi":1234582806,"federalTaxIdNumber":null,"role":"PROVIDER","roleType":"PROVIDER","officeFaxNumber":"","licenseNumber":null,"groupNpiNumber":null,"taxonomyNumber":"","workLocations":{},"acceptedInsurances":{},"specialities":{"550e8400-e29b-41d4-a716-446655440003":"Behavioral Health & Psychiatry "},"licenceInformation":[{"uuid":"8260f70e-2d12-49a2-941a-dfdf57bf4422","licenseState":"","licenseNumber":"","expiryDate":null,"licenseActiveDate":null,"licenseDocument":null}],"deaInformation":[{"uuid":"aca41f25-1a7f-49ed-be97-6365ce233560","deaState":"","deaNumber":"","deaTermDate":null,"deaActiveDate":null}],"hospitalAffiliation":"","experience":"","acceptCash":false,"providerEmployment":"","workExperience":"","bio":"","errorMessage":null,"acceptNewPatient":false,"expertise":"","areaFocus":"","referralNumber":null,"secondOpinion":"","spokenLanguages":{},"ageGroupSeen":{},"careService":{},"lastLogin":null,"colorCode":"#48e48d","loginUrl":"https://stage_aithinkitive.uat.provider.ecarehealth.com","emailVerified":false},{"uuid":"c700ef40-3ad4-4354-85cc-5a473a8a51a9","email":"auto.elijah.taylor1753602947480@testmail.com","firstName":"Elijah","lastName":"Taylor","phone":null,"birthDate":null,"avatar":null,"active":true,"source":null,"archive":false,"timezone":null,"providerType":null,"gender":"MALE","npi":null,"federalTaxIdNumber":null,"role":"PROVIDER","roleType":"PROVIDER","officeFaxNumber":"","licenseNumber":null,"groupNpiNumber":null,"taxonomyNumber":"","workLocations":{},"acceptedInsurances":{},"specialities":{},"licenceInformation":[{"uuid":"f4c0b8d4-1bee-45f9-ba6f-b9bfd325022f","licenseState":"","licenseNumber":"","expiryDate":null,"licenseActiveDate":null,"licenseDocument":null}],"deaInformation":[{"uuid":"3a2a30e3-ee45-40e3-ac0d-d188f16c2a1d","deaState":"","deaNumber":"","deaTermDate":null,"deaActiveDate":null}],"hospitalAffiliation":"","experience":"","acceptCash":false,"providerEmployment":"","workExperience":"","bio":"","errorMessage":null,"acceptNewPatient":false,"expertise":"","areaFocus":"","referralNumber":null,"secondOpinion":"","spokenLanguages":{},"ageGroupSeen":{},"careService":{},"lastLogin":null,"colorCode":"#dbaef6","loginUrl":"https://stage_aithinkitive.uat.provider.ecarehealth.com","emailVerified":false},{"uuid":"2ec929d4-ce98-4775-9ab3-bd353377957a","email":"auto.noah.smith1753602622953@testmail.com","firstName":"Noah","lastName":"Smith","phone":null,"birthDate":null,"avatar":null,"active":true,"source":null,"archive":false,"timezone":null,"providerType":null,"gender":"MALE","npi":null,"federalTaxIdNumber":null,"role":"PROVIDER","roleType":"PROVIDER","officeFaxNumber":"","licenseNumber":null,"groupNpiNumber":null,"taxonomyNumber":"","workLocations":{},"acceptedInsurances":{},"specialities":{},"licenceInformation":[{"uuid":"21f1ffc1-81d1-4f09-a2ca-b2e203cb5ccc","licenseState":"","licenseNumber":"","expiryDate":null,"licenseActiveDate":null,"licenseDocument":null}],"deaInformation":[{"uuid":"45443726-4bc3-42f9-afa6-2e6d227369ca","deaState":"","deaNumber":"","deaTermDate":null,"deaActiveDate":null}],"hospitalAffiliation":"","experience":"","acceptCash":false,"providerEmployment":"","workExperience":"","bio":"","errorMessage":null,"acceptNewPatient":false,"expertise":"","areaFocus":"","referralNumber":null,"secondOpinion":"","spokenLanguages":{},"ageGroupSeen":{},"careService":{},"lastLogin":null,"colorCode":"#271538","loginUrl":"https://stage_aithinkitive.uat.provider.ecarehealth.com","emailVerified":false}],"page":{"size":20,"number":0,"totalElements":298,"totalPages":15}},"path":"/api/master/provider","requestId":"bde2a1de-839c-40b7-a423-0e17e3001455","version":"1.0"}