{"date":"2025-07-27T11:06:01.350+00:00","code":"ENTITY","message":null,"data":{"content":[{"uuid":"c4b6f4bb-60bc-4787-a15e-9efac468fd06","email":"provider.1753613171663.330.1753613171703@example.com","firstName":"Dr. Nikita","lastName":"Davis","phone":null,"birthDate":"1993-08-13T18:30:00Z","avatar":null,"active":true,"source":null,"archive":false,"timezone":null,"providerType":"MD","gender":"FEMALE","npi":1234571663,"federalTaxIdNumber":null,"role":"PROVIDER","roleType":"PROVIDER","officeFaxNumber":"","licenseNumber":null,"groupNpiNumber":null,"taxonomyNumber":"","workLocations":{},"acceptedInsurances":{},"specialities":{"550e8400-e29b-41d4-a716-446655440003":"Behavioral Health & Psychiatry "},"licenceInformation":[{"uuid":"d66c4927-b79f-44b5-adf4-92c893e6b7d9","licenseState":"","licenseNumber":"","expiryDate":null,"licenseActiveDate":null,"licenseDocument":null}],"deaInformation":[{"uuid":"e7127136-a3ca-4f56-9844-c4810ac81cb4","deaState":"","deaNumber":"","deaTermDate":null,"deaActiveDate":null}],"hospitalAffiliation":"","experience":"","acceptCash":false,"providerEmployment":"","workExperience":"","bio":"","errorMessage":null,"acceptNewPatient":false,"expertise":"","areaFocus":"","referralNumber":null,"secondOpinion":"","spokenLanguages":{},"ageGroupSeen":{},"careService":{},"lastLogin":null,"colorCode":"#7a2970","loginUrl":"https://stage_aithinkitive.uat.provider.ecarehealth.com","emailVerified":false},{"uuid":"6bb6b916-3b12-4219-ae46-98d0dcf71a52","email":"provider.1753613076520.499.1753613076560@example.com","firstName":"Dr. Shekhawat","lastName":"Martin","phone":null,"birthDate":"1966-08-19T18:30:00Z","avatar":null,"active":true,"source":null,"archive":false,"timezone":null,"providerType":"MD","gender":"MALE","npi":1234576520,"federalTaxIdNumber":null,"role":"PROVIDER","roleType":"PROVIDER","officeFaxNumber":"","licenseNumber":null,"groupNpiNumber":null,"taxonomyNumber":"","workLocations":{},"acceptedInsurances":{},"specialities":{"550e8400-e29b-41d4-a716-446655440003":"Behavioral Health & Psychiatry "},"licenceInformation":[{"uuid":"aeba8b5c-2d94-41fc-b89f-ddee696e7ef7","licenseState":"","licenseNumber":"","expiryDate":null,"licenseActiveDate":null,"licenseDocument":null}],"deaInformation":[{"uuid":"4d9ebef8-e36b-4361-9dc3-21f9e2789504","deaState":"","deaNumber":"","deaTermDate":null,"deaActiveDate":null}],"hospitalAffiliation":"","experience":"","acceptCash":false,"providerEmployment":"","workExperience":"","bio":"","errorMessage":null,"acceptNewPatient":false,"expertise":"","areaFocus":"","referralNumber":null,"secondOpinion":"","spokenLanguages":{},"ageGroupSeen":{},"careService":{},"lastLogin":null,"colorCode":"#d0470e","loginUrl":"https://stage_aithinkitive.uat.provider.ecarehealth.com","emailVerified":false},{"uuid":"247f683a-94fb-4ebe-952a-7a5d1f734d93","email":"provider.1753611679992.578.1753611693135@example.com","firstName":"Dr. Shekhawat","lastName":"Jackson","phone":null,"birthDate":"1981-05-15T18:30:00Z","avatar":null,"active":true,"source":null,"archive":false,"timezone":null,"providerType":"MD","gender":"FEMALE","npi":1234579992,"federalTaxIdNumber":null,"role":"PROVIDER","roleType":"PROVIDER","officeFaxNumber":"","licenseNumber":null,"groupNpiNumber":null,"taxonomyNumber":"","workLocations":{},"acceptedInsurances":{},"specialities":{"550e8400-e29b-41d4-a716-446655440003":"Behavioral Health & Psychiatry "},"licenceInformation":[{"uuid":"82df9beb-ac44-4d92-885f-126b850140a6","licenseState":"","licenseNumber":"","expiryDate":null,"licenseActiveDate":null,"licenseDocument":null}],"deaInformation":[{"uuid":"fdd1f920-8940-4810-8531-ae3df14180f4","deaState":"","deaNumber":"","deaTermDate":null,"deaActiveDate":null}],"hospitalAffiliation":"","experience":"","acceptCash":false,"providerEmployment":"","workExperience":"","bio":"","errorMessage":null,"acceptNewPatient":false,"expertise":"","areaFocus":"","referralNumber":null,"secondOpinion":"","spokenLanguages":{},"ageGroupSeen":{},"careService":{},"lastLogin":null,"colorCode":"#2a39c3","loginUrl":"https://stage_aithinkitive.uat.provider.ecarehealth.com","emailVerified":false},{"uuid":"c72743b7-9044-48ee-853d-9e3f7c840443","email":"provider.1753611460046.207.1753611473464@example.com","firstName":"Dr. Hero","lastName":"Martin","phone":null,"birthDate":"1989-05-23T18:30:00Z","avatar":null,"active":true,"source":null,"archive":false,"timezone":null,"providerType":"MD","gender":"FEMALE","npi":1234560046,"federalTaxIdNumber":null,"role":"PROVIDER","roleType":"PROVIDER","officeFaxNumber":"","licenseNumber":null,"groupNpiNumber":null,"taxonomyNumber":"","workLocations":{},"acceptedInsurances":{},"specialities":{"550e8400-e29b-41d4-a716-446655440003":"Behavioral Health & Psychiatry "},"licenceInformation":[{"uuid":"c0bd984c-b337-45d1-9b18-20af3d1f1d18","licenseState":"","licenseNumber":"","expiryDate":null,"licenseActiveDate":null,"licenseDocument":null}],"deaInformation":[{"uuid":"f9a3dee5-3797-4e0b-ac46-d65ac4d391ee","deaState":"","deaNumber":"","deaTermDate":null,"deaActiveDate":null}],"hospitalAffiliation":"","experience":"","acceptCash":false,"providerEmployment":"","workExperience":"","bio":"","errorMessage":null,"acceptNewPatient":false,"expertise":"","areaFocus":"","referralNumber":null,"secondOpinion":"","spokenLanguages":{},"ageGroupSeen":{},"careService":{},"lastLogin":null,"colorCode":"#ce9934","loginUrl":"https://stage_aithinkitive.uat.provider.ecarehealth.com","emailVerified":false},{"uuid":"21ccbd56-c558-4f43-bd93-5726bb5dd712","email":"provider.1753611135517.989.1753611148653@example.com","firstName":"Dr. Sainath","lastName":"Taylor","phone":null,"birthDate":"1988-05-22T18:30:00Z","avatar":null,"active":true,"source":null,"archive":false,"timezone":null,"providerType":"MD","gender":"FEMALE","npi":1234535517,"federalTaxIdNumber":null,"role":"PROVIDER","roleType":"PROVIDER","officeFaxNumber":"","licenseNumber":null,"groupNpiNumber":null,"taxonomyNumber":"","workLocations":{},"acceptedInsurances":{},"specialities":{"550e8400-e29b-41d4-a716-446655440003":"Behavioral Health & Psychiatry "},"licenceInformation":[{"uuid":"4f2be428-a427-410b-b49d-2061d6985399","licenseState":"","licenseNumber":"","expiryDate":null,"licenseActiveDate":null,"licenseDocument":null}],"deaInformation":[{"uuid":"bd30b8f2-199d-40ea-b9b8-5a23778e2758","deaState":"","deaNumber":"","deaTermDate":null,"deaActiveDate":null}],"hospitalAffiliation":"","experience":"","acceptCash":false,"providerEmployment":"","workExperience":"","bio":"","errorMessage":null,"acceptNewPatient":false,"expertise":"","areaFocus":"","referralNumber":null,"secondOpinion":"","spokenLanguages":{},"ageGroupSeen":{},"careService":{},"lastLogin":null,"colorCode":"#9b0e8f","loginUrl":"https://stage_aithinkitive.uat.provider.ecarehealth.com","emailVerified":false},{"uuid":"b7993413-02c3-4d59-a6c0-414b190c906c","email":"provider.1753610239256.43.1753610251242@example.com","firstName":"Dr. Sarah","lastName":"Clark","phone":null,"birthDate":"1982-05-16T18:30:00Z","avatar":null,"active":true,"source":null,"archive":false,"timezone":null,"providerType":"MD","gender":"FEMALE","npi":1234539256,"federalTaxIdNumber":null,"role":"PROVIDER","roleType":"PROVIDER","officeFaxNumber":"","licenseNumber":null,"groupNpiNumber":null,"taxonomyNumber":"","workLocations":{},"acceptedInsurances":{},"specialities":{"550e8400-e29b-41d4-a716-446655440003":"Behavioral Health & Psychiatry "},"licenceInformation":[{"uuid":"700d1756-b501-431d-91c2-e7dd7a7a8098","licenseState":"","licenseNumber":"","expiryDate":null,"licenseActiveDate":null,"licenseDocument":null}],"deaInformation":[{"uuid":"3093ec24-92c3-4b84-81a9-a8ff345ef8b4","deaState":"","deaNumber":"","deaTermDate":null,"deaActiveDate":null}],"hospitalAffiliation":"","experience":"","acceptCash":false,"providerEmployment":"","workExperience":"","bio":"","errorMessage":null,"acceptNewPatient":false,"expertise":"","areaFocus":"","referralNumber":null,"secondOpinion":"","spokenLanguages":{},"ageGroupSeen":{},"careService":{},"lastLogin":null,"colorCode":"#52c935","loginUrl":"https://stage_aithinkitive.uat.provider.ecarehealth.com","emailVerified":false},{"uuid":"94e23c9c-43e3-4c07-a787-8c452afce7b8","email":"provider.1753609971309.347.1753609985041@example.com","firstName":"Dr. Lisa","lastName":"Harris","phone":null,"birthDate":"1981-05-15T18:30:00Z","avatar":null,"active":true,"source":null,"archive":false,"timezone":null,"providerType":"MD","gender":"FEMALE","npi":1234571309,"federalTaxIdNumber":null,"role":"PROVIDER","roleType":"PROVIDER","officeFaxNumber":"","licenseNumber":null,"groupNpiNumber":null,"taxonomyNumber":"","workLocations":{},"acceptedInsurances":{},"specialities":{"550e8400-e29b-41d4-a716-446655440003":"Behavioral Health & Psychiatry "},"licenceInformation":[{"uuid":"77d75c53-5819-4e50-8b4d-c9b74dc08cca","licenseState":"","licenseNumber":"","expiryDate":null,"licenseActiveDate":null,"licenseDocument":null}],"deaInformation":[{"uuid":"ac26cb0c-ac08-43bd-92df-5ab5e365c830","deaState":"","deaNumber":"","deaTermDate":null,"deaActiveDate":null}],"hospitalAffiliation":"","experience":"","acceptCash":false,"providerEmployment":"","workExperience":"","bio":"","errorMessage":null,"acceptNewPatient":false,"expertise":"","areaFocus":"","referralNumber":null,"secondOpinion":"","spokenLanguages":{},"ageGroupSeen":{},"careService":{},"lastLogin":null,"colorCode":"#ac809b","loginUrl":"https://stage_aithinkitive.uat.provider.ecarehealth.com","emailVerified":false},{"uuid":"69eee2f3-1595-4f73-9e0d-80875a733325","email":"provider.1753609743187.207.1753609761046@example.com","firstName":"Dr. Sarah","lastName":"Thompson","phone":null,"birthDate":"1983-05-17T18:30:00Z","avatar":null,"active":true,"source":null,"archive":false,"timezone":null,"providerType":"MD","gender":"FEMALE","npi":1234543187,"federalTaxIdNumber":null,"role":"PROVIDER","roleType":"PROVIDER","officeFaxNumber":"","licenseNumber":null,"groupNpiNumber":null,"taxonomyNumber":"","workLocations":{},"acceptedInsurances":{},"specialities":{"550e8400-e29b-41d4-a716-446655440003":"Behavioral Health & Psychiatry "},"licenceInformation":[{"uuid":"84868637-e2f1-4084-b130-bc62887a3592","licenseState":"","licenseNumber":"","expiryDate":null,"licenseActiveDate":null,"licenseDocument":null}],"deaInformation":[{"uuid":"11a2dcb7-9781-4bb6-a109-4130ddea005c","deaState":"","deaNumber":"","deaTermDate":null,"deaActiveDate":null}],"hospitalAffiliation":"","experience":"","acceptCash":false,"providerEmployment":"","workExperience":"","bio":"","errorMessage":null,"acceptNewPatient":false,"expertise":"","areaFocus":"","referralNumber":null,"secondOpinion":"","spokenLanguages":{},"ageGroupSeen":{},"careService":{},"lastLogin":null,"colorCode":"#6ea646","loginUrl":"https://stage_aithinkitive.uat.provider.ecarehealth.com","emailVerified":false}],"page":{"size":8,"number":0,"totalElements":301,"totalPages":38}},"path":"/api/master/provider","requestId":"c9968543-585e-4e9a-b112-7d097c99a483","version":"1.0"}