{"date":"2025-08-18T06:31:05.754+00:00","code":"ENTITY","message":null,"data":{"content":[{"uuid":"f11b1dbc-df63-4d41-b262-203ef4a53f4a","email":"test.provider.1755478649341@medarch.com","firstName":"Lisa","lastName":"Williams","phone":null,"birthDate":null,"avatar":null,"active":true,"source":null,"archive":false,"timezone":null,"providerType":null,"gender":"FEMALE","npi":null,"federalTaxIdNumber":null,"role":"PROVIDER","roleType":"PROVIDER","officeFaxNumber":"","licenseNumber":null,"groupNpiNumber":null,"taxonomyNumber":"","workLocations":{},"acceptedInsurances":{},"specialities":{},"licenceInformation":[{"uuid":"fc820d63-ec3a-4ae8-a931-71baa7954317","licenseState":"","licenseNumber":"","expiryDate":null,"licenseActiveDate":null,"licenseDocument":null,"licenseName":null}],"deaInformation":[{"uuid":"2aad3414-a6e2-4aae-9978-a4650a2551b8","deaState":"","deaNumber":"","deaTermDate":null,"deaActiveDate":null}],"experience":"","bio":"","errorMessage":null,"acceptNewPatient":false,"referralNumber":null,"spokenLanguages":{},"lastLogin":null,"colorCode":"#c05230","loginUrl":"https://stage_aithinkitive.uat.provider.ecarehealth.com","isReferral":null,"address":null,"practiceName":null,"temporaryEmail":null,"emailVerified":false},{"uuid":"a61279d3-3fb8-41b2-ab44-21d8505946a2","email":"rebecca.greenn@mailinator.com","firstName":"Rebecca","lastName":"Greenn","phone":"9876543211","birthDate":null,"avatar":null,"active":true,"source":null,"archive":false,"timezone":null,"providerType":null,"gender":"FEMALE","npi":null,"federalTaxIdNumber":null,"role":"PROVIDER","roleType":"PROVIDER","officeFaxNumber":"","licenseNumber":null,"groupNpiNumber":null,"taxonomyNumber":"","workLocations":{},"acceptedInsurances":{},"specialities":{},"licenceInformation":[{"uuid":"8960c86a-8967-4008-8bac-1a39a845edbb","licenseState":"","licenseNumber":"","expiryDate":null,"licenseActiveDate":null,"licenseDocument":null,"licenseName":null}],"deaInformation":[{"uuid":"5480389d-15af-4204-b406-a2e54231578f","deaState":"","deaNumber":"","deaTermDate":null,"deaActiveDate":null}],"experience":"","bio":"","errorMessage":null,"acceptNewPatient":false,"referralNumber":null,"spokenLanguages":{},"lastLogin":null,"colorCode":"#ecc3ef","loginUrl":"https://stage_aithinkitive.uat.provider.ecarehealth.com","isReferral":null,"address":null,"practiceName":null,"temporaryEmail":null,"emailVerified":false},{"uuid":"cbf05075-e36c-49a1-a72b-25b6cddc5534","email":"test.provider.1755412602146@medarch.com","firstName":"Sarah","lastName":"Johnson","phone":null,"birthDate":null,"avatar":null,"active":true,"source":null,"archive":false,"timezone":null,"providerType":null,"gender":"FEMALE","npi":null,"federalTaxIdNumber":null,"role":"PROVIDER","roleType":"PROVIDER","officeFaxNumber":"","licenseNumber":null,"groupNpiNumber":null,"taxonomyNumber":"","workLocations":{},"acceptedInsurances":{},"specialities":{},"licenceInformation":[{"uuid":"9ddcd003-71ba-447e-bd74-e68446c83f67","licenseState":"","licenseNumber":"","expiryDate":null,"licenseActiveDate":null,"licenseDocument":null,"licenseName":null}],"deaInformation":[{"uuid":"865dab0f-210a-43c0-bde9-58a41ffbe66c","deaState":"","deaNumber":"","deaTermDate":null,"deaActiveDate":null}],"experience":"","bio":"","errorMessage":null,"acceptNewPatient":false,"referralNumber":null,"spokenLanguages":{},"lastLogin":null,"colorCode":"#50ea3a","loginUrl":"https://stage_aithinkitive.uat.provider.ecarehealth.com","isReferral":null,"address":null,"practiceName":null,"temporaryEmail":null,"emailVerified":false},{"uuid":"dce529d7-82fb-4282-989a-e75e274fd6bf","email":"test.provider.1755392279763@medarch.com","firstName":"Michael","lastName":"Jones","phone":null,"birthDate":null,"avatar":null,"active":true,"source":null,"archive":false,"timezone":null,"providerType":null,"gender":"MALE","npi":null,"federalTaxIdNumber":null,"role":"PROVIDER","roleType":"PROVIDER","officeFaxNumber":"","licenseNumber":null,"groupNpiNumber":null,"taxonomyNumber":"","workLocations":{},"acceptedInsurances":{},"specialities":{},"licenceInformation":[{"uuid":"ff9eac07-76e1-47af-8fc6-26939f03b974","licenseState":"","licenseNumber":"","expiryDate":null,"licenseActiveDate":null,"licenseDocument":null,"licenseName":null}],"deaInformation":[{"uuid":"09ccff5c-9eb1-4738-89c4-28b316f59f8f","deaState":"","deaNumber":"","deaTermDate":null,"deaActiveDate":null}],"experience":"","bio":"","errorMessage":null,"acceptNewPatient":false,"referralNumber":null,"spokenLanguages":{},"lastLogin":null,"colorCode":"#6b0084","loginUrl":"https://stage_aithinkitive.uat.provider.ecarehealth.com","isReferral":null,"address":null,"practiceName":null,"temporaryEmail":null,"emailVerified":false},{"uuid":"71aa89ce-4ca2-4830-aebf-89fc23fef1f7","email":"test.provider.1755326160840@medarch.com","firstName":"David","lastName":"Jones","phone":null,"birthDate":null,"avatar":null,"active":true,"source":null,"archive":false,"timezone":null,"providerType":null,"gender":"FEMALE","npi":null,"federalTaxIdNumber":null,"role":"PROVIDER","roleType":"PROVIDER","officeFaxNumber":"","licenseNumber":null,"groupNpiNumber":null,"taxonomyNumber":"","workLocations":{},"acceptedInsurances":{},"specialities":{},"licenceInformation":[{"uuid":"85b822c3-d94b-4501-980a-4c5409507415","licenseState":"","licenseNumber":"","expiryDate":null,"licenseActiveDate":null,"licenseDocument":null,"licenseName":null}],"deaInformation":[{"uuid":"dfc85220-df67-4937-8442-6fab6a24d454","deaState":"","deaNumber":"","deaTermDate":null,"deaActiveDate":null}],"experience":"","bio":"","errorMessage":null,"acceptNewPatient":false,"referralNumber":null,"spokenLanguages":{},"lastLogin":null,"colorCode":"#93ba1d","loginUrl":"https://stage_aithinkitive.uat.provider.ecarehealth.com","isReferral":null,"address":null,"practiceName":null,"temporaryEmail":null,"emailVerified":false},{"uuid":"267e54a0-d322-414f-811f-9dc7c701e7d0","email":"test.provider.1755305487347@medarch.com","firstName":"David","lastName":"Williams","phone":null,"birthDate":null,"avatar":null,"active":true,"source":null,"archive":false,"timezone":null,"providerType":null,"gender":"FEMALE","npi":null,"federalTaxIdNumber":null,"role":"PROVIDER","roleType":"PROVIDER","officeFaxNumber":"","licenseNumber":null,"groupNpiNumber":null,"taxonomyNumber":"","workLocations":{},"acceptedInsurances":{},"specialities":{},"licenceInformation":[{"uuid":"56cf7b9a-bf59-4975-9ebf-efb72165d497","licenseState":"","licenseNumber":"","expiryDate":null,"licenseActiveDate":null,"licenseDocument":null,"licenseName":null}],"deaInformation":[{"uuid":"41190477-e4a7-48eb-b6bf-692fbe09510e","deaState":"","deaNumber":"","deaTermDate":null,"deaActiveDate":null}],"experience":"","bio":"","errorMessage":null,"acceptNewPatient":false,"referralNumber":null,"spokenLanguages":{},"lastLogin":null,"colorCode":"#ca6a39","loginUrl":"https://stage_aithinkitive.uat.provider.ecarehealth.com","isReferral":null,"address":null,"practiceName":null,"temporaryEmail":null,"emailVerified":false},{"uuid":"81ad7b53-b949-48a3-90ef-c046b1e002d9","email":"test.provider.1755239879502@medarch.com","firstName":"Lisa","lastName":"Johnson","phone":null,"birthDate":null,"avatar":null,"active":true,"source":null,"archive":false,"timezone":null,"providerType":null,"gender":"FEMALE","npi":null,"federalTaxIdNumber":null,"role":"PROVIDER","roleType":"PROVIDER","officeFaxNumber":"","licenseNumber":null,"groupNpiNumber":null,"taxonomyNumber":"","workLocations":{},"acceptedInsurances":{},"specialities":{},"licenceInformation":[{"uuid":"dd4f7e13-1694-4fb4-96f0-635d452dbb3c","licenseState":"","licenseNumber":"","expiryDate":null,"licenseActiveDate":null,"licenseDocument":null,"licenseName":null}],"deaInformation":[{"uuid":"77ff0e28-fb54-40b7-8e86-7e5d34eaa774","deaState":"","deaNumber":"","deaTermDate":null,"deaActiveDate":null}],"experience":"","bio":"","errorMessage":null,"acceptNewPatient":false,"referralNumber":null,"spokenLanguages":{},"lastLogin":null,"colorCode":"#145381","loginUrl":"https://stage_aithinkitive.uat.provider.ecarehealth.com","isReferral":null,"address":null,"practiceName":null,"temporaryEmail":null,"emailVerified":false},{"uuid":"49b1ff5b-3cc6-4709-b840-abb2269dac71","email":"test.provider.1755219268641@medarch.com","firstName":"Robert","lastName":"Johnson","phone":null,"birthDate":null,"avatar":null,"active":true,"source":null,"archive":false,"timezone":null,"providerType":null,"gender":"FEMALE","npi":null,"federalTaxIdNumber":null,"role":"PROVIDER","roleType":"PROVIDER","officeFaxNumber":"","licenseNumber":null,"groupNpiNumber":null,"taxonomyNumber":"","workLocations":{},"acceptedInsurances":{},"specialities":{},"licenceInformation":[{"uuid":"9299bbcd-2a54-4185-ba4c-09acec7d328e","licenseState":"","licenseNumber":"","expiryDate":null,"licenseActiveDate":null,"licenseDocument":null,"licenseName":null}],"deaInformation":[{"uuid":"2283f769-27db-4ca6-b537-7dde01e83e30","deaState":"","deaNumber":"","deaTermDate":null,"deaActiveDate":null}],"experience":"","bio":"","errorMessage":null,"acceptNewPatient":false,"referralNumber":null,"spokenLanguages":{},"lastLogin":null,"colorCode":"#ce74e4","loginUrl":"https://stage_aithinkitive.uat.provider.ecarehealth.com","isReferral":null,"address":null,"practiceName":null,"temporaryEmail":null,"emailVerified":false},{"uuid":"6a5846be-f6a3-4867-801e-ef84c6e1c055","email":"Norwood_Kutch44@gmail.com","firstName":"Norwood","lastName":"Kutch","phone":"(121) 129-4983","birthDate":"1989-12-31T18:30:00Z","avatar":null,"active":true,"source":null,"archive":false,"timezone":null,"providerType":null,"gender":"FEMALE","npi":null,"federalTaxIdNumber":null,"role":"PROVIDER","roleType":"PROVIDER","officeFaxNumber":"","licenseNumber":null,"groupNpiNumber":null,"taxonomyNumber":"","workLocations":{},"acceptedInsurances":{},"specialities":{},"licenceInformation":[{"uuid":"e395b221-6637-4460-8605-99951b5c5f38","licenseState":"","licenseNumber":"","expiryDate":null,"licenseActiveDate":null,"licenseDocument":null,"licenseName":""}],"deaInformation":[{"uuid":"42fc4698-e77e-4579-91da-dc17bbcc60bb","deaState":"","deaNumber":"","deaTermDate":null,"deaActiveDate":null}],"experience":"","bio":"","errorMessage":null,"acceptNewPatient":false,"referralNumber":null,"spokenLanguages":{},"lastLogin":null,"colorCode":"#74617f","loginUrl":"https://stage_aithinkitive.uat.provider.ecarehealth.com","isReferral":null,"address":null,"practiceName":null,"temporaryEmail":null,"emailVerified":false},{"uuid":"4891ec28-c7d3-43b0-88a9-3d5e5c7d689f","email":"Elyssa.Blick@hotmail.com","firstName":"Elyssa","lastName":"Blick","phone":"(180) 562-0595","birthDate":"1989-12-31T18:30:00Z","avatar":null,"active":true,"source":null,"archive":false,"timezone":null,"providerType":null,"gender":"FEMALE","npi":null,"federalTaxIdNumber":null,"role":"PROVIDER","roleType":"PROVIDER","officeFaxNumber":"","licenseNumber":null,"groupNpiNumber":null,"taxonomyNumber":"","workLocations":{},"acceptedInsurances":{},"specialities":{},"licenceInformation":[{"uuid":"80355bc2-6033-43fc-aa53-4a07bd5a6f80","licenseState":"","licenseNumber":"","expiryDate":null,"licenseActiveDate":null,"licenseDocument":null,"licenseName":""}],"deaInformation":[{"uuid":"d8880cc3-c6a0-470c-a294-62660ebc4af0","deaState":"","deaNumber":"","deaTermDate":null,"deaActiveDate":null}],"experience":"","bio":"","errorMessage":null,"acceptNewPatient":false,"referralNumber":null,"spokenLanguages":{},"lastLogin":null,"colorCode":"#332232","loginUrl":"https://stage_aithinkitive.uat.provider.ecarehealth.com","isReferral":null,"address":null,"practiceName":null,"temporaryEmail":null,"emailVerified":false}],"page":{"size":10,"number":0,"totalElements":2569,"totalPages":257}},"path":"/api/master/provider","requestId":"c805f3bd-ca6e-4fc2-8e06-caaad8a8ffd4","version":"1.0"}