{"date":"2025-08-18T06:31:24.093+00:00","code":"ENTITY","message":null,"data":{"content":[{"uuid":"90723fde-2cb8-4eb0-b8e4-1880b5e13f0b","firstName":"Humberto","lastName":"Weimann","email":"Alvis_Spinka@hotmail.com","gender":"MALE","mobileNumber":"(874) 828-6888","avatar":null,"timezone":"IST","race":null,"middleName":"","ethnicity":null,"ssn":"","mrn":"","emailConsent":true,"messageConsent":true,"callConsent":true,"registrationDate":null,"birthDate":"2008-02-23T18:30:00Z","emergencyContacts":[{"uuid":"49462b04-8f93-47f8-a968-c1fb214d7dfe","firstName":"","lastName":"","email":null,"mobile":"","relationshipWithPatient":null}],"pharmacyStores":[],"labs":[],"radiologies":[],"patientInsurances":[],"providerId":null,"locationId":{},"address":{"line1":"","line2":"","city":"","state":"","country":"","zipcode":""},"maritalStatus":"MARRIED","faxNumber":"","source":null,"homePhone":"","errorMessage":null,"lastAppointment":null,"nextAppointment":"2025-08-19T03:30:00Z","active":true,"archive":false,"languages":{},"lastLogin":null,"customerId":null,"pharmacyLabRadiology":null,"providerNPInumber":null,"providerContactNo":null,"providerEmail":null,"pharmacyLabRadiologyMap":[],"category":null,"val":null,"phoneNotAvailable":false,"emailNotAvailable":false,"patientConsentEntities":null,"defaultCommunicationChannel":"EMAIL","isReferral":null,"emailVerified":false},{"uuid":"0c9a8557-9a4a-45ed-a785-6cf918f30ba5","firstName":"Jordan","lastName":"Anderson","email":null,"gender":"MALE","mobileNumber":"","avatar":null,"timezone":"IST","race":null,"middleName":"","ethnicity":null,"ssn":"","mrn":"","emailConsent":false,"messageConsent":false,"callConsent":false,"registrationDate":null,"birthDate":"1996-11-19T17:24:21.736Z","emergencyContacts":[{"uuid":"5bcf6f21-fd9e-4e5e-99d0-8688376f95ef","firstName":"","lastName":"","email":null,"mobile":"","relationshipWithPatient":null}],"pharmacyStores":[],"labs":[],"radiologies":[],"patientInsurances":[],"providerId":null,"locationId":{},"address":{"line1":"","line2":"","city":"","state":"","country":"","zipcode":""},"maritalStatus":null,"faxNumber":"","source":null,"homePhone":"","errorMessage":null,"lastAppointment":null,"nextAppointment":"2025-08-19T15:00:00Z","active":true,"archive":false,"languages":{},"lastLogin":null,"customerId":null,"pharmacyLabRadiology":null,"providerNPInumber":null,"providerContactNo":null,"providerEmail":null,"pharmacyLabRadiologyMap":[],"category":null,"val":null,"phoneNotAvailable":true,"emailNotAvailable":true,"patientConsentEntities":null,"defaultCommunicationChannel":null,"isReferral":null,"emailVerified":false},{"uuid":"d153002a-5a1b-43b1-b935-537b7b2a11fe","firstName":"lucy","lastName":"rey","email":null,"gender":"MALE","mobileNumber":"","avatar":null,"timezone":"IST","race":null,"middleName":"","ethnicity":null,"ssn":"","mrn":"","emailConsent":false,"messageConsent":false,"callConsent":false,"registrationDate":null,"birthDate":"1994-08-16T18:30:00Z","emergencyContacts":[{"uuid":"1f133546-74b1-4513-87dd-759a5bf0a884","firstName":"","lastName":"","email":null,"mobile":"","relationshipWithPatient":null}],"pharmacyStores":[],"labs":[],"radiologies":[],"patientInsurances":[],"providerId":null,"locationId":{},"address":{"line1":"","line2":"","city":"","state":"","country":"","zipcode":""},"maritalStatus":null,"faxNumber":"","source":null,"homePhone":"","errorMessage":null,"lastAppointment":"2025-08-10T17:30:00Z","nextAppointment":null,"active":true,"archive":false,"languages":{},"lastLogin":null,"customerId":null,"pharmacyLabRadiology":null,"providerNPInumber":null,"providerContactNo":null,"providerEmail":null,"pharmacyLabRadiologyMap":[],"category":null,"val":null,"phoneNotAvailable":true,"emailNotAvailable":true,"patientConsentEntities":null,"defaultCommunicationChannel":null,"isReferral":null,"emailVerified":false},{"uuid":"75198591-1ec6-4768-84e5-8523faef6711","firstName":"Casey","lastName":"Clark","email":null,"gender":"MALE","mobileNumber":"","avatar":null,"timezone":"IST","race":null,"middleName":"","ethnicity":null,"ssn":"","mrn":"","emailConsent":false,"messageConsent":false,"callConsent":false,"registrationDate":null,"birthDate":"1987-06-15T15:24:14.554Z","emergencyContacts":[{"uuid":"286fe22d-b515-4225-8a14-7f6457aadc4f","firstName":"","lastName":"","email":null,"mobile":"","relationshipWithPatient":null}],"pharmacyStores":[],"labs":[],"radiologies":[],"patientInsurances":[],"providerId":null,"locationId":{},"address":{"line1":"","line2":"","city":"","state":"","country":"","zipcode":""},"maritalStatus":null,"faxNumber":"","source":null,"homePhone":"","errorMessage":null,"lastAppointment":null,"nextAppointment":"2025-08-18T17:00:00Z","active":true,"archive":false,"languages":{},"lastLogin":null,"customerId":null,"pharmacyLabRadiology":null,"providerNPInumber":null,"providerContactNo":null,"providerEmail":null,"pharmacyLabRadiologyMap":[],"category":null,"val":null,"phoneNotAvailable":true,"emailNotAvailable":true,"patientConsentEntities":null,"defaultCommunicationChannel":null,"isReferral":null,"emailVerified":false},{"uuid":"70789291-d97b-48e6-b57f-2f474f42da27","firstName":"Jordan","lastName":"Martinez","email":null,"gender":"FEMALE","mobileNumber":"","avatar":null,"timezone":"IST","race":null,"middleName":"","ethnicity":null,"ssn":"","mrn":"","emailConsent":false,"messageConsent":false,"callConsent":false,"registrationDate":null,"birthDate":"1990-06-30T01:52:47.994Z","emergencyContacts":[{"uuid":"f951d5ab-eb1d-48f5-8ea1-160c01147da1","firstName":"","lastName":"","email":null,"mobile":"","relationshipWithPatient":null}],"pharmacyStores":[],"labs":[],"radiologies":[],"patientInsurances":[],"providerId":null,"locationId":{},"address":{"line1":"","line2":"","city":"","state":"","country":"","zipcode":""},"maritalStatus":null,"faxNumber":"","source":null,"homePhone":"","errorMessage":null,"lastAppointment":null,"nextAppointment":"2025-08-18T15:00:00Z","active":true,"archive":false,"languages":{},"lastLogin":null,"customerId":null,"pharmacyLabRadiology":null,"providerNPInumber":null,"providerContactNo":null,"providerEmail":null,"pharmacyLabRadiologyMap":[],"category":null,"val":null,"phoneNotAvailable":true,"emailNotAvailable":true,"patientConsentEntities":null,"defaultCommunicationChannel":null,"isReferral":null,"emailVerified":false},{"uuid":"c51650dc-f1c6-4f60-91f6-ff19aaca4f75","firstName":"Jacky","lastName":"Welch","email":"Dawn60@yahoo.com","gender":"FEMALE","mobileNumber":"(178) 193-6500","avatar":null,"timezone":"IST","race":null,"middleName":"","ethnicity":null,"ssn":"","mrn":"","emailConsent":true,"messageConsent":true,"callConsent":true,"registrationDate":null,"birthDate":"2021-09-03T18:30:00Z","emergencyContacts":[{"uuid":"5fc20656-1afb-4a6a-a341-de00eb282363","firstName":"","lastName":"","email":null,"mobile":"","relationshipWithPatient":null}],"pharmacyStores":[],"labs":[],"radiologies":[],"patientInsurances":[],"providerId":null,"locationId":{},"address":{"line1":"","line2":"","city":"","state":"","country":"","zipcode":""},"maritalStatus":"DIVORCED","faxNumber":"","source":null,"homePhone":"","errorMessage":null,"lastAppointment":"2025-08-18T04:00:00Z","nextAppointment":null,"active":true,"archive":false,"languages":{},"lastLogin":null,"customerId":null,"pharmacyLabRadiology":null,"providerNPInumber":null,"providerContactNo":null,"providerEmail":null,"pharmacyLabRadiologyMap":[],"category":null,"val":null,"phoneNotAvailable":false,"emailNotAvailable":false,"patientConsentEntities":null,"defaultCommunicationChannel":"EMAIL","isReferral":null,"emailVerified":false},{"uuid":"48576745-8fd9-4e73-99b0-82c4e7d6323d","firstName":"Domenic","lastName":"Mayer","email":"Dawn.Auer@hotmail.com","gender":"FEMALE","mobileNumber":"(793) 421-7123","avatar":null,"timezone":"IST","race":null,"middleName":"","ethnicity":null,"ssn":"","mrn":"","emailConsent":true,"messageConsent":true,"callConsent":true,"registrationDate":null,"birthDate":"2005-12-26T18:30:00Z","emergencyContacts":[{"uuid":"288f715e-0dc0-4fd7-877e-af205e867900","firstName":"","lastName":"","email":null,"mobile":"","relationshipWithPatient":null}],"pharmacyStores":[],"labs":[],"radiologies":[],"patientInsurances":[],"providerId":null,"locationId":{},"address":{"line1":"","line2":"","city":"","state":"","country":"","zipcode":""},"maritalStatus":"DIVORCED","faxNumber":"","source":null,"homePhone":"","errorMessage":null,"lastAppointment":"2025-08-18T04:00:00Z","nextAppointment":null,"active":true,"archive":false,"languages":{},"lastLogin":null,"customerId":null,"pharmacyLabRadiology":null,"providerNPInumber":null,"providerContactNo":null,"providerEmail":null,"pharmacyLabRadiologyMap":[],"category":null,"val":null,"phoneNotAvailable":false,"emailNotAvailable":false,"patientConsentEntities":null,"defaultCommunicationChannel":"EMAIL","isReferral":null,"emailVerified":false},{"uuid":"c4c41d0a-19f0-469e-8b1f-b6696ac6b9ab","firstName":"Pansy","lastName":"Roob","email":"Aliyah37@hotmail.com","gender":"FEMALE","mobileNumber":"(397) 381-7475","avatar":null,"timezone":"IST","race":null,"middleName":"","ethnicity":null,"ssn":"","mrn":"","emailConsent":true,"messageConsent":true,"callConsent":true,"registrationDate":null,"birthDate":"2008-05-15T18:30:00Z","emergencyContacts":[{"uuid":"dd6eca10-bc86-476f-98cb-4fb87ce3dfb8","firstName":"","lastName":"","email":null,"mobile":"","relationshipWithPatient":null}],"pharmacyStores":[],"labs":[],"radiologies":[],"patientInsurances":[],"providerId":null,"locationId":{},"address":{"line1":"","line2":"","city":"","state":"","country":"","zipcode":""},"maritalStatus":"SINGLE","faxNumber":"","source":null,"homePhone":"","errorMessage":null,"lastAppointment":"2025-08-18T03:30:00Z","nextAppointment":null,"active":true,"archive":false,"languages":{},"lastLogin":null,"customerId":null,"pharmacyLabRadiology":null,"providerNPInumber":null,"providerContactNo":null,"providerEmail":null,"pharmacyLabRadiologyMap":[],"category":null,"val":null,"phoneNotAvailable":false,"emailNotAvailable":false,"patientConsentEntities":null,"defaultCommunicationChannel":"EMAIL","isReferral":null,"emailVerified":false},{"uuid":"2964e107-d20e-4419-8978-1d0a8ae0ab0a","firstName":"Dina","lastName":"Boyer","email":"Callie.Blick68@yahoo.com","gender":"MALE","mobileNumber":"(300) 787-3936","avatar":null,"timezone":"IST","race":null,"middleName":"","ethnicity":null,"ssn":"","mrn":"","emailConsent":true,"messageConsent":true,"callConsent":true,"registrationDate":null,"birthDate":"2013-04-17T18:30:00Z","emergencyContacts":[{"uuid":"fc2f9fe8-d555-4b24-94f0-7f77c24c278e","firstName":"","lastName":"","email":null,"mobile":"","relationshipWithPatient":null}],"pharmacyStores":[],"labs":[],"radiologies":[],"patientInsurances":[],"providerId":null,"locationId":{},"address":{"line1":"","line2":"","city":"","state":"","country":"","zipcode":""},"maritalStatus":"WIDOWED","faxNumber":"","source":null,"homePhone":"","errorMessage":null,"lastAppointment":"2025-08-18T03:30:00Z","nextAppointment":null,"active":true,"archive":false,"languages":{},"lastLogin":null,"customerId":null,"pharmacyLabRadiology":null,"providerNPInumber":null,"providerContactNo":null,"providerEmail":null,"pharmacyLabRadiologyMap":[],"category":null,"val":null,"phoneNotAvailable":false,"emailNotAvailable":false,"patientConsentEntities":null,"defaultCommunicationChannel":"EMAIL","isReferral":null,"emailVerified":false},{"uuid":"ebd8665b-970f-42d7-9b4a-7aaf3f20fab0","firstName":"Rahul","lastName":"Jaykar","email":"rahuljaykar@gmail.com","gender":"MALE","mobileNumber":"(987) 654-3267","avatar":null,"timezone":"IST","race":null,"middleName":"","ethnicity":null,"ssn":"","mrn":"","emailConsent":true,"messageConsent":true,"callConsent":true,"registrationDate":null,"birthDate":"2002-04-08T18:23:00Z","emergencyContacts":[{"uuid":"cf5d3f55-7ce1-4d86-b1e0-115edbeeff20","firstName":"","lastName":"","email":null,"mobile":"","relationshipWithPatient":null}],"pharmacyStores":[],"labs":[],"radiologies":[],"patientInsurances":[],"providerId":null,"locationId":{},"address":{"line1":"","line2":"","city":"","state":"","country":"","zipcode":""},"maritalStatus":"SINGLE","faxNumber":"","source":null,"homePhone":"","errorMessage":null,"lastAppointment":"2025-08-18T06:00:00Z","nextAppointment":null,"active":true,"archive":false,"languages":{},"lastLogin":null,"customerId":null,"pharmacyLabRadiology":null,"providerNPInumber":null,"providerContactNo":null,"providerEmail":null,"pharmacyLabRadiologyMap":[],"category":null,"val":null,"phoneNotAvailable":false,"emailNotAvailable":false,"patientConsentEntities":null,"defaultCommunicationChannel":"EMAIL","isReferral":null,"emailVerified":false},{"uuid":"6844507a-37e8-44f4-a246-09e80a6418be","firstName":"Sam","lastName":"Martinez","email":null,"gender":"FEMALE","mobileNumber":"","avatar":null,"timezone":"IST","race":null,"middleName":"","ethnicity":null,"ssn":"","mrn":"","emailConsent":false,"messageConsent":false,"callConsent":false,"registrationDate":null,"birthDate":"1977-07-18T19:11:18.457Z","emergencyContacts":[{"uuid":"fba13fa7-df31-440e-aec5-ac5ee49d1241","firstName":"","lastName":"","email":null,"mobile":"","relationshipWithPatient":null}],"pharmacyStores":[],"labs":[],"radiologies":[],"patientInsurances":[],"providerId":null,"locationId":{},"address":{"line1":"","line2":"","city":"","state":"","country":"","zipcode":""},"maritalStatus":null,"faxNumber":"","source":null,"homePhone":"","errorMessage":null,"lastAppointment":null,"nextAppointment":"2025-08-18T17:00:00Z","active":true,"archive":false,"languages":{},"lastLogin":null,"customerId":null,"pharmacyLabRadiology":null,"providerNPInumber":null,"providerContactNo":null,"providerEmail":null,"pharmacyLabRadiologyMap":[],"category":null,"val":null,"phoneNotAvailable":true,"emailNotAvailable":true,"patientConsentEntities":null,"defaultCommunicationChannel":null,"isReferral":null,"emailVerified":false},{"uuid":"ff020683-4a83-4bce-9d38-4370697e51b6","firstName":"Sam","lastName":"Walker","email":null,"gender":"MALE","mobileNumber":"","avatar":null,"timezone":"IST","race":null,"middleName":"","ethnicity":null,"ssn":"","mrn":"","emailConsent":false,"messageConsent":false,"callConsent":false,"registrationDate":null,"birthDate":"1953-03-31T02:33:25.560Z","emergencyContacts":[{"uuid":"346e1d22-6e4e-48a8-b836-bfc58820d8bb","firstName":"","lastName":"","email":null,"mobile":"","relationshipWithPatient":null}],"pharmacyStores":[],"labs":[],"radiologies":[],"patientInsurances":[],"providerId":null,"locationId":{},"address":{"line1":"","line2":"","city":"","state":"","country":"","zipcode":""},"maritalStatus":null,"faxNumber":"","source":null,"homePhone":"","errorMessage":null,"lastAppointment":null,"nextAppointment":"2025-08-18T15:00:00Z","active":true,"archive":false,"languages":{},"lastLogin":null,"customerId":null,"pharmacyLabRadiology":null,"providerNPInumber":null,"providerContactNo":null,"providerEmail":null,"pharmacyLabRadiologyMap":[],"category":null,"val":null,"phoneNotAvailable":true,"emailNotAvailable":true,"patientConsentEntities":null,"defaultCommunicationChannel":null,"isReferral":null,"emailVerified":false},{"uuid":"82197e0a-c14f-4239-9785-bbcf6db49864","firstName":"shree","lastName":"singh","email":null,"gender":"MALE","mobileNumber":"6578766790","avatar":null,"timezone":"IST","race":null,"middleName":"","ethnicity":null,"ssn":"","mrn":"","emailConsent":false,"messageConsent":false,"callConsent":false,"registrationDate":null,"birthDate":"1995-08-16T18:30:00Z","emergencyContacts":[{"uuid":"a503c942-0784-427c-86cc-457004a8ee99","firstName":"","lastName":"","email":null,"mobile":"","relationshipWithPatient":null}],"pharmacyStores":[],"labs":[],"radiologies":[],"patientInsurances":[],"providerId":null,"locationId":{},"address":{"line1":"","line2":"","city":"","state":"","country":"","zipcode":""},"maritalStatus":null,"faxNumber":"","source":null,"homePhone":"","errorMessage":null,"lastAppointment":"2025-08-17T18:30:00Z","nextAppointment":null,"active":true,"archive":false,"languages":{},"lastLogin":null,"customerId":null,"pharmacyLabRadiology":null,"providerNPInumber":null,"providerContactNo":null,"providerEmail":null,"pharmacyLabRadiologyMap":[],"category":null,"val":null,"phoneNotAvailable":false,"emailNotAvailable":true,"patientConsentEntities":null,"defaultCommunicationChannel":"SMS","isReferral":null,"emailVerified":false},{"uuid":"00f60089-445b-4fea-9f35-23d902e8754e","firstName":"Casey","lastName":"Robinson","email":null,"gender":"MALE","mobileNumber":"","avatar":null,"timezone":"IST","race":null,"middleName":"","ethnicity":null,"ssn":"","mrn":"","emailConsent":false,"messageConsent":false,"callConsent":false,"registrationDate":null,"birthDate":"1988-11-12T04:07:21.539Z","emergencyContacts":[{"uuid":"ab66c6de-8428-4fb2-b075-e569b61b7e36","firstName":"","lastName":"","email":null,"mobile":"","relationshipWithPatient":null}],"pharmacyStores":[],"labs":[],"radiologies":[],"patientInsurances":[],"providerId":null,"locationId":{},"address":{"line1":"","line2":"","city":"","state":"","country":"","zipcode":""},"maritalStatus":null,"faxNumber":"","source":null,"homePhone":"","errorMessage":null,"lastAppointment":null,"nextAppointment":"2025-08-18T17:00:00Z","active":true,"archive":false,"languages":{},"lastLogin":null,"customerId":null,"pharmacyLabRadiology":null,"providerNPInumber":null,"providerContactNo":null,"providerEmail":null,"pharmacyLabRadiologyMap":[],"category":null,"val":null,"phoneNotAvailable":true,"emailNotAvailable":true,"patientConsentEntities":null,"defaultCommunicationChannel":null,"isReferral":null,"emailVerified":false},{"uuid":"1029c1ac-3a18-4931-85cb-3d0060d23035","firstName":"Sonney","lastName":"Hayes","email":"shubh@mailinator.com","gender":"FEMALE","mobileNumber":"(959) 555-9595","avatar":null,"timezone":"IST","race":null,"middleName":"","ethnicity":null,"ssn":"","mrn":"","emailConsent":true,"messageConsent":true,"callConsent":true,"registrationDate":null,"birthDate":"1990-12-31T18:23:00Z","emergencyContacts":[{"uuid":"1faff8a6-f0af-4574-b7ff-4e43d69edc33","firstName":"","lastName":"","email":null,"mobile":"","relationshipWithPatient":null}],"pharmacyStores":[],"labs":[],"radiologies":[],"patientInsurances":[],"providerId":null,"locationId":{},"address":{"line1":"","line2":"","city":"","state":"","country":"","zipcode":""},"maritalStatus":null,"faxNumber":"","source":null,"homePhone":"","errorMessage":null,"lastAppointment":null,"nextAppointment":null,"active":true,"archive":false,"languages":{},"lastLogin":null,"customerId":null,"pharmacyLabRadiology":null,"providerNPInumber":null,"providerContactNo":null,"providerEmail":null,"pharmacyLabRadiologyMap":[],"category":null,"val":null,"phoneNotAvailable":false,"emailNotAvailable":false,"patientConsentEntities":null,"defaultCommunicationChannel":"EMAIL","isReferral":null,"emailVerified":false},{"uuid":"6b0695ac-c65c-4cbf-84d7-a8f8bc4ef49a","firstName":"Riley","lastName":"Peterson","email":null,"gender":"MALE","mobileNumber":"","avatar":null,"timezone":"IST","race":null,"middleName":"","ethnicity":null,"ssn":"","mrn":"","emailConsent":false,"messageConsent":false,"callConsent":false,"registrationDate":null,"birthDate":"1978-06-18T12:07:08.098Z","emergencyContacts":[{"uuid":"10115367-9467-4f57-b26e-3c9b6bd753c1","firstName":"","lastName":"","email":null,"mobile":"","relationshipWithPatient":null}],"pharmacyStores":[],"labs":[],"radiologies":[],"patientInsurances":[],"providerId":null,"locationId":{},"address":{"line1":"","line2":"","city":"","state":"","country":"","zipcode":""},"maritalStatus":null,"faxNumber":"","source":null,"homePhone":"","errorMessage":null,"lastAppointment":null,"nextAppointment":"2025-08-18T15:00:00Z","active":true,"archive":false,"languages":{},"lastLogin":null,"customerId":null,"pharmacyLabRadiology":null,"providerNPInumber":null,"providerContactNo":null,"providerEmail":null,"pharmacyLabRadiologyMap":[],"category":null,"val":null,"phoneNotAvailable":true,"emailNotAvailable":true,"patientConsentEntities":null,"defaultCommunicationChannel":null,"isReferral":null,"emailVerified":false},{"uuid":"594d120b-1769-43e1-ab4f-bd97adeba5ac","firstName":"Aidan","lastName":"Jenkins","email":"Aidan_Jenkins59@gmail.com","gender":"FEMALE","mobileNumber":"(987) 694-3210","avatar":null,"timezone":"IST","race":null,"middleName":"","ethnicity":null,"ssn":"","mrn":"","emailConsent":true,"messageConsent":true,"callConsent":true,"registrationDate":null,"birthDate":"1989-12-31T18:30:00Z","emergencyContacts":[{"uuid":"f9548677-9038-4e38-9a0e-e57b8271162b","firstName":"","lastName":"","email":null,"mobile":"","relationshipWithPatient":null}],"pharmacyStores":[],"labs":[],"radiologies":[],"patientInsurances":[],"providerId":null,"locationId":{},"address":{"line1":"","line2":"","city":"","state":"","country":"","zipcode":""},"maritalStatus":null,"faxNumber":"","source":null,"homePhone":"","errorMessage":null,"lastAppointment":"2025-08-17T19:00:00Z","nextAppointment":null,"active":true,"archive":false,"languages":{},"lastLogin":null,"customerId":null,"pharmacyLabRadiology":null,"providerNPInumber":null,"providerContactNo":null,"providerEmail":null,"pharmacyLabRadiologyMap":[],"category":null,"val":null,"phoneNotAvailable":false,"emailNotAvailable":false,"patientConsentEntities":null,"defaultCommunicationChannel":"EMAIL","isReferral":null,"emailVerified":false},{"uuid":"0fa4edfe-43f6-4f80-b8a9-0efd4c95400f","firstName":"Jonathon","lastName":"Schoen","email":"Jonathon_Schoen@gmail.com","gender":"FEMALE","mobileNumber":"(987) 694-3210","avatar":null,"timezone":"IST","race":null,"middleName":"","ethnicity":null,"ssn":"","mrn":"","emailConsent":true,"messageConsent":true,"callConsent":true,"registrationDate":null,"birthDate":"1989-12-31T18:30:00Z","emergencyContacts":[{"uuid":"84a3cc84-dbdc-4906-928d-3eb8ef8ff0f2","firstName":"","lastName":"","email":null,"mobile":"","relationshipWithPatient":null}],"pharmacyStores":[],"labs":[],"radiologies":[],"patientInsurances":[],"providerId":null,"locationId":{},"address":{"line1":"","line2":"","city":"","state":"","country":"","zipcode":""},"maritalStatus":null,"faxNumber":"","source":null,"homePhone":"","errorMessage":null,"lastAppointment":"2025-08-17T19:00:00Z","nextAppointment":null,"active":true,"archive":false,"languages":{},"lastLogin":null,"customerId":null,"pharmacyLabRadiology":null,"providerNPInumber":null,"providerContactNo":null,"providerEmail":null,"pharmacyLabRadiologyMap":[],"category":null,"val":null,"phoneNotAvailable":false,"emailNotAvailable":false,"patientConsentEntities":null,"defaultCommunicationChannel":"EMAIL","isReferral":null,"emailVerified":false},{"uuid":"e97095a7-1bc9-4bb2-ab7d-3482639cd5f0","firstName":"Francesca","lastName":"Ondricka","email":"Francesca_Ondricka@gmail.com","gender":"FEMALE","mobileNumber":"(987) 694-3210","avatar":null,"timezone":"IST","race":null,"middleName":"","ethnicity":null,"ssn":"","mrn":"","emailConsent":true,"messageConsent":true,"callConsent":true,"registrationDate":null,"birthDate":"1989-12-31T18:30:00Z","emergencyContacts":[{"uuid":"6dbf5759-973e-4740-877d-24cd8c68f9a8","firstName":"","lastName":"","email":null,"mobile":"","relationshipWithPatient":null}],"pharmacyStores":[],"labs":[],"radiologies":[],"patientInsurances":[],"providerId":null,"locationId":{},"address":{"line1":"","line2":"","city":"","state":"","country":"","zipcode":""},"maritalStatus":null,"faxNumber":"","source":null,"homePhone":"","errorMessage":null,"lastAppointment":"2025-08-17T19:00:00Z","nextAppointment":null,"active":true,"archive":false,"languages":{},"lastLogin":null,"customerId":null,"pharmacyLabRadiology":null,"providerNPInumber":null,"providerContactNo":null,"providerEmail":null,"pharmacyLabRadiologyMap":[],"category":null,"val":null,"phoneNotAvailable":false,"emailNotAvailable":false,"patientConsentEntities":null,"defaultCommunicationChannel":"EMAIL","isReferral":null,"emailVerified":false},{"uuid":"34794027-da6b-43b2-a08c-a9d825876389","firstName":"Alan","lastName":"Hoppe","email":"Alan.Hoppe94@yahoo.com","gender":"FEMALE","mobileNumber":"(987) 694-3210","avatar":null,"timezone":"IST","race":null,"middleName":"","ethnicity":null,"ssn":"","mrn":"","emailConsent":true,"messageConsent":true,"callConsent":true,"registrationDate":null,"birthDate":"1989-12-31T18:30:00Z","emergencyContacts":[{"uuid":"1bd7b392-06ba-4e8d-9fc8-4cc978f14286","firstName":"","lastName":"","email":null,"mobile":"","relationshipWithPatient":null}],"pharmacyStores":[],"labs":[],"radiologies":[],"patientInsurances":[],"providerId":null,"locationId":{},"address":{"line1":"","line2":"","city":"","state":"","country":"","zipcode":""},"maritalStatus":null,"faxNumber":"","source":null,"homePhone":"","errorMessage":null,"lastAppointment":"2025-08-17T19:00:00Z","nextAppointment":null,"active":true,"archive":false,"languages":{},"lastLogin":null,"customerId":null,"pharmacyLabRadiology":null,"providerNPInumber":null,"providerContactNo":null,"providerEmail":null,"pharmacyLabRadiologyMap":[],"category":null,"val":null,"phoneNotAvailable":false,"emailNotAvailable":false,"patientConsentEntities":null,"defaultCommunicationChannel":"EMAIL","isReferral":null,"emailVerified":false}],"page":{"size":20,"number":0,"totalElements":1938,"totalPages":97}},"path":"/api/master/patient","requestId":"86578a12-86bb-4da6-a123-69cc9c2610cb","version":"1.0"}