{"date":"2025-08-18T06:31:58.506+00:00","code":"ENTITY","message":null,"data":{"content":[{"uuid":"b6394deb-09a9-4656-aec4-377ed4a7e2df","name":"Soberana 02","number":"13"},{"uuid":"d89e58db-7832-490f-9b85-17c54404b0f0","name":"Abdala","number":"11"},{"uuid":"d4b5e317-ed4e-4146-b390-560d80b002a9","name":"CoviVac","number":"10"},{"uuid":"79b7676b-c60a-4a46-8235-e4030d11e83e","name":"QazVac","number":"9"},{"uuid":"371d1293-a798-4dc0-813c-7e6e9323ee1a","name":"EpiVacCorona","number":"7"},{"uuid":"5610ea30-c737-4ee3-be0b-5b2baedae1ea","name":"Novavax","number":"6"},{"uuid":"e7190d53-f32b-4d56-924f-2fc2df766d79","name":"Covaxin","number":"4"},{"uuid":"8c399eff-b5bb-4704-8af0-632562a5f637","name":"Sinovac","number":"8"},{"uuid":"3439a543-e680-4b35-97a8-f3546aba26fd","name":"Johnson & Johnson","number":"2"},{"uuid":"564bc032-a17f-4c3f-a985-dbd1c6add3f3","name":"Moderna","number":"12"}],"page":{"size":10,"number":0,"totalElements":15,"totalPages":2}},"path":"/api/master/vaccine","requestId":"28f9e5de-2069-4f92-b7ee-97c9bede5c25","version":"1.0"}