{"date":"2025-08-18T06:31:20.064+00:00","code":"ENTITY","message":null,"data":{"content":[{"uuid":"4b19c2f6-7155-4778-a509-9a467be9b6db","patientId":"5e2db233-f67f-4600-8870-a33735cea948","patientName":"Gargi Deshmukh","patientDob":"2025-08-09T18:30:00Z","patientMrn":"","patientEmail":"gargi@gmail.com","patientPhone":"(123) 456-8901","patientGender":"FEMALE","avatar":null,"providerId":"dc769997-f9ce-4153-a6f9-bd491ac35228","providerName":"Rose Gomez","providerRole":"PROVIDER","providerAvatar":null,"providerSpecialities":{},"locationId":null,"locationName":null,"mode":"VIRTUAL","type":"CARE_COORDINATION","chiefComplaint":"fever","appointmentSpecialities":{},"startTime":"2025-08-18T03:30:00Z","endTime":"2025-08-18T04:00:00Z","room":"799f402d-afad-44b6-b375-177f3aa9c51f","paymentType":"CASH","note":"","emailForms":"Not Sent","source":null,"paid":false,"estimateAmount":null,"emailedFormsStatus":false,"duration":30,"status":"CONFIRMED","timezone":"IST","reminderStatus":null,"rescheduledAppointmentId":null,"rescheduleReason":null,"cancelReason":null,"slotOpen":true,"chargeable":null,"created":"2025-08-15T16:59:57.470973Z","archive":false,"customForms":null,"intakeComplete":false,"pgName":null,"providerColourCode":"#486295","notForBilling":false,"patientInsurances":null,"isRecurring":null,"recurringType":null,"recurringFrequency":null,"endDate":null,"endAfter":0,"patientPrimaryInsurance":null,"patientSecondaryInsurance":null,"assessments":null,"intakeForms":null,"encounterDate":null},{"uuid":"b9bab95f-c354-4223-955d-929ca14ba847","patientId":"2964e107-d20e-4419-8978-1d0a8ae0ab0a","patientName":"Dina Boyer","patientDob":"2013-04-17T18:30:00Z","patientMrn":"","patientEmail":"Callie.Blick68@yahoo.com","patientPhone":"(300) 787-3936","patientGender":"MALE","avatar":null,"providerId":"dc769997-f9ce-4153-a6f9-bd491ac35228","providerName":"Rose Gomez","providerRole":"PROVIDER","providerAvatar":null,"providerSpecialities":{},"locationId":null,"locationName":null,"mode":"VIRTUAL","type":"CARE_COORDINATION","chiefComplaint":"Facere demonstro eos volubilis compello valde.","appointmentSpecialities":{},"startTime":"2025-08-18T03:30:00Z","endTime":"2025-08-18T04:00:00Z","room":"793cd9e3-b377-447c-aeb2-bad54b1805db","paymentType":"CASH","note":"","emailForms":"Not Sent","source":null,"paid":false,"estimateAmount":null,"emailedFormsStatus":false,"duration":30,"status":"CONFIRMED","timezone":"IST","reminderStatus":null,"rescheduledAppointmentId":null,"rescheduleReason":null,"cancelReason":null,"slotOpen":true,"chargeable":null,"created":"2025-08-16T09:51:15.598212Z","archive":false,"customForms":null,"intakeComplete":false,"pgName":null,"providerColourCode":"#486295","notForBilling":false,"patientInsurances":null,"isRecurring":null,"recurringType":null,"recurringFrequency":null,"endDate":null,"endAfter":0,"patientPrimaryInsurance":null,"patientSecondaryInsurance":null,"assessments":null,"intakeForms":null,"encounterDate":null},{"uuid":"0bf4f667-da7f-4793-be6b-6d8d015d1a44","patientId":"142e89dd-8086-4d3b-965e-ad213cf8a8ea","patientName":"Morgan White","patientDob":"1990-10-23T18:30:00Z","patientMrn":"","patientEmail":"morgan.white563@mailor.com","patientPhone":"(259) 862-2428","patientGender":"MALE","avatar":null,"providerId":"dc769997-f9ce-4153-a6f9-bd491ac35228","providerName":"Rose Gomez","providerRole":"PROVIDER","providerAvatar":null,"providerSpecialities":{},"locationId":null,"locationName":null,"mode":"VIRTUAL","type":"NEW","chiefComplaint":"Fever","appointmentSpecialities":{},"startTime":"2025-08-18T03:30:00Z","endTime":"2025-08-18T03:45:00Z","room":"8de91c33-ea37-4c4c-9862-120bd5d8d5ca","paymentType":"CASH","note":"","emailForms":"Not Sent","source":null,"paid":false,"estimateAmount":null,"emailedFormsStatus":false,"duration":15,"status":"IN_EXAM","timezone":"AKST","reminderStatus":null,"rescheduledAppointmentId":null,"rescheduleReason":null,"cancelReason":null,"slotOpen":true,"chargeable":null,"created":"2025-08-14T05:21:35.617412Z","archive":false,"customForms":null,"intakeComplete":false,"pgName":null,"providerColourCode":"#486295","notForBilling":false,"patientInsurances":null,"isRecurring":null,"recurringType":null,"recurringFrequency":null,"endDate":null,"endAfter":0,"patientPrimaryInsurance":null,"patientSecondaryInsurance":null,"assessments":null,"intakeForms":null,"encounterDate":"2025-08-14T05:22:07.170824Z"},{"uuid":"d4ab5ec1-c5ef-40c0-91d2-227c12c7d2ec","patientId":"c4c41d0a-19f0-469e-8b1f-b6696ac6b9ab","patientName":"Pansy Roob","patientDob":"2008-05-15T18:30:00Z","patientMrn":"","patientEmail":"Aliyah37@hotmail.com","patientPhone":"(397) 381-7475","patientGender":"FEMALE","avatar":null,"providerId":"dc769997-f9ce-4153-a6f9-bd491ac35228","providerName":"Rose Gomez","providerRole":"PROVIDER","providerAvatar":null,"providerSpecialities":{},"locationId":null,"locationName":null,"mode":"VIRTUAL","type":"CARE_COORDINATION","chiefComplaint":"Aufero concido cupiditas vir vae vinculum usus crux adhaero.","appointmentSpecialities":{},"startTime":"2025-08-18T03:30:00Z","endTime":"2025-08-18T04:00:00Z","room":"777e0874-2d10-4601-afc5-0bc02a6007dc","paymentType":"CASH","note":"","emailForms":"Not Sent","source":null,"paid":false,"estimateAmount":null,"emailedFormsStatus":false,"duration":30,"status":"PENDING","timezone":"IST","reminderStatus":null,"rescheduledAppointmentId":null,"rescheduleReason":null,"cancelReason":null,"slotOpen":false,"chargeable":null,"created":"2025-08-16T10:08:54.542390Z","archive":false,"customForms":null,"intakeComplete":false,"pgName":null,"providerColourCode":"#486295","notForBilling":false,"patientInsurances":null,"isRecurring":null,"recurringType":null,"recurringFrequency":null,"endDate":null,"endAfter":0,"patientPrimaryInsurance":null,"patientSecondaryInsurance":null,"assessments":null,"intakeForms":null,"encounterDate":null},{"uuid":"1de381aa-575c-49ef-aeed-0c60c73b15c9","patientId":"48576745-8fd9-4e73-99b0-82c4e7d6323d","patientName":"Domenic Mayer","patientDob":"2005-12-26T18:30:00Z","patientMrn":"","patientEmail":"Dawn.Auer@hotmail.com","patientPhone":"(793) 421-7123","patientGender":"FEMALE","avatar":null,"providerId":"dc769997-f9ce-4153-a6f9-bd491ac35228","providerName":"Rose Gomez","providerRole":"PROVIDER","providerAvatar":null,"providerSpecialities":{},"locationId":null,"locationName":null,"mode":"VIRTUAL","type":"CARE_COORDINATION","chiefComplaint":"Solitudo concido vinco cornu avaritia supra degero.","appointmentSpecialities":{},"startTime":"2025-08-18T04:00:00Z","endTime":"2025-08-18T04:30:00Z","room":"1ad24f72-b7d3-428a-a19f-b42fa3ee2be0","paymentType":"CASH","note":"","emailForms":"Not Sent","source":null,"paid":false,"estimateAmount":null,"emailedFormsStatus":false,"duration":30,"status":"COMPLETED","timezone":"IST","reminderStatus":null,"rescheduledAppointmentId":null,"rescheduleReason":null,"cancelReason":null,"slotOpen":true,"chargeable":null,"created":"2025-08-16T10:17:37.598799Z","archive":false,"customForms":null,"intakeComplete":false,"pgName":null,"providerColourCode":"#486295","notForBilling":false,"patientInsurances":null,"isRecurring":null,"recurringType":null,"recurringFrequency":null,"endDate":null,"endAfter":0,"patientPrimaryInsurance":null,"patientSecondaryInsurance":null,"assessments":null,"intakeForms":null,"encounterDate":"2025-08-16T10:18:02.923372Z"},{"uuid":"3ebc1771-e2ca-4a57-8300-5d5d40336b97","patientId":"c51650dc-f1c6-4f60-91f6-ff19aaca4f75","patientName":"Jacky Welch","patientDob":"2021-09-03T18:30:00Z","patientMrn":"","patientEmail":"Dawn60@yahoo.com","patientPhone":"(178) 193-6500","patientGender":"FEMALE","avatar":null,"providerId":"dc769997-f9ce-4153-a6f9-bd491ac35228","providerName":"Rose Gomez","providerRole":"PROVIDER","providerAvatar":null,"providerSpecialities":{},"locationId":null,"locationName":null,"mode":"VIRTUAL","type":"CARE_COORDINATION","chiefComplaint":"Canis deprimo tabernus.","appointmentSpecialities":{},"startTime":"2025-08-18T04:00:00Z","endTime":"2025-08-18T04:30:00Z","room":"35971c81-74f6-4055-991a-18819ebdc510","paymentType":"CASH","note":"","emailForms":"Not Sent","source":null,"paid":false,"estimateAmount":null,"emailedFormsStatus":false,"duration":30,"status":"COMPLETED","timezone":"IST","reminderStatus":null,"rescheduledAppointmentId":null,"rescheduleReason":null,"cancelReason":null,"slotOpen":true,"chargeable":null,"created":"2025-08-16T10:34:28.961336Z","archive":false,"customForms":null,"intakeComplete":false,"pgName":null,"providerColourCode":"#486295","notForBilling":false,"patientInsurances":null,"isRecurring":null,"recurringType":null,"recurringFrequency":null,"endDate":null,"endAfter":0,"patientPrimaryInsurance":null,"patientSecondaryInsurance":null,"assessments":null,"intakeForms":null,"encounterDate":"2025-08-16T10:34:54.741364Z"},{"uuid":"7aac9418-2076-4417-99c2-98dba3b95262","patientId":"ac59331f-b6ff-4787-8eeb-a52ff0257861","patientName":"Anikett Mtest","patientDob":"2000-01-01T18:23:00Z","patientMrn":"","patientEmail":"qwer@asd.com","patientPhone":"(646) 846-8454","patientGender":"MALE","avatar":null,"providerId":"dc769997-f9ce-4153-a6f9-bd491ac35228","providerName":"Rose Gomez","providerRole":"PROVIDER","providerAvatar":null,"providerSpecialities":{},"locationId":null,"locationName":null,"mode":"VIRTUAL","type":"NEW","chiefComplaint":"Annual wellness check and consultation","appointmentSpecialities":{},"startTime":"2025-08-18T04:30:00Z","endTime":"2025-08-18T05:00:00Z","room":"c1db3764-65f1-4cad-9154-66c5603064cf","paymentType":"INSURANCE","note":"New patient appointment - comprehensive evaluation needed","emailForms":"Not Sent","source":null,"paid":false,"estimateAmount":null,"emailedFormsStatus":false,"duration":30,"status":"PENDING","timezone":"IST","reminderStatus":null,"rescheduledAppointmentId":null,"rescheduleReason":null,"cancelReason":null,"slotOpen":false,"chargeable":null,"created":"2025-08-13T11:00:55.385165Z","archive":false,"customForms":null,"intakeComplete":false,"pgName":null,"providerColourCode":"#486295","notForBilling":false,"patientInsurances":null,"isRecurring":null,"recurringType":null,"recurringFrequency":null,"endDate":null,"endAfter":0,"patientPrimaryInsurance":null,"patientSecondaryInsurance":null,"assessments":null,"intakeForms":null,"encounterDate":null},{"uuid":"a23a7210-dfc3-446f-a534-23d7860637d1","patientId":"ac59331f-b6ff-4787-8eeb-a52ff0257861","patientName":"Anikett Mtest","patientDob":"2000-01-01T18:23:00Z","patientMrn":"","patientEmail":"qwer@asd.com","patientPhone":"(646) 846-8454","patientGender":"MALE","avatar":null,"providerId":"dc769997-f9ce-4153-a6f9-bd491ac35228","providerName":"Rose Gomez","providerRole":"PROVIDER","providerAvatar":null,"providerSpecialities":{},"locationId":null,"locationName":null,"mode":"VIRTUAL","type":"NEW","chiefComplaint":"Test","appointmentSpecialities":{},"startTime":"2025-08-18T04:30:00Z","endTime":"2025-08-18T04:45:00Z","room":"032a5510-f050-4880-97f5-6f735d424704","paymentType":"CASH","note":null,"emailForms":"Not Sent","source":null,"paid":false,"estimateAmount":null,"emailedFormsStatus":false,"duration":15,"status":"PENDING","timezone":"IST","reminderStatus":null,"rescheduledAppointmentId":null,"rescheduleReason":null,"cancelReason":null,"slotOpen":false,"chargeable":null,"created":"2025-08-08T10:32:53.009289Z","archive":false,"customForms":null,"intakeComplete":false,"pgName":null,"providerColourCode":"#486295","notForBilling":false,"patientInsurances":null,"isRecurring":null,"recurringType":null,"recurringFrequency":null,"endDate":null,"endAfter":0,"patientPrimaryInsurance":null,"patientSecondaryInsurance":null,"assessments":null,"intakeForms":null,"encounterDate":null},{"uuid":"385c5503-817f-4490-8650-6ecfc337f0b6","patientId":"ac59331f-b6ff-4787-8eeb-a52ff0257861","patientName":"Anikett Mtest","patientDob":"2000-01-01T18:23:00Z","patientMrn":"","patientEmail":"qwer@asd.com","patientPhone":"(646) 846-8454","patientGender":"MALE","avatar":null,"providerId":"dc769997-f9ce-4153-a6f9-bd491ac35228","providerName":"Rose Gomez","providerRole":"PROVIDER","providerAvatar":null,"providerSpecialities":{},"locationId":null,"locationName":null,"mode":"VIRTUAL","type":"NEW","chiefComplaint":"Automated test appointment","appointmentSpecialities":{},"startTime":"2025-08-18T04:30:00Z","endTime":"2025-08-18T04:45:00Z","room":"0bac7dec-7da6-47fa-9d78-1c0a892872e8","paymentType":"CASH","note":null,"emailForms":"Not Sent","source":null,"paid":false,"estimateAmount":null,"emailedFormsStatus":false,"duration":15,"status":"PENDING","timezone":"IST","reminderStatus":null,"rescheduledAppointmentId":null,"rescheduleReason":null,"cancelReason":null,"slotOpen":false,"chargeable":null,"created":"2025-08-13T10:01:20.738918Z","archive":false,"customForms":null,"intakeComplete":false,"pgName":null,"providerColourCode":"#486295","notForBilling":false,"patientInsurances":null,"isRecurring":null,"recurringType":null,"recurringFrequency":null,"endDate":null,"endAfter":0,"patientPrimaryInsurance":null,"patientSecondaryInsurance":null,"assessments":null,"intakeForms":null,"encounterDate":null},{"uuid":"14cb0672-b570-477b-af31-9db8a1c4bb5e","patientId":"ac59331f-b6ff-4787-8eeb-a52ff0257861","patientName":"Anikett Mtest","patientDob":"2000-01-01T18:23:00Z","patientMrn":"","patientEmail":"qwer@asd.com","patientPhone":"(646) 846-8454","patientGender":"MALE","avatar":null,"providerId":"dc769997-f9ce-4153-a6f9-bd491ac35228","providerName":"Rose Gomez","providerRole":"PROVIDER","providerAvatar":null,"providerSpecialities":{},"locationId":null,"locationName":null,"mode":"VIRTUAL","type":"NEW","chiefComplaint":"Annual wellness check and consultation","appointmentSpecialities":{},"startTime":"2025-08-18T04:30:00Z","endTime":"2025-08-18T05:00:00Z","room":"f234af69-7517-4292-8203-4c994cd9f55a","paymentType":"INSURANCE","note":"New patient appointment - comprehensive evaluation needed","emailForms":"Not Sent","source":null,"paid":false,"estimateAmount":null,"emailedFormsStatus":false,"duration":30,"status":"CONFIRMED","timezone":"IST","reminderStatus":null,"rescheduledAppointmentId":null,"rescheduleReason":null,"cancelReason":null,"slotOpen":true,"chargeable":null,"created":"2025-08-13T10:27:16.994507Z","archive":false,"customForms":null,"intakeComplete":false,"pgName":null,"providerColourCode":"#486295","notForBilling":false,"patientInsurances":null,"isRecurring":null,"recurringType":null,"recurringFrequency":null,"endDate":null,"endAfter":0,"patientPrimaryInsurance":null,"patientSecondaryInsurance":null,"assessments":null,"intakeForms":null,"encounterDate":null}],"page":{"size":10,"number":0,"totalElements":97,"totalPages":10}},"path":"/api/master/appointment","requestId":"1030b496-015f-40c6-9ea2-e9220e1e7812","version":"1.0"}