{"date":"2025-08-18T06:31:05.834+00:00","code":"ENTITY","message":null,"data":{"content":[{"uuid":"90723fde-2cb8-4eb0-b8e4-1880b5e13f0b","firstName":"Humberto","lastName":"Weimann","email":"Alvis_Spinka@hotmail.com","gender":"MALE","mobileNumber":"(874) 828-6888","avatar":null,"timezone":"IST","race":null,"middleName":"","ethnicity":null,"ssn":"","mrn":"","emailConsent":true,"messageConsent":true,"callConsent":true,"registrationDate":null,"birthDate":"2008-02-23T18:30:00Z","emergencyContacts":[{"uuid":"49462b04-8f93-47f8-a968-c1fb214d7dfe","firstName":"","lastName":"","email":null,"mobile":"","relationshipWithPatient":null}],"pharmacyStores":[],"labs":[],"radiologies":[],"patientInsurances":[],"providerId":null,"locationId":{},"address":{"line1":"","line2":"","city":"","state":"","country":"","zipcode":""},"maritalStatus":"MARRIED","faxNumber":"","source":null,"homePhone":"","errorMessage":null,"lastAppointment":null,"nextAppointment":null,"active":true,"archive":false,"languages":{},"lastLogin":null,"customerId":null,"pharmacyLabRadiology":null,"providerNPInumber":null,"providerContactNo":null,"providerEmail":null,"pharmacyLabRadiologyMap":[],"category":null,"val":null,"phoneNotAvailable":false,"emailNotAvailable":false,"patientConsentEntities":null,"defaultCommunicationChannel":"EMAIL","isReferral":null,"emailVerified":false},{"uuid":"0c9a8557-9a4a-45ed-a785-6cf918f30ba5","firstName":"Jordan","lastName":"Anderson","email":null,"gender":"MALE","mobileNumber":"","avatar":null,"timezone":"IST","race":null,"middleName":"","ethnicity":null,"ssn":"","mrn":"","emailConsent":false,"messageConsent":false,"callConsent":false,"registrationDate":null,"birthDate":"1996-11-19T17:24:21.736Z","emergencyContacts":[{"uuid":"5bcf6f21-fd9e-4e5e-99d0-8688376f95ef","firstName":"","lastName":"","email":null,"mobile":"","relationshipWithPatient":null}],"pharmacyStores":[],"labs":[],"radiologies":[],"patientInsurances":[],"providerId":null,"locationId":{},"address":{"line1":"","line2":"","city":"","state":"","country":"","zipcode":""},"maritalStatus":null,"faxNumber":"","source":null,"homePhone":"","errorMessage":null,"lastAppointment":null,"nextAppointment":"2025-08-19T15:00:00Z","active":true,"archive":false,"languages":{},"lastLogin":null,"customerId":null,"pharmacyLabRadiology":null,"providerNPInumber":null,"providerContactNo":null,"providerEmail":null,"pharmacyLabRadiologyMap":[],"category":null,"val":null,"phoneNotAvailable":true,"emailNotAvailable":true,"patientConsentEntities":null,"defaultCommunicationChannel":null,"isReferral":null,"emailVerified":false},{"uuid":"d153002a-5a1b-43b1-b935-537b7b2a11fe","firstName":"lucy","lastName":"rey","email":null,"gender":"MALE","mobileNumber":"","avatar":null,"timezone":"IST","race":null,"middleName":"","ethnicity":null,"ssn":"","mrn":"","emailConsent":false,"messageConsent":false,"callConsent":false,"registrationDate":null,"birthDate":"1994-08-16T18:30:00Z","emergencyContacts":[{"uuid":"1f133546-74b1-4513-87dd-759a5bf0a884","firstName":"","lastName":"","email":null,"mobile":"","relationshipWithPatient":null}],"pharmacyStores":[],"labs":[],"radiologies":[],"patientInsurances":[],"providerId":null,"locationId":{},"address":{"line1":"","line2":"","city":"","state":"","country":"","zipcode":""},"maritalStatus":null,"faxNumber":"","source":null,"homePhone":"","errorMessage":null,"lastAppointment":"2025-08-10T17:30:00Z","nextAppointment":null,"active":true,"archive":false,"languages":{},"lastLogin":null,"customerId":null,"pharmacyLabRadiology":null,"providerNPInumber":null,"providerContactNo":null,"providerEmail":null,"pharmacyLabRadiologyMap":[],"category":null,"val":null,"phoneNotAvailable":true,"emailNotAvailable":true,"patientConsentEntities":null,"defaultCommunicationChannel":null,"isReferral":null,"emailVerified":false},{"uuid":"75198591-1ec6-4768-84e5-8523faef6711","firstName":"Casey","lastName":"Clark","email":null,"gender":"MALE","mobileNumber":"","avatar":null,"timezone":"IST","race":null,"middleName":"","ethnicity":null,"ssn":"","mrn":"","emailConsent":false,"messageConsent":false,"callConsent":false,"registrationDate":null,"birthDate":"1987-06-15T15:24:14.554Z","emergencyContacts":[{"uuid":"286fe22d-b515-4225-8a14-7f6457aadc4f","firstName":"","lastName":"","email":null,"mobile":"","relationshipWithPatient":null}],"pharmacyStores":[],"labs":[],"radiologies":[],"patientInsurances":[],"providerId":null,"locationId":{},"address":{"line1":"","line2":"","city":"","state":"","country":"","zipcode":""},"maritalStatus":null,"faxNumber":"","source":null,"homePhone":"","errorMessage":null,"lastAppointment":null,"nextAppointment":"2025-08-18T17:00:00Z","active":true,"archive":false,"languages":{},"lastLogin":null,"customerId":null,"pharmacyLabRadiology":null,"providerNPInumber":null,"providerContactNo":null,"providerEmail":null,"pharmacyLabRadiologyMap":[],"category":null,"val":null,"phoneNotAvailable":true,"emailNotAvailable":true,"patientConsentEntities":null,"defaultCommunicationChannel":null,"isReferral":null,"emailVerified":false},{"uuid":"70789291-d97b-48e6-b57f-2f474f42da27","firstName":"Jordan","lastName":"Martinez","email":null,"gender":"FEMALE","mobileNumber":"","avatar":null,"timezone":"IST","race":null,"middleName":"","ethnicity":null,"ssn":"","mrn":"","emailConsent":false,"messageConsent":false,"callConsent":false,"registrationDate":null,"birthDate":"1990-06-30T01:52:47.994Z","emergencyContacts":[{"uuid":"f951d5ab-eb1d-48f5-8ea1-160c01147da1","firstName":"","lastName":"","email":null,"mobile":"","relationshipWithPatient":null}],"pharmacyStores":[],"labs":[],"radiologies":[],"patientInsurances":[],"providerId":null,"locationId":{},"address":{"line1":"","line2":"","city":"","state":"","country":"","zipcode":""},"maritalStatus":null,"faxNumber":"","source":null,"homePhone":"","errorMessage":null,"lastAppointment":null,"nextAppointment":"2025-08-18T15:00:00Z","active":true,"archive":false,"languages":{},"lastLogin":null,"customerId":null,"pharmacyLabRadiology":null,"providerNPInumber":null,"providerContactNo":null,"providerEmail":null,"pharmacyLabRadiologyMap":[],"category":null,"val":null,"phoneNotAvailable":true,"emailNotAvailable":true,"patientConsentEntities":null,"defaultCommunicationChannel":null,"isReferral":null,"emailVerified":false},{"uuid":"c51650dc-f1c6-4f60-91f6-ff19aaca4f75","firstName":"Jacky","lastName":"Welch","email":"Dawn60@yahoo.com","gender":"FEMALE","mobileNumber":"(178) 193-6500","avatar":null,"timezone":"IST","race":null,"middleName":"","ethnicity":null,"ssn":"","mrn":"","emailConsent":true,"messageConsent":true,"callConsent":true,"registrationDate":null,"birthDate":"2021-09-03T18:30:00Z","emergencyContacts":[{"uuid":"5fc20656-1afb-4a6a-a341-de00eb282363","firstName":"","lastName":"","email":null,"mobile":"","relationshipWithPatient":null}],"pharmacyStores":[],"labs":[],"radiologies":[],"patientInsurances":[],"providerId":null,"locationId":{},"address":{"line1":"","line2":"","city":"","state":"","country":"","zipcode":""},"maritalStatus":"DIVORCED","faxNumber":"","source":null,"homePhone":"","errorMessage":null,"lastAppointment":"2025-08-18T04:00:00Z","nextAppointment":null,"active":true,"archive":false,"languages":{},"lastLogin":null,"customerId":null,"pharmacyLabRadiology":null,"providerNPInumber":null,"providerContactNo":null,"providerEmail":null,"pharmacyLabRadiologyMap":[],"category":null,"val":null,"phoneNotAvailable":false,"emailNotAvailable":false,"patientConsentEntities":null,"defaultCommunicationChannel":"EMAIL","isReferral":null,"emailVerified":false},{"uuid":"48576745-8fd9-4e73-99b0-82c4e7d6323d","firstName":"Domenic","lastName":"Mayer","email":"Dawn.Auer@hotmail.com","gender":"FEMALE","mobileNumber":"(793) 421-7123","avatar":null,"timezone":"IST","race":null,"middleName":"","ethnicity":null,"ssn":"","mrn":"","emailConsent":true,"messageConsent":true,"callConsent":true,"registrationDate":null,"birthDate":"2005-12-26T18:30:00Z","emergencyContacts":[{"uuid":"288f715e-0dc0-4fd7-877e-af205e867900","firstName":"","lastName":"","email":null,"mobile":"","relationshipWithPatient":null}],"pharmacyStores":[],"labs":[],"radiologies":[],"patientInsurances":[],"providerId":null,"locationId":{},"address":{"line1":"","line2":"","city":"","state":"","country":"","zipcode":""},"maritalStatus":"DIVORCED","faxNumber":"","source":null,"homePhone":"","errorMessage":null,"lastAppointment":"2025-08-18T04:00:00Z","nextAppointment":null,"active":true,"archive":false,"languages":{},"lastLogin":null,"customerId":null,"pharmacyLabRadiology":null,"providerNPInumber":null,"providerContactNo":null,"providerEmail":null,"pharmacyLabRadiologyMap":[],"category":null,"val":null,"phoneNotAvailable":false,"emailNotAvailable":false,"patientConsentEntities":null,"defaultCommunicationChannel":"EMAIL","isReferral":null,"emailVerified":false},{"uuid":"c4c41d0a-19f0-469e-8b1f-b6696ac6b9ab","firstName":"Pansy","lastName":"Roob","email":"Aliyah37@hotmail.com","gender":"FEMALE","mobileNumber":"(397) 381-7475","avatar":null,"timezone":"IST","race":null,"middleName":"","ethnicity":null,"ssn":"","mrn":"","emailConsent":true,"messageConsent":true,"callConsent":true,"registrationDate":null,"birthDate":"2008-05-15T18:30:00Z","emergencyContacts":[{"uuid":"dd6eca10-bc86-476f-98cb-4fb87ce3dfb8","firstName":"","lastName":"","email":null,"mobile":"","relationshipWithPatient":null}],"pharmacyStores":[],"labs":[],"radiologies":[],"patientInsurances":[],"providerId":null,"locationId":{},"address":{"line1":"","line2":"","city":"","state":"","country":"","zipcode":""},"maritalStatus":"SINGLE","faxNumber":"","source":null,"homePhone":"","errorMessage":null,"lastAppointment":"2025-08-18T03:30:00Z","nextAppointment":null,"active":true,"archive":false,"languages":{},"lastLogin":null,"customerId":null,"pharmacyLabRadiology":null,"providerNPInumber":null,"providerContactNo":null,"providerEmail":null,"pharmacyLabRadiologyMap":[],"category":null,"val":null,"phoneNotAvailable":false,"emailNotAvailable":false,"patientConsentEntities":null,"defaultCommunicationChannel":"EMAIL","isReferral":null,"emailVerified":false},{"uuid":"2964e107-d20e-4419-8978-1d0a8ae0ab0a","firstName":"Dina","lastName":"Boyer","email":"Callie.Blick68@yahoo.com","gender":"MALE","mobileNumber":"(300) 787-3936","avatar":null,"timezone":"IST","race":null,"middleName":"","ethnicity":null,"ssn":"","mrn":"","emailConsent":true,"messageConsent":true,"callConsent":true,"registrationDate":null,"birthDate":"2013-04-17T18:30:00Z","emergencyContacts":[{"uuid":"fc2f9fe8-d555-4b24-94f0-7f77c24c278e","firstName":"","lastName":"","email":null,"mobile":"","relationshipWithPatient":null}],"pharmacyStores":[],"labs":[],"radiologies":[],"patientInsurances":[],"providerId":null,"locationId":{},"address":{"line1":"","line2":"","city":"","state":"","country":"","zipcode":""},"maritalStatus":"WIDOWED","faxNumber":"","source":null,"homePhone":"","errorMessage":null,"lastAppointment":"2025-08-18T03:30:00Z","nextAppointment":null,"active":true,"archive":false,"languages":{},"lastLogin":null,"customerId":null,"pharmacyLabRadiology":null,"providerNPInumber":null,"providerContactNo":null,"providerEmail":null,"pharmacyLabRadiologyMap":[],"category":null,"val":null,"phoneNotAvailable":false,"emailNotAvailable":false,"patientConsentEntities":null,"defaultCommunicationChannel":"EMAIL","isReferral":null,"emailVerified":false},{"uuid":"ebd8665b-970f-42d7-9b4a-7aaf3f20fab0","firstName":"Rahul","lastName":"Jaykar","email":"rahuljaykar@gmail.com","gender":"MALE","mobileNumber":"(987) 654-3267","avatar":null,"timezone":"IST","race":null,"middleName":"","ethnicity":null,"ssn":"","mrn":"","emailConsent":true,"messageConsent":true,"callConsent":true,"registrationDate":null,"birthDate":"2002-04-08T18:23:00Z","emergencyContacts":[{"uuid":"cf5d3f55-7ce1-4d86-b1e0-115edbeeff20","firstName":"","lastName":"","email":null,"mobile":"","relationshipWithPatient":null}],"pharmacyStores":[],"labs":[],"radiologies":[],"patientInsurances":[],"providerId":null,"locationId":{},"address":{"line1":"","line2":"","city":"","state":"","country":"","zipcode":""},"maritalStatus":"SINGLE","faxNumber":"","source":null,"homePhone":"","errorMessage":null,"lastAppointment":"2025-08-18T06:00:00Z","nextAppointment":null,"active":true,"archive":false,"languages":{},"lastLogin":null,"customerId":null,"pharmacyLabRadiology":null,"providerNPInumber":null,"providerContactNo":null,"providerEmail":null,"pharmacyLabRadiologyMap":[],"category":null,"val":null,"phoneNotAvailable":false,"emailNotAvailable":false,"patientConsentEntities":null,"defaultCommunicationChannel":"EMAIL","isReferral":null,"emailVerified":false}],"page":{"size":10,"number":0,"totalElements":1938,"totalPages":194}},"path":"/api/master/patient","requestId":"e319b96f-cfac-48e4-a9b8-a68c151f80bf","version":"1.0"}