{"date":"2025-08-18T06:30:54.077+00:00","code":"ENTITY","message":null,"data":{"content":[{"uuid":"f11b1dbc-df63-4d41-b262-203ef4a53f4a","email":"test.provider.1755478649341@medarch.com","firstName":"Lisa","lastName":"Williams","phone":null,"birthDate":null,"avatar":null,"active":true,"source":null,"archive":false,"timezone":null,"providerType":null,"gender":"FEMALE","npi":null,"federalTaxIdNumber":null,"role":"PROVIDER","roleType":"PROVIDER","officeFaxNumber":"","licenseNumber":null,"groupNpiNumber":null,"taxonomyNumber":"","workLocations":{},"acceptedInsurances":{},"specialities":{},"licenceInformation":[{"uuid":"fc820d63-ec3a-4ae8-a931-71baa7954317","licenseState":"","licenseNumber":"","expiryDate":null,"licenseActiveDate":null,"licenseDocument":null,"licenseName":null}],"deaInformation":[{"uuid":"2aad3414-a6e2-4aae-9978-a4650a2551b8","deaState":"","deaNumber":"","deaTermDate":null,"deaActiveDate":null}],"experience":"","bio":"","errorMessage":null,"acceptNewPatient":false,"referralNumber":null,"spokenLanguages":{},"lastLogin":null,"colorCode":"#c05230","loginUrl":"https://stage_aithinkitive.uat.provider.ecarehealth.com","isReferral":null,"address":null,"practiceName":null,"temporaryEmail":null,"emailVerified":false},{"uuid":"a61279d3-3fb8-41b2-ab44-21d8505946a2","email":"rebecca.greenn@mailinator.com","firstName":"Rebecca","lastName":"Greenn","phone":"9876543211","birthDate":null,"avatar":null,"active":true,"source":null,"archive":false,"timezone":null,"providerType":null,"gender":"FEMALE","npi":null,"federalTaxIdNumber":null,"role":"PROVIDER","roleType":"PROVIDER","officeFaxNumber":"","licenseNumber":null,"groupNpiNumber":null,"taxonomyNumber":"","workLocations":{},"acceptedInsurances":{},"specialities":{},"licenceInformation":[{"uuid":"8960c86a-8967-4008-8bac-1a39a845edbb","licenseState":"","licenseNumber":"","expiryDate":null,"licenseActiveDate":null,"licenseDocument":null,"licenseName":null}],"deaInformation":[{"uuid":"5480389d-15af-4204-b406-a2e54231578f","deaState":"","deaNumber":"","deaTermDate":null,"deaActiveDate":null}],"experience":"","bio":"","errorMessage":null,"acceptNewPatient":false,"referralNumber":null,"spokenLanguages":{},"lastLogin":null,"colorCode":"#ecc3ef","loginUrl":"https://stage_aithinkitive.uat.provider.ecarehealth.com","isReferral":null,"address":null,"practiceName":null,"temporaryEmail":null,"emailVerified":false},{"uuid":"cbf05075-e36c-49a1-a72b-25b6cddc5534","email":"test.provider.1755412602146@medarch.com","firstName":"Sarah","lastName":"Johnson","phone":null,"birthDate":null,"avatar":null,"active":true,"source":null,"archive":false,"timezone":null,"providerType":null,"gender":"FEMALE","npi":null,"federalTaxIdNumber":null,"role":"PROVIDER","roleType":"PROVIDER","officeFaxNumber":"","licenseNumber":null,"groupNpiNumber":null,"taxonomyNumber":"","workLocations":{},"acceptedInsurances":{},"specialities":{},"licenceInformation":[{"uuid":"9ddcd003-71ba-447e-bd74-e68446c83f67","licenseState":"","licenseNumber":"","expiryDate":null,"licenseActiveDate":null,"licenseDocument":null,"licenseName":null}],"deaInformation":[{"uuid":"865dab0f-210a-43c0-bde9-58a41ffbe66c","deaState":"","deaNumber":"","deaTermDate":null,"deaActiveDate":null}],"experience":"","bio":"","errorMessage":null,"acceptNewPatient":false,"referralNumber":null,"spokenLanguages":{},"lastLogin":null,"colorCode":"#50ea3a","loginUrl":"https://stage_aithinkitive.uat.provider.ecarehealth.com","isReferral":null,"address":null,"practiceName":null,"temporaryEmail":null,"emailVerified":false},{"uuid":"dce529d7-82fb-4282-989a-e75e274fd6bf","email":"test.provider.1755392279763@medarch.com","firstName":"Michael","lastName":"Jones","phone":null,"birthDate":null,"avatar":null,"active":true,"source":null,"archive":false,"timezone":null,"providerType":null,"gender":"MALE","npi":null,"federalTaxIdNumber":null,"role":"PROVIDER","roleType":"PROVIDER","officeFaxNumber":"","licenseNumber":null,"groupNpiNumber":null,"taxonomyNumber":"","workLocations":{},"acceptedInsurances":{},"specialities":{},"licenceInformation":[{"uuid":"ff9eac07-76e1-47af-8fc6-26939f03b974","licenseState":"","licenseNumber":"","expiryDate":null,"licenseActiveDate":null,"licenseDocument":null,"licenseName":null}],"deaInformation":[{"uuid":"09ccff5c-9eb1-4738-89c4-28b316f59f8f","deaState":"","deaNumber":"","deaTermDate":null,"deaActiveDate":null}],"experience":"","bio":"","errorMessage":null,"acceptNewPatient":false,"referralNumber":null,"spokenLanguages":{},"lastLogin":null,"colorCode":"#6b0084","loginUrl":"https://stage_aithinkitive.uat.provider.ecarehealth.com","isReferral":null,"address":null,"practiceName":null,"temporaryEmail":null,"emailVerified":false},{"uuid":"71aa89ce-4ca2-4830-aebf-89fc23fef1f7","email":"test.provider.1755326160840@medarch.com","firstName":"David","lastName":"Jones","phone":null,"birthDate":null,"avatar":null,"active":true,"source":null,"archive":false,"timezone":null,"providerType":null,"gender":"FEMALE","npi":null,"federalTaxIdNumber":null,"role":"PROVIDER","roleType":"PROVIDER","officeFaxNumber":"","licenseNumber":null,"groupNpiNumber":null,"taxonomyNumber":"","workLocations":{},"acceptedInsurances":{},"specialities":{},"licenceInformation":[{"uuid":"85b822c3-d94b-4501-980a-4c5409507415","licenseState":"","licenseNumber":"","expiryDate":null,"licenseActiveDate":null,"licenseDocument":null,"licenseName":null}],"deaInformation":[{"uuid":"dfc85220-df67-4937-8442-6fab6a24d454","deaState":"","deaNumber":"","deaTermDate":null,"deaActiveDate":null}],"experience":"","bio":"","errorMessage":null,"acceptNewPatient":false,"referralNumber":null,"spokenLanguages":{},"lastLogin":null,"colorCode":"#93ba1d","loginUrl":"https://stage_aithinkitive.uat.provider.ecarehealth.com","isReferral":null,"address":null,"practiceName":null,"temporaryEmail":null,"emailVerified":false},{"uuid":"267e54a0-d322-414f-811f-9dc7c701e7d0","email":"test.provider.1755305487347@medarch.com","firstName":"David","lastName":"Williams","phone":null,"birthDate":null,"avatar":null,"active":true,"source":null,"archive":false,"timezone":null,"providerType":null,"gender":"FEMALE","npi":null,"federalTaxIdNumber":null,"role":"PROVIDER","roleType":"PROVIDER","officeFaxNumber":"","licenseNumber":null,"groupNpiNumber":null,"taxonomyNumber":"","workLocations":{},"acceptedInsurances":{},"specialities":{},"licenceInformation":[{"uuid":"56cf7b9a-bf59-4975-9ebf-efb72165d497","licenseState":"","licenseNumber":"","expiryDate":null,"licenseActiveDate":null,"licenseDocument":null,"licenseName":null}],"deaInformation":[{"uuid":"41190477-e4a7-48eb-b6bf-692fbe09510e","deaState":"","deaNumber":"","deaTermDate":null,"deaActiveDate":null}],"experience":"","bio":"","errorMessage":null,"acceptNewPatient":false,"referralNumber":null,"spokenLanguages":{},"lastLogin":null,"colorCode":"#ca6a39","loginUrl":"https://stage_aithinkitive.uat.provider.ecarehealth.com","isReferral":null,"address":null,"practiceName":null,"temporaryEmail":null,"emailVerified":false},{"uuid":"81ad7b53-b949-48a3-90ef-c046b1e002d9","email":"test.provider.1755239879502@medarch.com","firstName":"Lisa","lastName":"Johnson","phone":null,"birthDate":null,"avatar":null,"active":true,"source":null,"archive":false,"timezone":null,"providerType":null,"gender":"FEMALE","npi":null,"federalTaxIdNumber":null,"role":"PROVIDER","roleType":"PROVIDER","officeFaxNumber":"","licenseNumber":null,"groupNpiNumber":null,"taxonomyNumber":"","workLocations":{},"acceptedInsurances":{},"specialities":{},"licenceInformation":[{"uuid":"dd4f7e13-1694-4fb4-96f0-635d452dbb3c","licenseState":"","licenseNumber":"","expiryDate":null,"licenseActiveDate":null,"licenseDocument":null,"licenseName":null}],"deaInformation":[{"uuid":"77ff0e28-fb54-40b7-8e86-7e5d34eaa774","deaState":"","deaNumber":"","deaTermDate":null,"deaActiveDate":null}],"experience":"","bio":"","errorMessage":null,"acceptNewPatient":false,"referralNumber":null,"spokenLanguages":{},"lastLogin":null,"colorCode":"#145381","loginUrl":"https://stage_aithinkitive.uat.provider.ecarehealth.com","isReferral":null,"address":null,"practiceName":null,"temporaryEmail":null,"emailVerified":false},{"uuid":"49b1ff5b-3cc6-4709-b840-abb2269dac71","email":"test.provider.1755219268641@medarch.com","firstName":"Robert","lastName":"Johnson","phone":null,"birthDate":null,"avatar":null,"active":true,"source":null,"archive":false,"timezone":null,"providerType":null,"gender":"FEMALE","npi":null,"federalTaxIdNumber":null,"role":"PROVIDER","roleType":"PROVIDER","officeFaxNumber":"","licenseNumber":null,"groupNpiNumber":null,"taxonomyNumber":"","workLocations":{},"acceptedInsurances":{},"specialities":{},"licenceInformation":[{"uuid":"9299bbcd-2a54-4185-ba4c-09acec7d328e","licenseState":"","licenseNumber":"","expiryDate":null,"licenseActiveDate":null,"licenseDocument":null,"licenseName":null}],"deaInformation":[{"uuid":"2283f769-27db-4ca6-b537-7dde01e83e30","deaState":"","deaNumber":"","deaTermDate":null,"deaActiveDate":null}],"experience":"","bio":"","errorMessage":null,"acceptNewPatient":false,"referralNumber":null,"spokenLanguages":{},"lastLogin":null,"colorCode":"#ce74e4","loginUrl":"https://stage_aithinkitive.uat.provider.ecarehealth.com","isReferral":null,"address":null,"practiceName":null,"temporaryEmail":null,"emailVerified":false},{"uuid":"6a5846be-f6a3-4867-801e-ef84c6e1c055","email":"Norwood_Kutch44@gmail.com","firstName":"Norwood","lastName":"Kutch","phone":"(121) 129-4983","birthDate":"1989-12-31T18:30:00Z","avatar":null,"active":true,"source":null,"archive":false,"timezone":null,"providerType":null,"gender":"FEMALE","npi":null,"federalTaxIdNumber":null,"role":"PROVIDER","roleType":"PROVIDER","officeFaxNumber":"","licenseNumber":null,"groupNpiNumber":null,"taxonomyNumber":"","workLocations":{},"acceptedInsurances":{},"specialities":{},"licenceInformation":[{"uuid":"e395b221-6637-4460-8605-99951b5c5f38","licenseState":"","licenseNumber":"","expiryDate":null,"licenseActiveDate":null,"licenseDocument":null,"licenseName":""}],"deaInformation":[{"uuid":"42fc4698-e77e-4579-91da-dc17bbcc60bb","deaState":"","deaNumber":"","deaTermDate":null,"deaActiveDate":null}],"experience":"","bio":"","errorMessage":null,"acceptNewPatient":false,"referralNumber":null,"spokenLanguages":{},"lastLogin":null,"colorCode":"#74617f","loginUrl":"https://stage_aithinkitive.uat.provider.ecarehealth.com","isReferral":null,"address":null,"practiceName":null,"temporaryEmail":null,"emailVerified":false},{"uuid":"4891ec28-c7d3-43b0-88a9-3d5e5c7d689f","email":"Elyssa.Blick@hotmail.com","firstName":"Elyssa","lastName":"Blick","phone":"(180) 562-0595","birthDate":"1989-12-31T18:30:00Z","avatar":null,"active":true,"source":null,"archive":false,"timezone":null,"providerType":null,"gender":"FEMALE","npi":null,"federalTaxIdNumber":null,"role":"PROVIDER","roleType":"PROVIDER","officeFaxNumber":"","licenseNumber":null,"groupNpiNumber":null,"taxonomyNumber":"","workLocations":{},"acceptedInsurances":{},"specialities":{},"licenceInformation":[{"uuid":"80355bc2-6033-43fc-aa53-4a07bd5a6f80","licenseState":"","licenseNumber":"","expiryDate":null,"licenseActiveDate":null,"licenseDocument":null,"licenseName":""}],"deaInformation":[{"uuid":"d8880cc3-c6a0-470c-a294-62660ebc4af0","deaState":"","deaNumber":"","deaTermDate":null,"deaActiveDate":null}],"experience":"","bio":"","errorMessage":null,"acceptNewPatient":false,"referralNumber":null,"spokenLanguages":{},"lastLogin":null,"colorCode":"#332232","loginUrl":"https://stage_aithinkitive.uat.provider.ecarehealth.com","isReferral":null,"address":null,"practiceName":null,"temporaryEmail":null,"emailVerified":false},{"uuid":"4098e6f2-300a-4277-8cb4-bef1e0fcc11a","email":"Shanna.Bednar7@hotmail.com","firstName":"Shanna","lastName":"Bednar","phone":"(146) 428-3733","birthDate":"1989-12-31T18:30:00Z","avatar":null,"active":true,"source":null,"archive":false,"timezone":null,"providerType":null,"gender":"FEMALE","npi":null,"federalTaxIdNumber":null,"role":"PROVIDER","roleType":"PROVIDER","officeFaxNumber":"","licenseNumber":null,"groupNpiNumber":null,"taxonomyNumber":"","workLocations":{},"acceptedInsurances":{},"specialities":{},"licenceInformation":[{"uuid":"3066438e-6e9e-44e0-a39c-a62098a4070a","licenseState":"","licenseNumber":"","expiryDate":null,"licenseActiveDate":null,"licenseDocument":null,"licenseName":""}],"deaInformation":[{"uuid":"e484ee24-2d91-4a80-aaf2-53d9184589a7","deaState":"","deaNumber":"","deaTermDate":null,"deaActiveDate":null}],"experience":"","bio":"","errorMessage":null,"acceptNewPatient":false,"referralNumber":null,"spokenLanguages":{},"lastLogin":null,"colorCode":"#454e85","loginUrl":"https://stage_aithinkitive.uat.provider.ecarehealth.com","isReferral":null,"address":null,"practiceName":null,"temporaryEmail":null,"emailVerified":false},{"uuid":"bd42d2ec-1260-4d7b-b2a9-2751f9ce8a2b","email":"Meaghan_Ledner14@gmail.com","firstName":"Meaghan","lastName":"Ledner","phone":"(332) 649-6307","birthDate":"1989-12-31T18:30:00Z","avatar":null,"active":true,"source":null,"archive":false,"timezone":null,"providerType":null,"gender":"FEMALE","npi":null,"federalTaxIdNumber":null,"role":"PROVIDER","roleType":"PROVIDER","officeFaxNumber":"","licenseNumber":null,"groupNpiNumber":null,"taxonomyNumber":"","workLocations":{},"acceptedInsurances":{},"specialities":{},"licenceInformation":[{"uuid":"46eb3127-0122-43f3-bbf1-7693a78c6b1c","licenseState":"","licenseNumber":"","expiryDate":null,"licenseActiveDate":null,"licenseDocument":null,"licenseName":""}],"deaInformation":[{"uuid":"9ee3898e-401d-47c3-904a-ec652d3b82fd","deaState":"","deaNumber":"","deaTermDate":null,"deaActiveDate":null}],"experience":"","bio":"","errorMessage":null,"acceptNewPatient":false,"referralNumber":null,"spokenLanguages":{},"lastLogin":null,"colorCode":"#b9913f","loginUrl":"https://stage_aithinkitive.uat.provider.ecarehealth.com","isReferral":null,"address":null,"practiceName":null,"temporaryEmail":null,"emailVerified":false},{"uuid":"3dfbb19f-02be-4586-b119-8ffdf060e2c3","email":"Arnaldo_Lubowitz@gmail.com","firstName":"Arnaldo","lastName":"Lubowitz","phone":"(219) 320-0735","birthDate":"1989-12-31T18:30:00Z","avatar":null,"active":true,"source":null,"archive":false,"timezone":null,"providerType":null,"gender":"FEMALE","npi":null,"federalTaxIdNumber":null,"role":"PROVIDER","roleType":"PROVIDER","officeFaxNumber":"","licenseNumber":null,"groupNpiNumber":null,"taxonomyNumber":"","workLocations":{},"acceptedInsurances":{},"specialities":{},"licenceInformation":[{"uuid":"5d11efd3-646a-4498-a7f8-02fe708cff83","licenseState":"","licenseNumber":"","expiryDate":null,"licenseActiveDate":null,"licenseDocument":null,"licenseName":""}],"deaInformation":[{"uuid":"b1e52e89-4f87-41af-ac67-d20c5a3df02f","deaState":"","deaNumber":"","deaTermDate":null,"deaActiveDate":null}],"experience":"","bio":"","errorMessage":null,"acceptNewPatient":false,"referralNumber":null,"spokenLanguages":{},"lastLogin":null,"colorCode":"#8000e9","loginUrl":"https://stage_aithinkitive.uat.provider.ecarehealth.com","isReferral":null,"address":null,"practiceName":null,"temporaryEmail":null,"emailVerified":false},{"uuid":"f5fe843f-95ed-4d9a-a488-5368c2b9093f","email":"Jarrell_Paucek90@yahoo.com","firstName":"Jarrell","lastName":"Paucek","phone":"(135) 125-4769","birthDate":"1989-12-31T18:30:00Z","avatar":null,"active":true,"source":null,"archive":false,"timezone":null,"providerType":null,"gender":"FEMALE","npi":null,"federalTaxIdNumber":null,"role":"PROVIDER","roleType":"PROVIDER","officeFaxNumber":"","licenseNumber":null,"groupNpiNumber":null,"taxonomyNumber":"","workLocations":{},"acceptedInsurances":{},"specialities":{},"licenceInformation":[{"uuid":"9e64f43b-28a3-4141-b3c6-5ffed5524805","licenseState":"","licenseNumber":"","expiryDate":null,"licenseActiveDate":null,"licenseDocument":null,"licenseName":""}],"deaInformation":[{"uuid":"33aa9d63-56d6-40bd-8464-7f69c276f823","deaState":"","deaNumber":"","deaTermDate":null,"deaActiveDate":null}],"experience":"","bio":"","errorMessage":null,"acceptNewPatient":false,"referralNumber":null,"spokenLanguages":{},"lastLogin":null,"colorCode":"#eba5ff","loginUrl":"https://stage_aithinkitive.uat.provider.ecarehealth.com","isReferral":null,"address":null,"practiceName":null,"temporaryEmail":null,"emailVerified":false},{"uuid":"ffcfbaa3-f416-462e-8ee0-1bb55cb7e441","email":"Darren_Barrows77@hotmail.com","firstName":"Darren","lastName":"Barrows","phone":"(478) 938-5568","birthDate":"1989-12-31T18:30:00Z","avatar":null,"active":true,"source":null,"archive":false,"timezone":null,"providerType":null,"gender":"FEMALE","npi":null,"federalTaxIdNumber":null,"role":"PROVIDER","roleType":"PROVIDER","officeFaxNumber":"","licenseNumber":null,"groupNpiNumber":null,"taxonomyNumber":"","workLocations":{},"acceptedInsurances":{},"specialities":{},"licenceInformation":[{"uuid":"996c2694-b058-4166-8d11-8cfe0b2e92c6","licenseState":"","licenseNumber":"","expiryDate":null,"licenseActiveDate":null,"licenseDocument":null,"licenseName":""}],"deaInformation":[{"uuid":"adbcc0e4-6db8-45b5-85f3-e326700befbd","deaState":"","deaNumber":"","deaTermDate":null,"deaActiveDate":null}],"experience":"","bio":"","errorMessage":null,"acceptNewPatient":false,"referralNumber":null,"spokenLanguages":{},"lastLogin":null,"colorCode":"#ef6b46","loginUrl":"https://stage_aithinkitive.uat.provider.ecarehealth.com","isReferral":null,"address":null,"practiceName":null,"temporaryEmail":null,"emailVerified":false},{"uuid":"03c617c1-826c-4b7c-8f8a-b3b85203d8ba","email":"Twila_Volkman3@yahoo.com","firstName":"Twila","lastName":"Volkman","phone":"(191) 729-3723","birthDate":"1989-12-31T18:30:00Z","avatar":null,"active":true,"source":null,"archive":false,"timezone":null,"providerType":null,"gender":"FEMALE","npi":null,"federalTaxIdNumber":null,"role":"PROVIDER","roleType":"PROVIDER","officeFaxNumber":"","licenseNumber":null,"groupNpiNumber":null,"taxonomyNumber":"","workLocations":{},"acceptedInsurances":{},"specialities":{},"licenceInformation":[{"uuid":"63df89a5-a441-421e-8f3d-1ddbee40d5c1","licenseState":"","licenseNumber":"","expiryDate":null,"licenseActiveDate":null,"licenseDocument":null,"licenseName":""}],"deaInformation":[{"uuid":"9071334b-446f-4934-8641-5f182b8e2093","deaState":"","deaNumber":"","deaTermDate":null,"deaActiveDate":null}],"experience":"","bio":"","errorMessage":null,"acceptNewPatient":false,"referralNumber":null,"spokenLanguages":{},"lastLogin":null,"colorCode":"#e82107","loginUrl":"https://stage_aithinkitive.uat.provider.ecarehealth.com","isReferral":null,"address":null,"practiceName":null,"temporaryEmail":null,"emailVerified":false},{"uuid":"d3baa279-4570-4531-a9ff-c6d3117e2a08","email":"saurabh.kale+AutoFNeEvNgQ1755181348027@medarch.com","firstName":"AutoFNeEvNgQ","lastName":"Davis","phone":null,"birthDate":null,"avatar":null,"active":true,"source":null,"archive":false,"timezone":null,"providerType":null,"gender":"MALE","npi":null,"federalTaxIdNumber":null,"role":"PROVIDER","roleType":"PROVIDER","officeFaxNumber":"","licenseNumber":null,"groupNpiNumber":null,"taxonomyNumber":"","workLocations":{},"acceptedInsurances":{},"specialities":{},"licenceInformation":[{"uuid":"b09f859c-6147-4fb7-a0ba-083de712e46b","licenseState":"","licenseNumber":"","expiryDate":null,"licenseActiveDate":null,"licenseDocument":null,"licenseName":null}],"deaInformation":[{"uuid":"1d4a3079-afc2-4e47-ae11-1ab3f07170ca","deaState":"","deaNumber":"","deaTermDate":null,"deaActiveDate":null}],"experience":"","bio":"","errorMessage":null,"acceptNewPatient":false,"referralNumber":null,"spokenLanguages":{},"lastLogin":null,"colorCode":"#3d5419","loginUrl":"https://stage_aithinkitive.uat.provider.ecarehealth.com","isReferral":null,"address":null,"practiceName":null,"temporaryEmail":null,"emailVerified":false},{"uuid":"d590127e-52ea-485c-aaab-31efa2e7c338","email":"saurabh.kale+AutoFNumwqqV1755177913963@medarch.com","firstName":"AutoFNumwqqV","lastName":"Martin","phone":null,"birthDate":null,"avatar":null,"active":true,"source":null,"archive":false,"timezone":null,"providerType":null,"gender":"MALE","npi":null,"federalTaxIdNumber":null,"role":"PROVIDER","roleType":"PROVIDER","officeFaxNumber":"","licenseNumber":null,"groupNpiNumber":null,"taxonomyNumber":"","workLocations":{},"acceptedInsurances":{},"specialities":{},"licenceInformation":[{"uuid":"9dd6430d-699b-40dc-853a-1421f31a3b12","licenseState":"","licenseNumber":"","expiryDate":null,"licenseActiveDate":null,"licenseDocument":null,"licenseName":null}],"deaInformation":[{"uuid":"b6f1af7a-ad20-4e44-8389-bdaf06293809","deaState":"","deaNumber":"","deaTermDate":null,"deaActiveDate":null}],"experience":"","bio":"","errorMessage":null,"acceptNewPatient":false,"referralNumber":null,"spokenLanguages":{},"lastLogin":null,"colorCode":"#e6acdc","loginUrl":"https://stage_aithinkitive.uat.provider.ecarehealth.com","isReferral":null,"address":null,"practiceName":null,"temporaryEmail":null,"emailVerified":false},{"uuid":"d12e0f97-254c-4cd2-a4c1-8e8526941256","email":"test.provider.1755167911667@example.com","firstName":"TestGJjLXK","lastName":"Davis","phone":null,"birthDate":null,"avatar":null,"active":true,"source":null,"archive":false,"timezone":null,"providerType":null,"gender":"MALE","npi":null,"federalTaxIdNumber":null,"role":"PROVIDER","roleType":"PROVIDER","officeFaxNumber":null,"licenseNumber":null,"groupNpiNumber":null,"taxonomyNumber":null,"workLocations":{},"acceptedInsurances":{},"specialities":{},"licenceInformation":[],"deaInformation":[],"experience":null,"bio":null,"errorMessage":null,"acceptNewPatient":false,"referralNumber":null,"spokenLanguages":{},"lastLogin":null,"colorCode":"#097a13","loginUrl":"https://stage_aithinkitive.uat.provider.ecarehealth.com","isReferral":null,"address":null,"practiceName":null,"temporaryEmail":null,"emailVerified":false},{"uuid":"7e23add3-6d34-48af-ae36-d26e5b2f4339","email":"test.provider.1755167868672@example.com","firstName":"TestTlvCik","lastName":"Smith","phone":null,"birthDate":null,"avatar":null,"active":true,"source":null,"archive":false,"timezone":null,"providerType":null,"gender":"MALE","npi":null,"federalTaxIdNumber":null,"role":"PROVIDER","roleType":"PROVIDER","officeFaxNumber":null,"licenseNumber":null,"groupNpiNumber":null,"taxonomyNumber":null,"workLocations":{},"acceptedInsurances":{},"specialities":{},"licenceInformation":[],"deaInformation":[],"experience":null,"bio":null,"errorMessage":null,"acceptNewPatient":false,"referralNumber":null,"spokenLanguages":{},"lastLogin":null,"colorCode":"#534de8","loginUrl":"https://stage_aithinkitive.uat.provider.ecarehealth.com","isReferral":null,"address":null,"practiceName":null,"temporaryEmail":null,"emailVerified":false}],"page":{"size":20,"number":0,"totalElements":2565,"totalPages":129}},"path":"/api/master/provider","requestId":"35138704-3f60-4339-a7aa-41ee810619b9","version":"1.0"}