{"date":"2025-08-18T06:30:48.456+00:00","code":"ENTITY","message":null,"data":{"content":[{"uuid":"0c9a8557-9a4a-45ed-a785-6cf918f30ba5","id":null,"firstName":"Jordan","lastName":"Anderson","email":null,"ssn":"","mrn":"","birthDate":"1996-11-19T17:24:21.736Z"},{"uuid":"d153002a-5a1b-43b1-b935-537b7b2a11fe","id":null,"firstName":"lucy","lastName":"rey","email":null,"ssn":"","mrn":"","birthDate":"1994-08-16T18:30:00Z"},{"uuid":"75198591-1ec6-4768-84e5-8523faef6711","id":null,"firstName":"Casey","lastName":"Clark","email":null,"ssn":"","mrn":"","birthDate":"1987-06-15T15:24:14.554Z"},{"uuid":"70789291-d97b-48e6-b57f-2f474f42da27","id":null,"firstName":"Jordan","lastName":"Martinez","email":null,"ssn":"","mrn":"","birthDate":"1990-06-30T01:52:47.994Z"},{"uuid":"c51650dc-f1c6-4f60-91f6-ff19aaca4f75","id":null,"firstName":"Jacky","lastName":"Welch","email":"Dawn60@yahoo.com","ssn":"","mrn":"","birthDate":"2021-09-03T18:30:00Z"},{"uuid":"48576745-8fd9-4e73-99b0-82c4e7d6323d","id":null,"firstName":"Domenic","lastName":"Mayer","email":"Dawn.Auer@hotmail.com","ssn":"","mrn":"","birthDate":"2005-12-26T18:30:00Z"},{"uuid":"c4c41d0a-19f0-469e-8b1f-b6696ac6b9ab","id":null,"firstName":"Pansy","lastName":"Roob","email":"Aliyah37@hotmail.com","ssn":"","mrn":"","birthDate":"2008-05-15T18:30:00Z"},{"uuid":"2964e107-d20e-4419-8978-1d0a8ae0ab0a","id":null,"firstName":"Dina","lastName":"Boyer","email":"Callie.Blick68@yahoo.com","ssn":"","mrn":"","birthDate":"2013-04-17T18:30:00Z"},{"uuid":"ebd8665b-970f-42d7-9b4a-7aaf3f20fab0","id":null,"firstName":"Rahul","lastName":"Jaykar","email":"rahuljaykar@gmail.com","ssn":"","mrn":"","birthDate":"2002-04-08T18:23:00Z"},{"uuid":"6844507a-37e8-44f4-a246-09e80a6418be","id":null,"firstName":"Sam","lastName":"Martinez","email":null,"ssn":"","mrn":"","birthDate":"1977-07-18T19:11:18.457Z"}],"page":{"size":10,"number":0,"totalElements":1937,"totalPages":194}},"path":"/api/master/patient/patient-search","requestId":"d912ad4f-5e68-44c8-9da0-b80e392d3dbf","version":"1.0"}